6
4
9.5 4.5
5.0 12.0
8.000000000000002 11.0
1.0 10.999999999999996
14.499999999999998 7.499999999999998
10.500000000000002 4.5
2.0 7.9999999999999964
13.000000000000004 5.0
9.0 14.00000000000001
6.5 14.5
Distortion: 13.197838730606415
