6
8
6.99999999999999 6.999999999999997
2.5 9.500000000000007
5.0 4.0
11.0 6.0
7.5 3.4999999999999996
3.9999999999999902 7.0
6.000000000000001 9.999999999999998
4.5 5.499999999999999
11.0 9.0
10.500000000000002 3.5
Distortion: 12.334020111878404
