320
0 260 0 260
1000
114.8976126439894 90.62980275005495 3
171.7078049810379 117.52644600835083 1
94.07921493662823 163.33603799188805 5
174.2438578857019 83.71054622860662 6
90.44996503299917 169.27630205799832 1
199.28367548779872 209.88752475329122 3
96.01713163034714 157.71577666561663 2
194.8946891674482 144.12233243548042 7
90.77990529999681 157.7796698420918 6
160.2762528991998 102.76510609488251 1
97.25157384900287 163.13492411250925 5
68.44641776627712 159.45257126991535 1
159.59960186318074 140.33449008739024 7
198.19080704887975 181.48954280688469 2
100.87990568793218 159.56460445041847 5
186.95706976191445 54.320331157053445 3
85.92704343603202 68.36984359581481 2
110.86104810160914 85.67104269141552 3
115.88972228538327 68.45917466236955 6
170.72075080409292 117.08795237474408 7
135.10292545799695 157.11918383216033 2
120.54291056857863 125.31030066599678 4
104.9992566803688 75.93706235708532 4
179.2045527633691 95.90453786074819 7
74.96227560950786 169.04863045007912 4
170.77770552053082 35.122331554533005 5
174.83887163085245 86.70307301978583 1
103.836376539955 188.28151439407128 7
96.78242455295091 55.076003214721354 7
169.14072248197778 43.75608677629285 5
51.83706580798239 160.78884397046346 1
201.06063719589997 139.12938378582248 5
81.55402327199533 185.83972257899038 3
100.9302739005234 179.34474278660713 8
106.87855332169475 195.7369222390119 6
193.83682706738654 197.3301900184785 8
191.49413551892223 78.20612831727928 5
101.50345040336576 186.9675640098676 8
139.51853561386596 74.77105338408796 7
142.374526580212 132.30281109839797 3
205.27426290103628 130.65794827458194 2
99.02547996920595 68.80440978593403 5
111.31534979996783 71.06476419458525 7
196.7149508982738 131.61313124091973 7
117.62792423640846 61.98581240232486 8
96.50851599110403 202.14419999409603 3
117.4495589393887 171.13015109294415 4
117.18185226362993 93.63141182437151 5
138.99488916957947 156.4804876947575 3
211.34730467113525 171.9878084326998 3
108.70184145640745 193.93748283447601 8
94.35118727173351 172.63223131766463 3
107.91054040481905 181.7226006966684 1
181.91567818489713 133.26225676776045 5
97.47093122173928 189.9016349149627 5
185.94425324018655 129.38466643149675 7
167.37533038911025 46.68820529929561 6
44.18455379195746 200.28759653852322 2
60.52858238173123 23.232596779468636 6
190.58828219731404 137.5051195759479 2
178.70565351302176 136.36764716824294 3
195.69135416773693 216.41212613567086 3
68.00884214208757 132.55897647811608 4
39.59338152108104 38.72480323202775 1
208.12721673466896 199.98265770999012 7
193.9524227226989 143.77458370315432 6
167.9615523614845 121.25612966975042 8
56.004504152560145 186.19272020243648 7
179.83841317439962 130.3369719033792 4
178.10753218917543 43.95882721956634 7
65.75502272555214 168.14376482073646 4
176.44907318967822 48.080805282614776 2
152.2597145543719 88.18088071647583 6
44.56209754110678 175.10542646933274 6
43.15564377775405 208.70190424045705 2
163.03659914697477 66.80294455888594 1
199.3459879615475 164.09949584850233 8
118.43265092615083 90.11589239172434 5
158.10018830852277 94.43814851663215 2
190.75383579933376 203.00083843469207 6
169.32038357917585 34.60419273361755 1
104.73056735923217 139.86112429080382 6
107.01043574115668 110.14175561483181 3
81.37820730294156 148.57419328663113 4
196.8071797550386 167.7688228827198 1
201.28918245532444 204.00274487075586 6
33.67168056359128 46.65189333435212 8
212.80372552666822 171.03100258763922 3
37.11199226740314 58.26693957310419 1
203.02933812631662 205.41281153453144 1
112.49196192553313 179.91277707647603 3
183.81478576206243 40.163039629411514 6
202.51115076123668 206.60935445049495 6
51.322630090553574 174.51299839040735 1
97.92607231679229 124.58756748082942 8
171.98934569671712 39.12527132030934 2
7.615490254724783 114.96793433831323 4
97.25185575813641 177.1142211702924 8
189.21991534932187 133.36322818610898 6
95.01985825646175 163.3135097667634 3
95.4305872237872 88.38010584676483 1
174.21828500299523 86.18894863985899 2
196.6872915846013 217.65566507613264 1
158.41177345645957 39.78993390275989 6
99.43959576583842 174.72297696896106 1
170.89542075377375 39.52655354838512 2
115.46570349176768 78.48206829291756 4
117.04670331326453 92.39392098393635 3
33.40176854826144 33.78787718178586 4
107.99636836776686 72.18002284134873 2
190.7103478238206 160.70918924204162 5
177.964756359657 131.2847931629067 5
175.68483218703784 42.159841326593146 4
95.74010162951178 175.97797281610335 7
41.06142960828138 194.02925962130874 8
177.62259628933987 180.49500640234908 7
128.8820945912266 152.08372207599524 2
173.04247145769466 35.80336160391775 5
42.01323503941627 161.48754857353492 1
185.74836312068203 103.30503162418873 2
154.48601739922464 152.82174828944824 8
197.78114672284119 138.12215183231527 7
181.5530383939341 45.030812336907736 7
60.69574442011924 55.93233868068243 3
106.02667474612787 73.0336464391158 6
80.33079283884804 85.16015228470478 6
197.55105628463542 132.8513175138691 3
38.648469160542334 185.74716318369522 4
52.99626592321046 73.76589757506477 7
190.27543201361908 205.46405916082134 2
122.50392965661942 126.75079922475567 6
33.38642308325951 192.239056254207 4
164.92447196579508 145.74938766434457 2
101.83348965450207 190.37111765112766 7
164.86170485684227 114.11650710254523 1
32.71080607984914 61.10038290945723 6
180.89950989673503 34.75630916900057 3
199.21121949998061 203.48189077152801 1
109.49731628171286 201.6067829295384 6
43.69450739670812 157.35506688785722 8
180.61947358279505 139.0425852303276 2
173.48539829020598 123.05791664101497 2
113.16256428268665 89.53750924711353 4
178.37381194438467 132.39759554843974 4
203.61990051937076 196.8734085815999 7
176.43429326762393 149.6631062034548 4
123.07378417518802 83.21252219697485 3
175.92701973130184 45.97515133575092 5
111.50624075779037 204.17011863121175 3
175.8485692282247 70.90140315818066 3
25.32441730681827 205.33396877193823 4
191.54268898635584 52.56754709695681 3
173.80999336779146 106.27229243539497 1
212.52456759696048 128.80525513118363 1
156.99809897627458 91.06736315555223 7
198.46526048331953 191.473082833582 6
181.33122607378195 128.744140719269 6
96.96224047505362 182.7684322439272 4
118.39528844992924 85.23054800605141 6
167.34385406860417 46.21188397154144 6
223.6478302585366 164.13059370800133 2
22.64111717296101 119.4090593254763 2
179.82413077825615 37.731178723930455 4
182.8612846321771 134.53643123868724 7
39.99599949585059 34.47241431968075 7
182.30311230797366 84.60745795690865 3
135.95787500545038 83.79638612640632 8
97.20967024331979 178.06670340085304 1
166.7151898070304 171.16498558596743 4
201.29515184698383 208.61141494746673 4
104.0344327734788 179.14002120595578 8
212.1571763054695 206.19079214701316 2
117.46721610706108 194.06711893392895 1
57.88112698211089 70.8514348102921 1
177.47326639739288 120.29243521759777 1
184.0692745341294 91.4609828433737 8
35.02392986250801 74.82971416921589 2
51.01831847553939 166.8465668068205 3
91.44492743521593 160.73028049101623 1
198.4121174484148 137.45370371844822 7
202.18918419619592 137.48842822047658 1
182.51284243943593 128.16304665229472 2
178.03210084152832 38.209547964587344 5
177.3270998753464 99.41604189609154 5
189.1656275789975 113.76470216907973 4
110.45113216323671 190.32295549633972 5
101.97846108457291 49.14902336575949 1
112.59311539146637 84.35933679823941 3
212.39185663188033 205.2834882094153 6
163.11062658167498 144.28000807229637 1
177.89013129797686 80.00131415404218 2
176.47507587357367 140.16160002408358 8
101.17667329062499 187.8013260124857 5
184.92325493644412 89.75426059429365 5
180.06608729410672 31.613847148076573 3
202.2485350601927 209.47536513215005 8
103.02061151040913 176.60485495670733 2
195.8325594969268 203.79185567182907 5
117.42201049804027 76.6517280212582 5
103.30828988379267 64.80182979839195 5
119.01545885398906 82.69669442511952 2
141.62682116821892 188.2014722402831 5
178.83462750538544 130.4649890741359 7
45.574023351541264 202.06923718154437 6
161.00063745919832 71.90149377433 4
172.48924976080727 110.89312086064152 4
175.2325194687873 69.2009826809407 1
178.48234437359434 48.6530900027829 1
158.35144361375404 76.3605388160091 7
164.08117200642096 32.06406270351331 7
105.1116504048543 177.3567683278008 3
205.45221359021616 207.29465697377083 1
51.47150431627276 34.08860190726898 4
50.49913898274322 137.56785263696233 4
23.257871289639603 93.44009415370967 8
99.63598538759703 153.2124838828063 7
12.845858749830551 170.58176192919126 3
111.6199335641846 87.54388987513138 5
22.326693728613243 89.83429621839365 8
206.6553601364717 133.8268405299381 8
159.72813516118424 105.0473853173449 3
197.9487715099358 214.57573530249852 2
52.433966828001104 71.39624385059646 2
195.44399946191763 140.58821469761807 6
125.94729325964589 84.46722368566726 4
111.8364133762271 83.1903126630305 6
7.333659677575191 76.30477335069762 4
170.37653535953262 37.835073435035724 1
199.30542827134653 199.5757975839294 2
50.611534249260394 163.64184050988584 1
174.59590549766074 140.65060659592942 6
97.26092372427932 172.00035443507156 8
99.60534763064044 199.21798185497727 1
132.2830676755868 182.45910593259018 7
180.8739715188301 132.3666919592729 2
179.77068100858807 135.89927633425253 4
171.98205156401684 137.8594582985581 3
172.28486419893215 125.01745827402378 1
93.5964591821199 165.1873252238281 2
38.219365070965644 187.13815516648646 2
178.33875844590256 137.31461212332312 2
119.99200476864411 80.51416568900589 5
102.20568895067183 178.26641366976207 2
96.54631340178929 193.73482706693386 2
113.50150549452684 166.97954923588958 5
176.58433698360213 129.75275244234527 6
164.75075013777257 138.60377014618012 7
101.8558616522307 179.77472800492694 7
173.6599132984754 57.12011130683406 6
193.94630966140818 61.98513582205309 2
174.0359119218288 108.70904866070327 7
210.06010862095974 198.96911424768064 7
94.08663936342622 172.36313050324347 6
94.20843037416513 153.2443926302795 8
186.25712606514566 134.791586570585 6
198.18283258247172 191.07858007595473 7
182.4376648083233 140.1735540527113 6
109.61023253328523 77.4719531658485 6
96.236085762747 135.89498268943936 8
175.5684024601899 130.0092065721615 1
170.3029554978357 37.58804191722829 8
98.06160057771476 167.37700709661442 4
114.07954686148378 80.5986511133482 3
164.3483556266814 157.90961899110104 3
152.70693368334926 160.04718629905324 2
198.78542570824493 186.6896885765231 2
95.15097267284945 171.53190085309186 8
95.17222653103663 165.62533486130283 4
31.19908619220778 203.60375259638775 6
77.81217511943933 55.641703361147655 7
178.2563536296217 93.0465829356096 8
174.23204002752536 135.8437095974773 2
10.032709640647948 205.7269622915844 7
93.11079919422028 174.9572640701106 4
191.13862943509199 211.96507819966644 2
210.43498074541625 201.0891812747367 7
202.78590659758856 187.4353919977388 1
108.5743617836334 71.63467292889483 5
93.17065311799581 147.69328545614573 8
118.40903942568019 130.11840124579953 2
197.81014352772053 209.41655497018488 2
98.95418076080378 176.36878724341202 1
179.19897990375472 120.33176286658055 4
45.571533784203666 170.17931314765565 1
201.2219129800536 210.50339052667385 3
186.80278901016047 135.30746205767534 8
197.44015139802784 201.96464992646062 5
171.21534447783338 67.34572798833672 5
109.47495057078127 196.54438021794527 8
97.72778264638107 150.9686815936142 8
130.07507041558839 152.23499335376923 4
65.72808639386957 157.20879685715204 4
147.05364322273752 76.67950196409873 3
67.45374906371366 153.76319861309008 4
92.61707945294104 74.57318910826226 5
39.6701117003881 178.445287161718 7
136.92185655425314 121.26637573312674 6
113.9711992773935 87.78186886756514 4
45.205404800060684 104.16073722049262 4
144.22035109469553 172.4386610198319 4
137.80079852069636 173.8751324576636 3
64.62622628435571 56.35716362995254 4
178.73693278889147 128.65210518112536 1
178.9796897892596 137.2260053356975 1
185.0294913085836 129.2104883112187 8
29.289616807304252 177.2927205256972 1
89.86441034737297 166.63609485781564 2
98.22631371451645 133.14622026547198 5
42.10834001038418 164.20376239586534 1
34.71584550765378 155.774080730294 1
165.69806001642567 53.78477817567651 7
184.34142317896718 127.05836867947978 7
171.22803407783323 47.379024321872635 2
121.24686549870546 141.99926468704467 7
101.80559490102503 197.3535615143218 4
175.18451834726255 60.97578142194542 6
84.09580641415828 174.5132880791153 8
169.1746667372088 167.66018890874165 6
141.90399976480967 75.25390258438112 5
178.30766881434354 133.72320549112794 3
94.76616649225758 169.71694117644503 5
88.03268423028491 123.17671007858657 6
149.8410863840801 86.93921819107908 2
133.79343145449155 79.0550569283811 5
100.12310346898268 177.8611000247973 3
99.23792846162551 183.4637684906083 4
118.61509544344747 109.55563840401193 6
195.5994038890514 141.68949406704215 1
4.0 54.60624448478708 4
211.77891319892257 177.4762682650717 4
99.1270732141764 183.43587268789798 7
153.58428181567874 84.32638210551988 1
117.90908953927422 77.99950454530709 6
163.07679028132992 160.2454487835677 4
84.49454415848646 140.70536977820254 1
76.66013869058817 58.423404133933786 5
203.7900620204734 207.7407862253565 8
56.34653388089028 201.6219387876578 8
201.15081048236544 218.07527690275305 3
125.4841036704649 83.52206787156673 5
180.57503297125018 130.82185175558237 5
109.51448620183281 64.6576796024625 3
131.07924206073335 176.15150474734597 8
175.78501614799237 124.16264038291513 3
135.96631046939615 86.013134454053 8
40.2378973450027 151.53937856557346 8
172.1433585555149 136.88383770940018 1
27.732393546869933 63.369001337851124 4
124.2101028908034 80.42938689159996 8
108.11485590681421 186.9724172224228 2
185.06515604180447 74.02445048626721 2
199.87000499749087 161.92243728223448 3
145.31598359626003 93.10357003305624 5
96.78652202871208 164.4169657729267 1
45.367519140986055 167.17506134896843 6
200.99144001951504 223.2495509653222 2
188.33571326651966 131.02151772467266 5
194.1489926384146 209.14034509072542 5
105.98012286823699 63.836233992562505 4
159.37370917024097 155.62463882428546 2
111.27449971267293 87.98580976324884 7
79.54567570449511 28.509239978186194 4
171.58418553698723 153.4704890190832 6
191.0631175531921 156.2456122372229 5
190.58287314202263 217.0585485894644 6
173.74112044501229 33.5418399470467 4
102.13156626817349 174.22545920899094 3
92.27979447836826 169.3451916312972 1
146.78869028403625 154.6455750370836 1
123.12892396491837 95.40696712871981 8
196.54074801562365 214.45820758213654 2
38.33750468665978 159.78573010329032 1
34.21652352957305 85.12147234206392 1
160.1414986279731 79.00136528386908 4
180.35074103512054 110.52694365709213 3
184.39078660414637 56.661870033552916 2
162.7582222056114 150.7898772761265 7
166.2709608957244 36.9454277719887 2
42.145904379320065 109.94154746127438 7
133.80182975583327 190.3937946338912 5
52.40556504461943 196.53405802509968 8
97.29607946312933 63.048397027901416 8
50.713687900114195 8.827862642356124 8
96.47704506229638 177.6305956950171 1
102.19199159394034 81.38983008709202 8
103.18410653544898 181.50806925420324 1
73.29231635567669 184.3444416270027 7
115.52590429138851 202.54114476208798 5
4.0 75.18318243407793 8
172.93351128711814 131.40482457409723 3
169.88694793062737 95.5524558931891 4
115.35194686155047 91.93198821855904 7
93.44735096891755 169.61286999599022 7
30.588910884422006 201.50861870929324 5
181.4149741134237 142.0318580527665 5
171.29110942558964 127.71374051027087 8
63.271850074026 168.52972584145982 4
179.88353236239408 91.86070399184528 2
70.56389215722733 29.188326426204544 1
55.26665941973694 165.60465298795015 6
41.37511266692831 190.8865881505047 1
74.03584817063525 156.57524528336734 5
169.62838811657704 36.643035092621226 1
112.20358710977355 149.42064177983153 6
132.4706285298015 168.47288514954002 4
169.15546910393422 87.04572559827844 4
100.13559807087749 178.72755149844104 1
15.22693171241805 175.2291205708239 8
173.43723669620283 88.21294454685886 3
100.39690363956886 165.2918456211416 8
20.789062370442185 114.8786667165467 2
173.53743652692813 49.15282792500604 6
23.084324070681014 162.1214856797702 8
104.47796116271623 188.72428108219913 1
105.98720456373373 154.26652036611054 3
27.93254256087336 176.53966508418372 7
72.66896350611816 17.720297776528746 3
100.17107142222834 45.3201933822853 5
202.4150272491601 203.49518719402545 8
103.6265609345854 165.5644520925778 7
38.7243250643308 151.40519541499944 8
86.48036050068559 155.79399395932265 2
37.92548783789784 162.26722776483052 6
111.56593452847716 186.25668697203972 8
63.54860002707902 152.4791883717453 6
104.0663633569637 189.22751735458664 7
103.6181961289831 186.42812724165458 4
138.16835660023787 144.72859265660588 1
94.82773721062544 171.280193235227 5
196.35269612854245 214.0960497523812 3
194.817655561478 198.91825367126305 6
96.8039443557621 158.30645242848055 7
173.37454412374515 129.19553380337857 3
170.53429600046792 107.54978536218347 8
98.77287893672636 192.73052394790676 6
187.67848305737158 134.19623431363732 6
105.51101595480287 205.60719554355128 8
67.35494133512725 197.13027944452952 4
87.68202004316902 155.01206205334324 1
160.4205172512592 33.166137389446625 6
211.04637906524766 202.61263456313085 6
177.7168446286415 137.6283745795682 2
192.40673668404858 198.5190754771124 2
204.60382294699207 211.3395231249672 1
194.53357398070168 209.3335649296987 7
190.89491009109042 179.86235717689695 7
149.63290460272557 161.51849403871125 1
101.98106021379846 81.79753709704424 3
112.35779796118626 91.39732288656323 6
102.48482816921386 168.8959752746322 5
105.33952293376313 203.822216640796 5
88.12786269348345 165.8649634811424 4
106.31161978113461 165.10271389160064 7
119.22753703127881 161.01193244804702 3
8.90147108461943 58.27086333676869 6
185.95647138165842 136.45157154804275 1
101.46888884947991 180.91002846664156 3
167.39100149132216 108.48001774665302 8
129.78367310319013 111.60274020764702 7
197.64044801537582 220.0037851761709 1
113.98588816709987 184.5187517359481 7
113.5300044905439 148.99011458200812 3
41.025363695088025 172.39220828122447 4
107.37270928407204 160.14849916056957 7
22.447522921523692 172.4331301254326 6
133.9843330414091 192.7216412904626 3
38.42879363549462 57.47157105283121 8
34.68221571484011 146.9295429070563 8
84.38071151204328 201.9552509599207 2
114.70268368865872 80.34012741955422 5
99.7095962518613 169.86179057103172 5
122.16775646186589 100.78943846585452 2
167.38240687552943 88.81608306607613 2
100.71213042506805 175.0968724631925 1
99.52365971377819 205.0966974362375 5
114.35092375606698 86.00619922953486 2
179.4311236114417 40.7135485001964 2
175.67152190020832 132.15571745885015 8
168.472210954419 52.6466777680878 2
183.50582560520948 131.7943473174849 3
215.1018833682831 195.67415548877142 7
147.20893792241978 151.27360384294397 5
169.3397854883447 79.35975740024924 7
79.03035992063903 58.862992926781764 2
204.35213098482433 164.34842745989988 8
75.94075431601249 61.3695506844727 7
111.44407135681344 72.09184685616572 5
91.312472649849 159.52732436808435 3
200.53558963924462 215.4229786713645 6
34.34892929935416 155.8622419277851 6
144.2131224306226 94.73124288548378 1
193.51417293172028 139.09980224154842 2
158.83958987665508 145.92622341941345 4
166.76232452907925 31.602230943077156 1
54.44244194828947 141.17196221905343 4
200.3755533840213 154.86258363493283 5
164.823975054928 147.64207221531436 1
190.05567002857117 88.6478969582924 2
172.6043321445677 70.86805652992922 8
94.730597717584 169.1994650918521 2
177.34656205653494 35.51002905963884 6
123.81076173333219 148.57524267118686 7
165.0264600498744 95.16622914677502 6
181.36750308296908 116.99965824903694 6
105.55604868191098 184.09249349588865 8
189.06688731897697 209.94847067234093 5
108.0410453531322 70.94385322036055 8
35.14882829721075 45.229361043829414 7
96.93954170572404 178.92338163165903 3
104.95558943446122 172.27849751464535 8
196.8419001196809 140.60068518239297 7
178.97793681210564 60.503137688115956 6
117.62426433245446 179.9969944824099 2
183.49199339058399 148.67132957662568 4
193.58197915227007 218.23682904635467 4
149.53096186073918 90.57797267528886 3
112.75768301852372 97.01213034835037 6
102.99872238351266 172.35474712437036 7
210.4764206110434 204.15368901173616 6
184.90929215222351 135.71599276922717 2
206.64129699862636 200.35606098432552 7
27.81918315368278 74.65509700686256 1
162.63027522995617 140.53823776457256 3
175.83552495166384 111.52346308313237 2
177.16666862028018 134.02728420151197 8
184.8978393308718 132.50412584680558 8
97.29248409442862 175.35082422769528 6
66.80724166174089 67.02966017079873 8
173.72890493394357 132.46017322367177 7
95.23129304203053 189.35421240016004 1
202.18777790765432 201.24957642800103 6
198.4459253161306 216.81642728031005 8
178.43466627225496 131.2390508093961 3
64.76570003173711 87.04081711327495 2
196.5732601281515 136.11236508347105 2
104.3046832605659 64.78940400508468 2
197.0701356117336 214.25480207228213 5
37.62243941698444 40.83033396270726 5
188.3901910682388 141.94987926880464 3
179.14469342142388 72.88413145366926 2
41.09705710285363 183.78026477015857 2
69.73726215516818 48.804629480779894 8
161.14537510684872 148.14698211276422 2
112.04486278562602 77.96702986126408 6
4.0 60.38773066239562 5
30.39741422094489 177.28887169447097 4
90.13275399770959 179.17874511724946 2
104.88699132374055 57.538731659069015 8
197.76493365626476 137.95888139192314 2
69.34688112752413 150.87021882899367 8
134.80097022445455 88.7730145986995 3
159.04404565837254 149.17192860499745 3
86.22940737786061 161.05022013433592 4
115.68959009781011 80.0279969275241 7
39.91680709186505 85.78270718404906 4
160.1836204019709 31.97419627194832 4
93.28038968923404 164.04397002406978 1
115.77555193119848 79.83850142113373 7
180.81730093572958 128.81675133366295 6
192.52261846343225 138.4186303272072 7
21.53494074174578 80.96717915678231 6
106.88027727283907 179.41843640362788 1
178.1774620744878 117.55757568688595 2
175.4084980089148 84.51594736784239 1
177.6172082490542 132.45856841197005 2
108.55310164893255 120.03544052179093 2
174.2907253177359 99.17993262597113 6
196.6717157204914 219.573144894663 3
176.96685247958726 74.99143767318685 2
122.09077271282624 106.21220148106039 7
157.92594439276513 150.99260068599082 5
121.94308080766962 100.33752308213681 1
192.5095960228628 92.60848183101069 6
183.04536983488654 36.52297288128658 4
164.04757579000034 78.61568503335872 6
169.2237019868347 67.71606328062379 8
167.9536433885109 34.89224050417806 1
197.43284685039538 205.66630339693538 1
34.3686498465429 63.26014761468983 3
187.34714179417145 39.35389043128226 6
196.57606968581135 190.04193859989047 4
198.00014959989608 142.75441066013337 4
103.05942609738476 178.11723098266697 5
119.40320022930256 91.70998542054889 2
90.63361729403795 166.77581870186444 1
35.581319298885305 195.6591327742738 8
123.74452417858286 151.94550380839124 4
168.93635932744908 42.89814191560735 5
177.21238487654057 97.84990536241973 3
121.58124855499571 85.42611191775892 4
117.15147365763372 70.35399297235423 1
168.42500948892427 140.94512385193352 2
92.37010154242324 163.81443899787953 8
189.53074681510324 129.54294026833995 6
200.3638434548948 202.25252787757572 2
166.84497601647948 144.67240537155757 3
114.04146168873396 86.23244143375864 4
163.82435973076585 101.23194699948273 4
136.85886856954664 98.82790848355161 6
192.63316256180406 214.7555562335262 7
205.0025247690721 158.28370797701726 5
194.13086922682015 199.94694037636333 4
36.750051445343274 207.96840806838378 4
176.5078867405978 110.57888234449543 3
62.524648107605316 174.04462404486662 1
12.56488370173042 163.06942048052446 3
169.67961538776132 41.699969063219754 6
109.65841552763352 171.79785292486918 1
99.89396175355732 180.14467618771997 8
103.20785102929965 200.66208010640213 2
26.055235536195685 153.38830012211338 7
101.99071978120591 165.93923987001756 6
197.18227047709567 212.56775544123562 3
44.39554657553294 42.27846072792925 8
44.02908065671746 41.5266389863796 6
113.47293106154926 77.08650689659075 6
9.293620610126826 185.5722238502089 6
94.91334931856676 162.15304455344685 4
158.3068277015693 87.71146057225933 8
110.77096452980966 194.96774728448727 6
132.79412726531837 173.17417378969066 8
106.42965224889305 68.76504898002095 8
198.2529696148907 216.7355686672744 5
57.321693466166685 143.65764787195513 6
106.82111677583636 176.23966925032562 3
57.629553362192546 160.90362610981504 8
103.59757437529419 201.2871499529907 6
162.01306208172954 36.54530090414733 6
182.4311432502543 130.56765191800034 1
163.08607086305838 104.1176096834872 6
181.14502205928537 134.96465942373334 3
185.31209374856334 99.9639691921186 7
201.12955797103245 207.33055715101975 6
171.5513429906986 38.8617822261616 2
197.03173352817842 201.96087661834528 3
95.08577890694113 163.59866149090996 1
54.10388073009997 59.294599666959236 6
167.67447284368524 41.52466420027053 2
172.1832263069998 64.62070428542047 6
194.4522663409481 203.0152515971377 8
209.6330517811266 199.00931555550486 1
200.72023989881282 140.91491311711695 1
173.17988489187374 49.20027295678908 8
183.43657028648727 73.05606249383949 1
108.4037737848835 173.92800182625015 6
191.95978150344556 210.6741771456394 2
178.3728732842508 74.39905790040136 5
100.41782067436834 168.29908620331537 5
179.79362573744052 122.4939017720588 3
120.89269784495818 86.02154219727335 4
94.16145976138861 162.59818080727487 7
115.9044120259491 76.12934264926835 8
186.7659032198497 40.30142329678362 4
57.82742351245492 177.24791817232042 4
163.4356429334787 73.04510783779386 4
63.219404866634875 180.54539466112334 3
115.11448683433338 139.14038098705544 3
40.80238758101279 174.19807280887628 8
95.10694241906651 161.92601854231117 2
184.87230509897262 128.43576364086798 5
29.086918928985135 143.83261991353484 2
185.7324228178428 214.59038747468122 5
179.0824774805218 139.33506374676688 4
169.17622118945164 65.43443813979117 3
196.91495955656757 137.5799818120064 3
95.6677823722649 65.53964343713866 4
85.9073084363872 39.54989862626411 7
180.79026970056069 131.69126608278853 2
191.70829678596309 133.82812969029845 2
111.14528823054128 184.657414081629 5
202.3589128759305 194.10242259118246 7
57.27933261738068 176.2888774175376 1
189.99192165610705 139.4465835606379 6
208.34232526299365 197.59214214412566 3
73.05699539222562 37.33863896924261 2
170.05525806364736 34.99735888732873 5
189.21857707088694 52.13193062650526 5
141.2811249463981 155.68403193385214 5
6.575394664941012 128.69643538272035 5
195.24074961589542 137.26758537669463 4
160.8269972707937 147.9186213736311 3
176.43686573591444 36.2867565262472 1
127.56978305617854 148.72150675371358 3
117.42506990411947 80.82086392311152 2
162.49157433410346 27.40496459662115 5
161.6922029085216 80.15528794840279 5
198.89404910832147 214.49720228571587 5
104.70528536115282 189.06301879749725 5
167.17420452791512 32.09270242908104 4
185.54699511716194 201.13033382440702 8
58.92547526485298 114.6458439087935 1
157.11554831385263 122.98613164812897 8
140.04659745408813 71.0981004746978 3
181.42989739701275 82.65520073422775 3
89.63097714963246 165.6735884163376 2
192.8757965289121 174.270168604518 6
113.4687772170987 100.13483973469505 2
206.8809087584695 193.54183570862207 5
177.2542970933742 126.72707948096208 3
178.09675360918834 138.526561716359 8
28.33274003390301 114.62100389995402 5
76.53529176257891 153.12749987173183 6
115.47221119470537 79.7686074830945 3
125.96274507806211 85.2107797034449 1
106.79892156285669 183.2535756903978 4
178.30950111296053 40.12621759074839 2
188.8790543412428 134.06323568279458 2
49.50670944283278 203.32876589863665 7
168.75017232527188 95.7439556505758 7
102.76967238654319 136.0426112093601 2
196.67199751713528 217.41976930818743 7
100.8296719397266 153.00281023542803 6
114.89902237132398 203.2436331323853 8
167.92706051926982 98.04011046206395 8
56.86175043200659 208.153898453039 5
113.97813565639967 189.88733930796917 2
14.55171754535212 160.00290706083675 6
194.06694379192888 136.9042633729186 1
179.3565747882403 132.91447638207168 8
180.25224329829413 123.47061330606459 3
26.539896774954368 170.2372729436332 3
43.839784049175904 198.84034525191467 3
146.2161083993479 90.82278454209467 6
80.86865475013137 156.84160896925442 8
124.56405035035061 83.19443242756829 7
196.14978867950288 217.90526766661657 4
48.551121462806435 193.57288550110317 7
93.09531843143976 170.72198205882202 7
4.0 100.64698617854474 2
184.56608754242146 137.08140891742144 1
179.4759051063594 124.62992104409985 6
96.2903253027473 46.83377781667785 3
170.55759909976285 40.20993607400156 6
181.27743198145922 138.26476717191244 8
59.51505279431734 82.99535551191441 7
167.30740621341167 90.57336329813573 2
207.78304208488692 181.51487086207365 2
106.25100842853068 71.22147647859539 4
160.28499098735057 32.71734685802882 1
20.792931337826403 190.2102438472193 3
77.49315162804999 42.04989590073597 4
121.7293520200779 85.27212139817387 5
102.4954024991246 67.55001326469394 4
198.32299059179553 139.20713182649237 5
167.37792344496378 111.02399667550624 7
115.84354625568703 183.288205104479 1
146.01217637364357 74.00846098295585 4
164.95223869915597 38.7488658884913 6
208.35042855696747 192.71374612041475 1
101.3937403571468 69.88723494915128 5
120.84595932916095 79.90786571363027 6
104.07327243975872 181.76481710375072 7
108.76115569371989 71.65482887950917 6
176.98243438654188 84.93804003115557 5
193.61477833076117 122.6699604235651 3
131.35009569633806 85.85390263981164 2
128.14225898954612 136.46354289056305 3
81.26456858100039 187.63590348116682 7
40.92176330300461 65.30914685824075 3
187.36987063268924 133.40136560805354 1
171.10713512013578 35.19318575565472 7
36.40263438651223 87.04570444867528 3
90.67696395247235 169.54859491372463 2
167.86229344114673 79.36339861470147 3
85.88936635106148 107.31462504622273 8
203.82835051436354 204.4808844345611 7
59.52272741503244 72.27876328545564 8
178.06239574936677 144.57445471186747 2
208.75583366169994 180.03497520486223 2
110.6989422292208 193.76864510370984 2
115.73053598032942 77.39452831188443 5
143.78603975535017 170.36493365023276 6
104.97489033541761 82.73155018899953 7
121.80866034586111 84.28690553540572 7
103.8673722096157 176.32186084300145 6
202.56727767044114 44.488649378875536 1
99.65320780983235 162.28168517127767 5
45.96491475472503 47.52097476011918 6
198.500665713426 133.56165320055388 7
176.55574545657868 106.05117587586956 1
87.44033741107096 145.02260552662807 6
99.18742265793153 176.45453727956252 4
207.9587413671562 201.11606137995446 2
127.01849844422482 91.428627165494 1
46.848225531877304 119.72898076436674 2
162.49057356001862 27.69391023661695 4
221.41997486248323 199.4464120770201 5
36.992800593332305 163.87168757047516 7
44.469885232484486 196.44774752075298 7
193.15431303049093 138.77234993445515 1
106.32445567363571 191.07495469645 4
208.97697071915815 181.25576175865294 5
181.0168922989204 37.07319249623332 4
123.35449467752537 99.35750739180644 5
92.72102322473283 174.57898958305026 5
18.739910658720035 176.4625202328947 5
71.79720562475404 66.38397853914354 7
227.12880589060356 171.54046879885675 3
196.3858680849496 147.0994971776215 4
193.99331266825365 207.73932934524439 2
189.41253491726349 132.40672438568183 6
203.92322282993152 146.22934712245976 7
43.89253524515786 169.61597886743368 8
112.05842503640619 195.5762719920107 1
182.99588259859124 44.72702589418405 7
43.38056514820169 184.1348952568517 3
177.65244256610302 113.67073218933189 8
70.23756681777026 20.11059978831426 2
163.69086571005417 145.13687522443874 7
35.94952006473756 193.34836536334294 3
45.74385355564806 166.19725055854994 3
201.11210523289074 197.0537648184233 6
199.96228286803935 192.69200971835824 5
20.591521223502532 60.50931243898774 7
169.83861573873804 77.62665583127081 7
90.36421580450873 167.21410884768937 3
119.07325927222867 79.5919450230206 1
26.06062217138414 117.33222088230438 4
198.80972760616774 138.01576140089767 1
181.55130698870084 42.35186583989169 8
173.0177574466618 85.79195811684602 6
193.59283727969532 137.539209658371 6
119.53917656895109 86.60543789079104 3
105.94791042407154 203.15355179859452 7
94.6224991344687 174.29018291430367 4
147.0941546871274 156.89634498739017 8
120.1915850909919 78.42276667021179 5
187.60560865358187 199.5096615189289 4
107.69645768083613 66.8766903584434 5
99.0465380171712 106.73934120124119 6
203.8073715092279 211.90045814748765 7
163.35772593230888 34.97808021569709 7
94.39164103138945 171.27873775230987 2
192.54858399517795 130.0822092497017 8
187.01097027903097 77.692821565996 5
161.5284391698826 56.77282661701421 2
170.44437734100458 35.57492409504109 6
175.3970716341262 41.692485584443716 8
113.84349986144545 194.84003875659712 2
43.93235524990818 193.15916401767686 3
156.95573961544727 157.63995821306588 5
220.72743807434696 163.06680231316975 5
164.43198800095948 119.72529949404412 1
105.96736291537388 64.68695931454171 7
184.49219546222122 133.50333233170494 8
106.93954154976524 194.41983628195572 4
96.16390758775347 164.0412369153679 3
203.54251829065547 215.28452692372167 7
173.51446160553743 73.05244151403318 5
101.73597032883981 179.71649272638786 6
135.76459564051817 81.51731920610246 7
179.52174599488774 133.42418747286007 3
72.17894530387181 159.88218263881714 4
194.6592413384771 136.39994898428043 3
64.1921281977324 131.99824650428147 7
119.44859203698243 75.50464192202224 7
197.679099904304 46.903674302463344 8
74.88143608368918 184.82189756009754 2
195.18058440457173 209.17736049822324 5
180.35348057351933 126.8336603978673 3
96.1227788381992 83.94420860837423 7
139.23176994068714 158.3312806379204 5
133.96046695881 95.84166038929118 1
79.20458438801403 157.89632814265028 2
199.08000635816185 129.8435026689395 1
38.186256231590626 157.9921462709489 4
216.2257115202592 202.95015280912716 8
197.75491684673162 129.20743182021712 3
97.30733566553096 168.79964575724728 8
190.3898373047809 134.03153509980177 5
68.40200577698018 80.6508716693215 3
165.54986770768105 77.4846762466185 7
156.25577369495824 150.09287859847004 3
191.9992706786933 207.84684924372203 3
101.51877041985745 152.3432961183247 3
202.44417583160813 206.40827362546997 4
38.5303739103947 192.68117332497278 1
107.02036383577567 197.49457494642039 3
97.04068637956543 176.81119884426369 6
77.18764331389943 121.56298990480046 7
196.71704095813433 143.55818306374368 1
34.84045984207266 199.37579877947334 6
136.8145932667696 97.30843908361176 6
173.75190595354283 125.75359333767351 7
198.20939354561037 205.76063370234087 6
110.19553975611892 73.30581301041492 8
108.39792169587878 176.27211414932623 7
105.39984606008088 199.5091186408769 2
95.34797593702788 168.21117871952816 2
103.1167904995307 77.60418419349602 7
86.26726558917679 167.54882494591655 5
178.75102564022316 128.62165092873101 1
58.378120483362885 157.4954436291805 1
206.740737448065 201.13259252983934 2
47.30870163572836 193.97041765853848 4
111.90101443337852 69.85506103390186 1
208.2770986160062 199.58501192339298 2
188.1468204177968 87.41091619031968 4
95.52618733791222 166.82762333321207 7
163.09268452634757 75.61603306092445 2
193.89270589464672 214.23625513458046 1
186.80583410891614 97.62563169468052 6
169.44280429901917 38.15559298677491 2
35.081385745521736 187.364942914095 5
41.74347472650055 48.952337587088735 5
100.2147859404004 148.74427115388707 2
107.04965583112623 192.54284770801632 8
182.26540453456025 129.14612999547802 6
42.21425659186448 210.66766427264457 2
193.88102123671032 137.06604848701028 1
36.234506732482515 158.9094713431077 3
165.83852274806907 35.746182853129 1
178.3977440728409 73.46396449675362 1
189.52332442342234 85.45274595040092 3
209.50838364861366 203.07192843729067 6
111.2945302909298 138.86336883478577 2
192.57917053655862 133.01294127316524 6
170.49357044605065 143.89090626004725 5
137.9755100359338 159.05374814237314 3
110.02447872323637 187.89045517855274 7
82.97663508136523 170.30698347264052 5
25.05100895070087 105.60601344908638 2
100.38707592552007 67.43244463455754 2
100.2749960501005 173.3286600822751 6
89.2142584843521 159.3091598879486 6
158.87833215868042 153.0090744541028 7
119.02573067162987 78.24142313218546 1
172.60488676605755 93.18401673563655 3
123.518338663713 183.23204509200863 6
165.89742828838087 145.83796970638826 8
198.02156796373677 199.34348094573323 4
183.9754608702495 133.15705582117184 1
175.8148848090425 86.15682290061059 5
112.51457511904043 183.1887241745539 4
94.24099372714741 163.12707357361006 6
106.41819070151591 68.50485720539376 7
177.0991029312079 40.911403185463826 6
195.70303187665752 200.0735741978158 3
183.3332641043517 176.61027240670245 3
35.550278379248674 215.33440126466346 5
175.70510405997948 40.48643011387022 5
17.79771171399841 161.6607592401052 7
161.94039557954184 157.75562150777435 2
164.8637377755264 136.89464182032 1
40.00818089405263 170.55552245216816 5
171.61702382736084 66.75408839193761 2
208.07581860137492 142.9910819331571 4
168.3828324971306 146.2113192393181 3
116.79372372368866 88.88864065800023 1
120.21107096528009 86.9999597420291 5
175.91949334345364 40.71556620615726 8
163.22231416380117 28.074093500455827 2
29.383543379403566 168.8227151778185 7
163.3085227781915 91.12762359469359 8
166.08526097137607 62.462447607595905 2
104.85490609305769 113.30645633791256 2
107.77696457502482 122.2790247027138 8
163.08828558675808 107.57465498336931 4
207.06950485981628 141.65089268523738 5
59.01245164420353 83.56746826782461 4
158.3638919787178 133.82228711367995 6
183.90328140007577 81.08362741900685 7
81.90294918059315 180.17865503903124 1
72.54487760215726 162.42516181457472 4
215.23720238165217 188.88624803588158 6
101.80816811897701 180.513059134455 2
126.80674543130934 79.90818436982798 4
195.15925387752313 75.88278162662412 3
25.171097555019166 165.53340046117867 1
182.27311055496173 100.88615801044111 7
180.4386507112292 135.80020617472698 8
177.139567694693 132.63032503070337 7
102.01895259772779 69.86243513374289 2
87.64375853824771 147.87550083561885 4
199.6711466422488 133.2648168878461 4
136.86517358835715 75.28999481133226 8
19.959995169338633 169.36331467337027 1
101.38859647051719 179.7195396996842 7
168.98057263320442 94.40502836518031 7
181.5839457811997 111.3956354207442 2
171.2244394057773 122.72771273109214 7
104.3493214839199 189.1908835451544 6
41.321259089108956 79.39797301726175 4
175.75554064457424 150.29421367729066 8
163.70469525428737 35.00497481577169 8
199.07047605679537 138.5966040401696 1
79.67176513529137 60.87734472094759 6
89.94109337400562 89.54272289445058 6
175.98689241335404 128.9801813586008 2
185.11665460317673 138.1392711213252 1
62.80960145873079 54.31087889566703 2
112.41201891181822 197.02471724606715 1
79.17127176736903 158.80707967677614 3
96.94119944653012 184.7984279094275 1
40.48070872675803 213.09672479806534 1
36.329194347807366 154.06317031947592 7
165.28244405540403 32.77957456307645 1
77.39500627524683 164.11615719773465 8
111.4236102973374 81.5013528901561 4
153.0029469512293 164.53791621968648 7
