350
0 249 0 249
1000
108.69151492533223 143.37066157516531 7
54.05665926403666 153.4305082005249 8
152.55539259923555 153.76327770961535 8
108.52685642547071 112.07060671739485 8
140.44522583804687 151.06481097655262 8
53.28120473510715 160.19007367241855 6
127.9695582644356 86.60837461948103 3
36.408863147393255 158.85279512866956 1
57.97331587794087 112.76168010924545 5
95.40152183839186 148.28136604387157 3
193.15893800794223 116.11972808907716 1
100.04253137849787 154.7000887994503 4
92.40047658942812 173.90460308660343 1
107.6510105370332 143.15634506649047 1
98.74224838884513 134.56158831062353 5
125.45216158617855 108.58671586629653 5
178.85027261394015 171.64148836545482 7
196.63102876579734 178.92459767008359 4
176.9912926208536 157.05358414970044 1
52.65996108987866 116.89983044485658 2
144.43770244784184 109.84988082861814 4
180.97621886856007 99.9375748857449 8
119.27224701595425 63.31495312554573 8
98.74425477645529 150.85876003418224 8
56.0245987098617 158.840195095077 5
95.53977201043611 146.52038981321783 3
178.11020135226428 153.4712303797665 4
52.068047670817364 163.32791831746562 7
193.17373414188157 143.25848041826075 1
98.31918929454615 145.46939696600043 6
192.88926744462182 116.31024266012147 5
97.25820928696155 135.02287064548605 2
66.75843629122079 132.74595148772224 1
53.66323934723492 162.5137243721719 6
199.63922098018452 124.6416427398162 8
59.06979557102018 171.08105768913651 2
125.22942496079132 111.51320476389309 8
149.46238066248338 150.37805413147265 3
135.34946183252546 118.49264497473506 8
65.34710393125701 120.26696475989692 1
145.1565293276357 100.2690777402214 1
145.1282640040126 155.17773615026655 2
122.10907634412656 109.21759192575801 4
76.05533203369083 104.52835764167915 7
84.69375618471913 136.98743249764837 4
92.81500128670315 143.61454227430602 5
132.4190164323327 148.35151525273324 2
162.37033985255442 162.27011866255765 8
131.5650420523491 123.1971953581865 8
97.58739974359627 142.41205684893748 3
117.19627250118394 113.95352586476473 4
151.69915749928592 158.61031929446312 5
96.57627922349393 144.76524941091685 7
131.61556802833246 111.07930349958878 5
92.28148499401605 176.28490552404213 6
54.42134213419862 157.68331149123725 7
121.25205708336678 101.09764403442983 8
143.38989345445265 149.37259710385848 7
193.10810136946364 113.64927471651727 4
103.21665997679013 43.378725318197745 6
186.8767659841844 120.52692766694217 8
146.67440964127857 153.6920337856345 6
117.56814580049029 104.9007149346087 3
184.95032307471948 105.98837721733615 1
95.2372930029722 67.78768177700566 8
44.155780800847104 164.87564797476597 8
183.92791862827957 153.84657868573166 4
145.1832699947778 102.96037428118113 6
178.76192583198286 152.24009144553818 4
195.0220599783385 179.72160362625567 4
42.247138246558166 165.07407940328446 5
118.98449105931704 121.27038019515277 2
42.076196841805036 173.1885097951476 5
65.87746621080463 164.3286144362782 1
183.14523410539564 112.64364054054134 4
41.40523093980554 170.58014569714743 4
40.2293745859661 167.93810620558372 6
182.31932680944072 112.08479807539385 3
97.09516293758028 142.11728788351 6
179.2121019671241 163.75322246417022 1
139.87325346417708 101.84205114020709 8
78.82950713271215 176.5569834809165 1
145.50936097827216 103.96415477257682 4
178.8575133309837 147.22581299257243 5
89.49862580915634 170.17306842393762 4
90.29681259095307 130.8133086627247 3
191.9083434461075 151.62011801577597 8
89.10024291284714 152.7217457340304 8
106.15453946866228 59.750852111715034 4
113.35994037387381 59.921899454922986 3
180.42671760135676 154.63340139640553 5
125.14408982765926 108.02355459964501 3
184.23401271957533 174.02076772733818 1
145.16721569336391 104.1157011599684 2
124.15384715887572 111.46270727412124 4
187.50345675420465 122.56977084555544 3
186.223628375535 161.12686020156224 1
195.73383734994664 160.11044110568866 8
147.854980974615 93.85171285795711 7
167.67808055040598 107.52471408421572 7
197.76512179902386 191.9094364954947 6
181.87669462062 143.63103774567898 8
49.71285953441185 144.96059553468154 6
125.42142555363327 64.7764856576281 7
135.5536042290716 104.74081008311173 6
95.6595350963859 142.11485358970847 2
67.7666091717522 125.57440401820702 6
137.8424845864113 108.51051586603873 8
92.49807588554371 178.95467821259777 7
188.01951484037843 140.3438704158945 1
68.07845038749588 104.15977283444471 4
96.5583206943505 30.49339990274291 1
188.0326360445194 155.8821193681807 4
71.79349513017029 172.7699244256633 4
135.13015304253673 167.88657136597908 8
92.36402368435462 167.84869124847876 6
102.86556380376547 131.14254945477208 6
118.38123584238613 90.60439290656517 5
99.0477392821926 178.3878204997293 7
183.42137021348992 136.83735200630974 7
144.14479664668218 142.11622470715233 6
180.09562114870047 141.47777553454372 8
58.36673831541732 160.86073145796837 3
164.30698511159414 158.23342738413044 1
109.79971043164177 176.06538991052807 8
104.83026309353552 157.21678020190754 5
72.6695403488527 158.68019796314104 4
128.1596712240143 96.466531341539 6
53.27395371531353 103.76039028055352 2
132.36557391597017 53.67019578035982 2
118.09546469232853 61.321572696931064 2
39.845765078987526 150.09355880063768 1
118.49231506845375 96.75784119883242 8
104.07560442401174 157.90031769783715 8
181.04055783942388 111.70542910614239 4
131.2613370229252 147.60246059749022 7
217.11659459338844 167.80449595824905 3
185.44487292324936 104.5541750793962 1
103.88631478119918 158.93517690634798 5
39.15318426252177 166.26378249328278 1
190.803291046915 134.71543747733648 4
72.9073874982865 107.52181158130578 4
174.4015320598594 109.64446402495186 3
145.11634906020788 162.36213227768212 3
69.8588150266549 179.52007006962558 8
77.9602871830237 92.78763995565384 3
98.63129350511015 143.14842431528612 2
92.84897084875274 53.01312342892692 6
141.22095232247977 114.13633914271611 5
147.19200786965826 97.84887754195525 6
148.14463460083763 106.56661923308242 6
125.6103256300014 103.97827984022034 4
44.807284843219065 157.45841106276396 3
188.1547441591035 114.83959056741868 6
79.6153722717166 101.13391439932855 8
75.7225729142082 118.8356332536628 6
55.916388834408046 99.55532363010926 3
109.64772017885929 118.44145265026205 7
156.2656792493224 156.4986701839498 3
174.17364071427923 155.69792001871176 3
163.3894289233415 157.87352741920282 5
137.86975287705172 164.39652747698162 6
107.1682620747067 59.250328638124 2
138.41538984062305 107.13027036323486 7
91.96097610788428 152.14526099774415 7
95.91453854797017 114.54741113747555 8
64.61793229885721 162.81357395189417 1
136.70487945821836 117.72378486321922 8
121.42728824315951 66.50216850707798 5
156.9402972811026 115.84393385002733 6
206.35100543912205 188.72376009753455 1
159.38416122870228 162.44062005136783 1
160.35293062052926 151.88546377021055 6
138.9094225683839 103.0854146728684 3
148.06731616488275 116.40943149898085 7
145.6783167489265 105.50690801178027 2
186.74002878949756 178.18849635018287 4
125.12282882872476 107.67342171736652 6
81.68522094877429 174.59971844796837 6
159.7922471084387 144.6407600904352 1
129.28517658357484 107.83595088144344 3
121.4284305750943 100.41299673198152 3
125.63110322977944 107.53723032624742 2
95.63387077483839 134.2381851667001 1
76.92744669452605 185.41037496286685 7
39.37467095348522 128.76017769213658 6
189.26460894248652 157.68853895201306 2
93.83753647529153 137.96621815418118 7
176.65829699655072 149.49132417524595 5
209.11422733170554 136.7017784710487 1
117.4580208058577 137.48187300482567 7
95.43836456324652 141.24136610189885 4
134.23053429941507 110.83271926701023 7
141.04766623533342 131.9522984420883 3
146.65328237359566 103.15784632223995 2
149.39414151259035 153.52048785618342 8
175.53460969266305 101.49768174310086 6
48.02831562250286 161.03591171772487 3
124.23179582965517 109.04543825746313 5
191.38294433397087 160.35157106251728 6
57.37303048427128 100.59986133949806 6
39.11888290893012 154.9560379385317 6
103.47829966675855 160.50358397728203 3
198.0313552649558 126.3603453227939 3
182.385680073155 110.19116862083445 2
134.20017425395605 110.8071535788076 3
132.58061462383137 72.49294185587978 2
95.43034422820534 129.0157519311445 1
134.130047690914 111.94659944086996 1
140.414324986311 119.85468355429322 6
61.127264235008944 109.3209758942074 1
72.14589291850443 179.5522948444177 4
200.32802037676512 168.15000603207505 7
53.5598061774259 162.2077256808016 6
125.03980358789445 68.64732720128355 6
140.14970265537562 141.90323798603066 2
116.33358741961769 84.50681062605932 6
182.46461477205668 112.93641416705255 5
68.29331016183251 155.47202014318293 7
42.71039102690348 166.55090314594585 3
50.62508965178727 159.72656454728985 5
98.0549808309547 29.77412818554004 5
178.93734362497042 170.37458102092168 8
129.52218092122507 111.56014828812611 7
187.3053363518389 152.06725705853506 2
148.053027112042 130.9051988665549 2
57.08343198990239 164.09950163826588 2
156.80342449011073 150.71808348945845 3
210.37858419276142 189.75005713565773 4
214.24502026953013 155.897753405282 8
153.4757215720449 171.6963488398528 4
199.0337310857957 122.89803301702837 1
43.85197174923272 154.37483247113752 4
105.67489915108386 155.74354515465 2
103.65820444680486 156.39255831475324 6
182.1094911688099 159.4620088885058 1
128.09527376989755 109.19176121524342 8
147.76377340135338 93.47707751414558 4
93.22053666729586 145.80172198057875 6
124.88664608178907 107.09444097020163 7
123.85040106926978 106.23073847585428 6
97.54603082719191 142.67364925697336 2
117.72823450790919 115.4185530548734 5
129.28367751745753 104.9386474414253 5
158.94155253144007 149.9553907546843 5
45.030369445578856 147.17366890356206 6
183.28379796433052 149.90856581469023 4
145.67525674091434 116.57901138207154 1
144.5722969681045 107.09305159925042 5
177.54924534026952 113.09188046142347 7
55.536272969323434 158.4828629933988 3
198.11849177959542 126.51220559430914 8
136.73563493779753 107.24650402014875 4
109.44979069533586 122.52650791470496 5
163.10306477209582 154.25849957668476 4
46.432866021321146 154.68573725009628 8
39.38520112119067 168.60812541815784 2
174.2724450344459 98.15454651302792 7
69.61069575182486 179.1594105828641 7
90.4661431367507 166.58150301602794 7
97.31032344749316 153.39871037636456 1
98.36804124599705 136.03184182376603 5
116.90666768326889 72.63567950478394 3
40.55450398772169 161.64661199067447 1
184.5188587413602 114.09083027878924 5
119.4408360973358 157.54839875365153 5
71.29255772631231 180.36961037278246 8
51.85936663926005 166.36461150372762 4
178.96413069839082 121.03817836192678 8
96.83195668166626 153.97295929398936 8
192.54230604171033 117.0407663342805 4
69.26976647846223 171.26117831757855 8
144.16605342649763 103.37494655432813 6
156.88875181936552 141.986706796223 5
98.0901094348871 142.9034966675793 2
164.23171003465623 156.4828092371051 8
154.24000539993273 131.17721460810986 7
75.24202545219354 119.69669509087484 3
174.0706728760903 162.55496796361587 1
136.10445065471296 103.7501771576605 4
185.03633645177302 187.0109850443047 3
69.04781038598003 181.26743621073413 4
141.62715005213792 164.98745353900767 2
179.49845020319492 155.29716671429358 4
122.74959279617656 107.09816415104639 2
83.09627515776937 157.27481298271462 8
130.2083210127595 107.39995157584455 7
91.21617550063338 177.36269544303758 8
126.26522218009531 106.90520125631556 6
193.1968513884516 119.60232150184574 2
60.11070324116313 174.64039017099316 2
156.89039482511348 95.47389461589718 5
123.40789237500944 108.58346504202277 1
57.174630451444216 161.4493052605096 8
71.30633857311423 121.48657246198304 5
172.68791236727645 158.81619126452884 3
149.58654615332327 104.83247362511788 8
74.60057240851432 168.94681068554127 6
113.04311750935744 129.9983021472535 7
125.6432610586567 110.54961122311546 6
151.68047960749044 159.7542652571644 2
118.68510531586594 68.26476818716496 4
159.3412952436474 114.55809808107068 6
58.20889246694342 122.36452666526083 3
184.08933367680896 101.04617624427007 5
116.94577596066412 114.56157671194167 3
92.68179876070596 174.58141156779254 7
140.35385334391785 148.70497268125254 4
194.66501053194517 120.08764023193562 5
147.1449457816484 141.2816796497184 2
188.41479350276686 117.23451119208411 1
90.25977531456734 138.38754625242194 2
49.98460303579793 99.08776366257055 1
50.11632179793483 161.45811967107213 2
56.64738730867056 155.90812119123694 8
124.2424578879713 111.20972006670726 8
50.12149560426199 152.10821209643422 5
132.76118831014304 111.68564261543813 7
136.43869006065427 115.06899446828272 3
145.7301966210945 100.63726955726646 3
170.81904108036514 152.5053115262072 2
160.1035708308592 178.45262178434797 5
140.60626894192322 109.73828792953442 1
195.92515413214528 126.75828395455623 8
181.03350009461036 159.8272168201315 4
63.630956124552796 95.64282400974336 2
131.27503133865574 142.89075173594046 8
130.72346833010258 108.2862677553474 3
128.9690856954689 115.70219223992652 1
91.95159356090639 140.8114523703444 1
160.30803514217772 151.50459679812096 7
180.54411209585578 111.70980770689671 6
82.5562326313878 173.33065747769854 3
123.90098007892124 108.37459483744966 4
73.27911249400634 184.1171475859977 4
63.81886609575249 93.61385802043752 2
131.22805929379166 110.17733284841196 8
102.85650811581353 146.6991507393064 5
104.08276924787914 150.04995440874367 6
133.49084711684205 114.54579571264134 6
104.43054543714094 175.4640001130284 1
171.51145289835304 159.35467800478307 6
140.62065440127012 143.12092999624775 5
97.27236094273998 154.28418081763178 2
120.3217957736026 104.90079718396656 7
163.00950897996916 109.23940531406393 6
104.59736560949662 114.8748777830992 2
131.74984209341906 103.13469391472445 8
154.23648326126073 91.38119875096329 6
90.22614924135935 136.6682754627691 2
134.2515547506462 69.8771424485062 1
50.5266768386154 159.84101413891688 6
187.7433688087927 127.20286334549077 2
104.60074686507136 157.2617679743637 8
95.58907197078763 138.01046987382819 6
121.58251349821671 106.39281055449699 4
69.06915490833104 119.1974767991562 6
53.443485433421515 163.5418610000223 6
87.86745388653519 119.04403255178401 2
103.52775289357116 28.03962044115216 5
163.95118046280814 156.2778004389393 6
186.50862375298573 105.52872755273283 4
89.35993592676874 191.70330065505888 1
119.73890850166609 119.0233916289724 6
169.32240272289786 108.7920619516858 6
57.763627497796286 159.09257042081606 5
126.82507135060689 113.17578562011968 7
152.33605936054153 155.78258879383867 2
60.85532826129217 117.64430361343982 8
135.20341781482944 114.40418877172085 7
110.06198563038969 147.8716263083035 7
40.97660604516599 170.81825674797966 3
123.54874882395684 108.26432348805048 8
208.3095998748192 176.17830439429179 3
49.23300861730785 154.11787444477233 2
53.60255016994473 156.0217031152482 2
67.86327126268165 164.93611730819293 7
143.10543964442437 107.31916593377196 3
145.48524019702228 102.91291581702521 4
103.7714004613101 144.00770147560488 3
97.19076931242344 170.86275507866307 3
88.95499166188581 139.5509997142711 6
155.75777982564622 168.61200443390544 7
59.4872490237007 148.67553869262537 6
67.8686321366853 155.6287887787262 8
171.9071399325885 157.10303927920336 5
190.8851359339238 134.80181253111556 1
132.33851601005333 63.787430747986186 6
67.21648283026923 155.87705378335127 3
135.19338257810693 165.37799927571308 8
91.44722179139866 138.15010925047335 1
132.08370313932625 166.36496924234922 5
68.4260814715432 145.93022858937883 5
194.098293357954 189.82150465699544 7
35.52907050873891 153.98613143406516 5
111.07662915950381 156.15251591150803 6
153.67238067098148 159.3956814547161 8
90.4897158922734 171.81274133060512 1
213.6011348876026 182.9052136300485 7
130.87674248374825 112.91339838690882 2
173.45565165073572 151.4673514306394 8
43.19439098380069 164.44489094676317 4
124.95352099944371 111.45396092854449 8
147.66422242508665 105.17185625039609 5
145.45448209315435 107.08322531905957 2
182.63723904013585 150.63822420871392 5
153.44058767061847 108.61491635862356 1
45.05934868371631 115.28294690142695 7
58.26142744392125 153.54311544521104 5
95.13915682640454 138.05851899885639 4
132.9298610018348 110.73293263239249 7
50.701982883804945 160.81014111115996 5
148.69498914096908 132.39247821055605 8
109.12782782172232 69.61694967644623 3
69.32365456737931 177.01655321621118 8
62.668490195418585 148.45362738957814 8
120.63237862275221 92.50309632018724 1
98.45277458677567 146.6954662435427 8
133.9928210898318 110.58669394107632 5
119.32257202952796 110.39187810548704 4
126.6690258435959 108.95878054859898 3
105.39813216527702 170.04097521405726 6
184.8957835536369 167.79886570447948 5
69.51927970186284 153.21593742252884 7
47.28453834710021 157.70365797749048 8
63.00750894515464 108.01822879797793 8
196.93032938540503 175.74288333688506 7
195.93772177424256 143.98204986017439 1
78.65459957870965 105.78277224236537 2
35.045682026642424 158.57641927938883 5
205.9910060431755 191.60347189295499 6
105.72065411125523 144.40087451483498 2
78.20679510666088 133.28444813572497 8
152.78000199122312 157.5048914532116 2
56.776662942071326 162.6795673479124 6
182.45980556999214 100.35649007533888 2
165.302675127361 161.4870520355473 4
168.9607488210672 159.16426300982172 4
54.08318184386836 161.41146255727622 3
53.10994025042493 163.4483223515547 7
136.64984632082331 111.75871081789704 1
60.04222701024793 177.8216261798825 2
115.79999245518344 160.45238648927042 2
120.87483937309135 69.22400007151698 2
114.54251976771327 107.07954691264501 5
123.35175485540405 108.37722475723001 5
57.59769142240691 158.0763589937288 5
176.84555709226623 148.55792282185982 1
118.63598941940617 160.01316970107345 6
148.0280357786626 112.4099789844179 3
207.25818133067025 134.11231116955977 7
187.88462590938417 114.02836322011196 8
67.79092741997535 174.5412510629499 1
132.50247235501377 110.42441995611445 8
91.00903155177622 162.7635915684551 1
214.02377523332262 191.9551754703969 3
185.45312169350458 103.9868344394214 1
127.72787976075624 109.94019178071693 5
183.3603034945247 176.10049466705195 6
146.9989435584791 99.77584119094433 3
172.68221185808594 152.46836618113977 7
103.04332342591304 128.04322197742903 5
148.39384649595132 97.01974052222609 8
68.40953820987173 169.1904385779153 1
168.067444572943 116.3313386249611 6
198.33119930305006 149.79563583259656 8
34.57114130653012 158.2710263849739 7
123.7248079294261 107.8865029379202 6
147.17433202233593 109.53363675328256 4
90.22339280357033 128.6133006127027 7
39.78039705272306 164.22257551517086 6
104.00423607029187 134.05585212002288 2
65.72707911905698 119.74001489052829 7
63.9548022789575 108.31830964492397 7
121.09908148522634 66.67333751681163 1
149.9605182066538 155.62264893968995 3
122.77162647298017 64.90394369663609 6
185.4744965559448 141.95377675636752 3
50.36831033506959 124.66648276447144 4
86.07504547882996 176.68358996131653 1
105.74356440413028 42.62998631112342 6
162.8357606217595 154.0213071328528 7
121.13652759098906 93.70469940476976 2
129.41580521233843 151.09700273355477 1
184.4934798436046 149.58446230851155 3
52.1560453695392 111.50691310851484 4
137.8873327240879 113.85407202818404 7
130.27058169755793 110.60066002328873 1
57.76293445732331 107.46563483372499 6
130.47666740178585 106.32857780509043 6
134.70873905816677 109.60888757886693 3
139.3909710474803 106.03490592114017 7
127.61321596951676 108.35691939550946 7
81.81628147075847 165.5027794750203 1
170.67029671635223 101.58005306002433 3
82.36876041739183 119.77497643617522 8
191.8260699373019 115.53990410271952 2
123.1136694917054 97.62249820126323 5
115.61792237888515 69.76829214123268 3
150.80699070103765 104.31005889733348 3
79.67952928119149 172.18924853247523 1
140.23296579080605 109.05833862439681 1
177.84129355398574 130.89725984913207 2
44.67417613124664 161.2770663703168 6
132.6028867215355 151.87402668463108 5
95.29372941548891 173.30027231676306 2
83.80308531699298 181.17631189705452 6
197.6154669018786 122.5058834338957 5
85.32276368362577 53.999773947221804 6
88.91323947330574 187.0689087101912 1
157.52542579137673 153.25758019022012 7
123.67901554911118 110.17629791982834 4
141.225912724835 110.15050231556091 5
150.32263943455314 103.72390902915701 5
167.29046638916176 160.74833607728388 2
123.37247432559577 107.79878405749193 6
71.32936802593204 178.2879170018426 4
125.96918134783718 110.26658631318452 6
128.5658921938031 108.726298421138 7
110.86068358596 109.79573727330671 7
187.52814309952154 115.78440003468984 4
196.45493663235305 115.19891317858705 4
59.55255791815186 156.36945850819924 6
122.99335428556782 111.38170308924428 2
176.04209601370226 157.050587222419 5
154.204398113264 160.62891718178884 1
190.45684217725474 138.0606515608419 2
57.96515997337389 156.91644274782314 6
161.1650569750265 163.96976722577617 6
161.2764476568677 157.08977807669618 2
100.68508636830022 127.04286394147789 4
182.0922122941064 115.14191233036635 4
93.45565256251697 141.63931159706945 6
197.69781037212712 118.46493326010791 4
123.40216984382138 105.33572756026291 2
40.62897188975764 141.09473172410813 5
89.55187277890523 147.2538237703824 7
178.49281556241397 157.62487881851644 5
177.75599829633893 157.0135366718987 8
175.46668387448872 148.0749442084001 5
52.643363345434324 173.50508468497554 7
129.16353914522304 78.23817770994168 1
123.61665480456169 97.27295653035135 1
194.70062837454503 118.7036823509126 7
199.3752585994705 172.26724362270645 8
207.65124690525556 126.64114624044768 4
138.3773774272493 112.7242356640401 5
68.64535003138666 116.85050417454983 3
188.38316342816177 119.23171305680772 5
206.43455779811944 192.56380064912452 6
144.25650298512252 131.8995580545884 4
98.33794552209315 133.54678989825692 4
153.44337123180676 157.67648862704996 4
147.92417071301054 110.07754460171068 3
92.3619675946755 173.00748652470392 7
50.31160248221349 152.21266203111415 1
150.42876263378403 100.58011214644031 1
68.50108253830349 123.61515510914953 7
159.31447141732264 157.65473990783727 1
188.4433599444344 110.73256902982325 8
60.00721843730939 104.02925802621516 2
140.08809761516787 97.15138049062365 5
163.89059262789903 154.10447262823405 1
77.32704930753017 169.6498664782541 4
75.91807363820857 119.93813235275394 8
71.72550881156691 174.90414093049444 8
94.26681934124903 151.99100616400446 5
168.22575354673614 153.62716511403153 7
129.08824722725453 78.655736754784 7
180.72188153202438 135.95268124282393 1
63.44165765774963 107.12903384512735 2
183.178635716227 194.9448616191509 4
52.18022085571804 129.25819002988547 7
152.80974998025764 94.65067037008693 3
99.31779435307662 43.92680569428137 6
64.78441479412223 117.13053541121015 1
161.47466572489566 96.53814081200103 8
100.10536385179839 157.44329641713563 5
112.82170641983899 118.38321652983156 6
97.2672371907248 27.861951846959997 6
38.939997079939346 164.85290587055866 5
90.88795915541418 159.83726564996138 5
131.0555619274269 85.73335941175222 5
106.10140022138013 128.29686679483248 8
48.3416695589957 155.88830798193428 5
112.52740753719881 122.02172233772185 2
97.88462530252721 141.85939360021325 6
102.40749786203342 108.36359082374626 8
180.40095001061113 112.04935736747238 3
89.64698012265657 131.09111175913864 2
67.5970724079449 173.90281704173873 2
75.59803951237183 179.9363153987413 5
98.15300583061416 33.576967115983294 2
70.16500887709532 158.2289401215495 7
141.3604380801883 163.8831223776246 7
51.63515389590183 162.0440599063939 4
51.13007146671068 105.06859484102826 8
76.17898492313645 142.8217603831375 7
107.43686805597692 100.92002372749465 3
173.5135812139967 143.287486341756 6
186.6540613982623 108.21742094143424 4
108.70857545747677 160.6224359675925 7
182.74134306414578 114.93317451314886 1
108.43418901805853 121.54193329839653 6
101.0295271420484 50.42709166555587 4
111.28652873787026 117.48459914779042 1
208.2007328558823 174.11578932754966 2
188.96351965708257 115.39482127362375 3
165.15203109694093 159.69615569338194 1
90.16724084005857 136.4939151818134 1
111.82675961535134 146.57160348176848 2
122.71482246429356 90.68229645398404 8
167.3544033027045 154.66957856334992 3
156.27088148379363 147.75596105917126 6
184.92990136755947 189.4213004544071 1
134.1795322695249 109.74053016905403 2
98.71022348648162 31.211824547197818 7
183.966856533433 105.24191797394192 4
191.502252195021 157.70901166655824 8
48.61298589302942 163.8908775556955 3
119.00885282702866 86.17286920781864 4
191.90168343211408 175.30604116344296 4
145.46034538074184 158.90334435388456 5
67.68450899539663 174.75320094662342 7
199.54761604235946 120.39076329172944 1
102.10485521442297 134.13330089632257 6
161.39197153388398 155.66169726845212 2
148.42582044013514 101.39484301988713 7
122.442605674711 161.16398636602614 1
98.52626248412585 37.94271323330686 6
129.24342333119287 106.0265650164871 7
93.46419488769726 166.58573089850208 6
50.713448891219606 105.74950484396123 8
85.12154960284077 139.784566554086 8
129.94807132653438 109.29559025107957 2
131.66063901334607 109.99242051205032 6
45.57033782456876 161.76302612743964 7
106.69096064743154 167.54209896895344 2
196.3274350300068 138.4376381168538 3
41.489942621473894 163.19266436831623 3
129.35404503253656 109.35480148878399 1
145.7928225566919 138.626330417267 5
97.34960820302759 138.16138538117065 2
67.14088874456587 168.02632489572207 3
195.67356738689665 175.13442049125536 3
171.32414503710734 103.36572621565632 7
121.71325994413311 110.1907592114894 3
175.5611545718961 153.25067733985568 7
162.9427708520502 107.20031178211723 6
75.32343182433594 122.24953987137377 5
102.03046210236072 28.432433498733342 2
126.24490815286495 106.93164376419533 6
96.73869287545571 156.06202891717462 4
95.98762615371034 135.0596711924452 4
64.21982162844652 111.33122410585483 7
41.88743944238476 170.541954584968 1
193.45319338649531 129.8456370886571 5
114.5524110776334 86.66981570129232 2
181.8393613536102 186.280432475988 2
165.0155864200267 159.88115668519612 7
183.49760038243787 173.67820378400666 3
121.28716364622626 126.65824530786335 4
171.96064690778502 164.92156253265898 3
103.24539005414135 157.56759659204437 5
52.50419491818867 153.97191291772648 1
123.92359389913187 106.00034995130174 5
75.99151077881699 123.27283276965812 1
50.92545220411336 166.5441261386822 3
167.81209261577197 169.2348837082631 7
202.81862449612078 177.4053101807642 5
37.37756567375879 166.39681895314914 2
165.20876336433543 153.81869547842228 2
91.62554462006432 163.13086621258105 6
163.9592402707273 151.65648920020928 2
145.9292101668522 156.17807390454098 8
175.9363683980776 162.82938348930097 3
194.56221216073288 114.16714334573157 6
126.30168861155879 79.92008965919591 6
117.36746663409367 141.59443601955974 6
111.45742881925719 67.51299940660917 4
65.8162058462644 123.65822356832439 2
150.88630299923216 157.23402709115987 1
156.32011708732304 153.56827208563385 1
133.88963325748242 151.230845734772 3
78.16782956343577 120.32271539489564 1
140.3831177737415 107.64790767547746 8
35.051580856640484 125.34134674632783 7
128.75545065088846 112.07184502959592 4
174.98738922468235 103.5995919540826 1
128.69707869473578 111.66288278443014 4
139.80369539477883 109.51447472683083 3
145.93618905291186 159.00817657006647 4
70.53552353092765 177.11446345717704 4
104.25452083655992 124.93392602982745 3
108.89373345843414 163.0656546508454 5
192.04949780350444 114.30953278150055 4
97.65293513602971 130.22922743800254 8
108.29502019871197 119.74850251456431 6
67.8930979114385 105.5053639011759 3
138.23314762406923 137.9847493133369 6
63.984692996089265 129.9984133671532 8
102.6047459604946 146.7674094372853 1
145.78017416392385 98.47795013309175 2
172.94290521224923 154.02454410842932 2
99.42676225215301 144.34571861082628 7
176.372201585342 108.48512756842564 7
152.2056295251927 151.12425883110257 1
139.03904488614688 147.39509441264843 8
124.67303793236235 108.3229648696662 7
109.74735807739654 71.38848164404463 6
98.69792701823943 145.47791917553263 4
89.61964356479608 148.3702859150665 4
123.27912983139683 103.72340596476472 6
156.67824556248746 104.49055952011403 1
139.19449802849812 109.07352106986728 3
180.65863806519184 111.28193570992042 7
101.21754559828656 142.19071540926535 3
125.11187026382916 115.98482047513966 2
201.14407217170634 122.33224858239662 2
112.21771386513892 157.92503695247828 2
187.5334841240123 120.8536104984671 4
122.79082671529811 152.29962750770522 7
101.20974587870919 137.07700696145508 7
49.8670331404647 177.8725227953733 2
134.16690843415756 126.826926107044 4
129.11197507145593 113.18922706992562 6
191.1331723107847 184.08970668812015 3
51.31922517773419 157.75141899763253 2
98.27849374983455 141.11183197579632 7
46.03205082963159 156.80992314854396 4
134.5995836163249 104.03264819109856 3
97.46077895336529 150.4440489255329 8
68.31195799631216 172.3670027852881 5
105.34314174005534 150.0223530035691 2
72.1161848967865 177.7481650436521 4
194.52844015604887 155.8617301802537 4
115.20481585651514 148.82563408645314 3
53.91553672646304 121.63673896573151 8
161.35642350834462 109.59241384839879 8
100.62970565846354 151.2417217733689 5
62.277569201262814 170.25647178695343 8
175.97638984498644 156.0917104876958 3
101.87435534394407 152.46703475637904 2
106.94909675893966 51.120665720403856 6
172.47318284327775 161.04867304514116 8
73.01115174693349 167.35272459888816 8
67.01888329452736 114.63519561700696 2
64.57213223717825 171.27600516503045 7
141.41051654304698 109.15690124134707 1
116.91095290308148 90.01321874186645 7
158.3026185899949 157.41718311243153 6
103.2976810850025 151.96445570222713 3
70.09203911826998 112.85949786387904 1
43.97896028244891 161.80155972514413 5
166.27897572336522 158.91256929194083 6
94.71565421759816 139.54069838093287 7
184.4108249537446 152.03490951961152 6
194.61186362648493 127.38020362026505 8
188.27662430043551 109.53348773319928 6
58.34915272731856 110.30839425028545 8
120.43747654223952 150.93305955274184 8
114.03925590531826 92.23545359187939 3
180.54565454414802 134.5868004140253 4
186.1997334645447 106.80634592550916 3
124.91757996460056 107.32239538105051 5
140.52901565491825 107.27317198279634 2
198.9215272539159 114.6895877325172 5
160.98887320854556 107.64110063086262 7
148.80502743845904 155.07443243236003 2
38.8922134298498 165.51373228691426 6
199.479783580139 130.2571261080215 3
104.82752004583739 158.6894421004195 3
133.21777286653554 106.70927552334423 2
165.01937381836615 97.64275477819709 7
124.88114782394351 127.63822427536923 7
66.59375079100167 161.46485254688227 3
146.60771955677814 108.38539129575531 7
178.16289311899246 148.62850825647038 8
131.30204493454056 105.35476510409642 6
164.0047801637467 153.14207571960577 1
41.54577110208697 107.47269365736615 1
145.53386346209655 150.10722723613247 4
146.86426102671595 103.09826278707153 1
154.7872497044456 162.71703371667502 7
176.41973524169325 112.74613208485162 5
74.33540676071394 143.57936293253817 8
61.48596682371595 148.36623461505366 5
171.68757401150435 158.17958018571144 3
83.11284787990141 126.31916817667812 4
100.6019583157361 145.18111948552516 6
155.7640117748298 161.40036401883208 8
47.85572072998232 159.59404255051794 1
131.10986459696053 114.60566897351822 3
81.12015094166473 167.9464760033736 8
99.82440339547702 147.84001896041144 1
129.41816498052728 159.9498150492269 6
134.10987217222143 115.77428059040577 7
125.29081133224133 111.19873937929617 6
57.598299999902636 143.76477465179207 8
188.1537667705058 122.64677662416103 7
128.38388479123773 110.14482557904887 7
181.0642315894628 155.9322484206556 2
210.692642838736 178.84116567299424 6
168.5520294847729 154.66365454208966 4
180.53035177500328 105.48290558523651 3
87.05166479512876 167.17298908720414 2
62.18193669663681 121.30134182141946 2
144.36674793016294 104.52805589259165 8
43.24718218307474 171.0838146024342 8
179.56635109294643 111.92249197904829 7
82.40162944543874 134.771450042221 8
121.07412859766907 110.7182096765189 4
132.7126177788297 130.71392034592964 5
92.51549008258122 131.49819489121094 6
133.06065683706288 111.88785204068485 3
173.35396039654123 123.74541711863762 3
118.65786635591373 139.82512365277333 3
109.05194864254437 61.61856491824669 7
86.10989952418771 139.45861915161774 2
127.15412239402288 107.78874802920353 3
101.47984081616711 32.5797480917549 5
83.88171389770373 107.71044558430488 5
199.55152118149527 198.18742721209497 5
109.89619945111315 107.1774478967869 5
76.51948112512449 137.01411572118573 2
176.34823819283045 104.38725749723125 3
133.72544900271438 110.407446177136 2
141.1354548499555 142.44446847266408 4
139.15783479024958 103.98299023919523 3
120.09870539173754 98.98277086282299 3
145.12405631957452 123.53631232877468 1
200.3576765420716 118.24118255167582 8
164.92432202487305 88.4419678080295 3
47.988567114504065 111.74201659916704 2
51.07598850500656 165.3440082746108 1
99.22227557563781 52.22158400304623 2
45.1588806883165 161.93660119337565 7
78.75608254487041 120.64260754735325 3
111.06826516304142 42.45629114081575 8
158.89104337379885 135.86348436966597 5
148.07046008529642 149.6952310698499 6
149.675271400535 105.0489077247777 8
69.16418182950268 122.38408138794004 6
57.40822877821863 120.99366962600152 7
81.29416623811716 169.44830406734314 6
126.90807431841061 94.84922922027424 6
154.52649573702936 143.61663895358313 8
203.1570712759425 129.8573243902667 2
160.71500833183973 161.26365972099975 8
186.05083065211198 119.11844256544634 6
185.67737444442201 117.6682191918784 4
149.57314324303488 99.67075132534815 1
44.13410119781143 158.11902029422103 3
135.11479161453536 106.89240938152864 2
101.58107994311052 164.5140289336816 5
169.76383901147446 90.68162136339146 4
165.60940338271567 112.3716381430779 6
179.12481788132595 160.46794412723085 4
94.17569637615519 154.9414830873637 6
52.531983926768085 162.42300273781004 3
134.647891461631 151.6593709945655 7
58.59369385363439 100.47282514659601 3
69.99089059772743 135.85948010297074 6
57.13084825568064 132.72706407063686 7
133.21355849450833 112.73575405099909 8
72.52738868708185 178.2811725190949 3
197.72259019083555 160.83231695117283 7
94.99202674434598 156.64039949477993 5
180.85814322349285 153.73468176144186 7
83.87311760716017 164.10975965230347 4
160.99963287317257 154.81578056097402 8
73.37169239502384 178.21903057006097 4
136.70512059008598 107.13777963082636 6
127.7452723491974 109.2235040136219 1
132.43515961407275 111.61316184245585 1
137.86397884767922 116.55347152044222 5
41.115913766039526 110.39592194821839 1
102.2475705534285 145.93793493866895 5
97.60883953478195 147.13690186250878 4
117.44640216859769 172.58559178746643 7
188.8804756552175 162.99391373037224 3
205.1932455016054 128.59551742419725 8
63.59743865471904 107.63287502055 1
93.46439545224464 55.739149377415956 3
125.77013237505815 107.52341930535493 1
60.35949902945257 142.51395839250173 3
121.73884106120816 173.5173996057878 3
141.18313298121615 107.8078219410358 5
142.91375044383764 133.1401384796114 7
97.84546383419978 153.69994374507877 8
158.7010151811377 158.5202435401693 1
178.83046695995287 113.30279046131609 6
143.60895551846855 73.55547694445569 4
90.0202809527831 179.90955476152638 5
104.76027707269479 49.75591114104194 7
159.22449675216882 155.63495734120247 2
63.606892573744965 110.29956020765438 3
198.87431179360203 128.76300986230046 1
167.7127700531448 163.15965863727362 4
73.49571452250323 178.76359201703036 6
181.65519990293268 163.6694527880369 7
100.8864115570654 150.878607449389 5
98.20272550597984 141.83805841327657 5
90.65627680644064 139.79819563240073 6
179.70947067237054 152.1589146208529 2
63.704289661437144 124.34136710822987 5
48.71354477028657 160.72000872623173 3
153.2344653402183 105.447359891179 3
132.78387383118633 117.26122165566748 2
181.32792420033357 111.73656281899314 7
127.8363644412441 151.5842550252755 5
123.7233505316894 105.19280521942044 8
143.76705947086222 100.41700233722284 5
86.9186762428935 172.21866347272947 1
195.5742075458561 172.65483180766506 3
203.62402013684644 179.09465469044932 8
91.16729863697611 175.32717073468038 8
156.27848248943977 99.18136023616327 8
99.49020739430624 158.3432328606207 3
53.81551422885603 113.2013995571511 1
59.331134629935455 161.30589436280093 8
57.113476002172725 163.37849898569638 3
99.91835806765597 147.52164555459748 2
178.6600982117389 107.57896427228293 1
149.55928688726905 93.14988036780564 5
179.68162140367338 118.9067970011894 5
119.15754453126186 39.518556984374314 3
182.4775199604539 141.75225533047927 8
103.19328593349559 125.91285090809795 1
52.21269862080498 162.63414130326362 5
131.98023379195416 110.06706070930115 4
157.5882997232598 118.3016526483247 7
161.5154214386202 161.78737124212893 2
178.7545040006306 159.29073759072244 6
139.38052900721192 105.94493277949461 8
175.90990320336832 161.00611026573537 5
108.03604091114398 122.30160436800212 1
128.6229548907269 111.41622700800681 3
100.85903602317366 152.4900314020684 6
89.40159532094808 46.19779774154708 2
191.65959321174273 199.04077415663772 8
98.35992128453914 149.6607679932598 1
192.7391643247926 169.6210678328251 2
91.43516452680673 128.73489078941896 2
130.08306419888447 110.42323005351116 6
51.18732294708544 102.26743003044253 3
97.83622332306362 36.77639436362055 1
63.8106808469537 141.00747773305582 6
189.76841524603762 197.03372378020097 4
123.34647676254596 55.38588472588515 5
131.42520398200003 108.7642497742585 7
135.27631034403808 109.3439591652474 7
150.87172868511462 90.21620367732406 4
93.96779189255854 149.86545706980584 6
54.5963610486125 158.0010529257193 3
127.13188087107108 179.22406988437734 4
56.74796309476015 157.8264067939993 4
103.19555340675257 155.15034347862365 7
48.94385621902497 141.09178677601852 6
103.2330595035645 112.53115821101984 5
130.68343252168071 98.42492599546792 8
111.26797673520822 112.08803674981912 6
59.36575830797842 156.39738994169454 4
47.13073293371567 153.4428378711194 2
114.55504800542302 70.92571555168215 2
147.33573184318124 108.61357266019982 6
94.18659000368925 140.03932481578912 1
48.45359061815864 159.700777646486 6
212.50599706584126 188.68383614424255 3
136.07049038463822 104.05133963888758 3
167.5577608508597 107.4011220121012 4
126.20696785437767 120.98371263857678 8
103.00157331574566 157.73332881046514 7
64.77061685781838 158.61532776259637 2
174.6483047786883 150.97284742035572 3
141.01671458127552 107.99539914629142 2
162.26814019237304 141.5113811418664 8
178.00141556933204 160.85377990540925 3
60.89721090232603 164.4985192290636 8
145.41542052686827 105.75874061700733 3
142.268461309359 102.40150954166857 6
189.96570797064467 119.95326252383407 3
150.3733556815966 141.81237334633445 4
73.9072169673501 178.14345008115757 6
87.50003067894262 37.93958798271866 8
48.14786578452723 108.52954013691895 1
145.2094658016129 107.56602280391542 2
107.51166118265209 160.4333626506246 8
57.954089145403 107.70563915301753 3
170.9925616022373 106.19608029106942 7
184.87972605254987 151.52878864536544 8
202.44819310155148 177.50807967567883 6
94.39784268054713 129.73323863889516 6
150.088769325153 107.69406001082773 4
130.5692933430358 71.2782880929485 2
107.06312123591938 128.0843293974084 4
58.21442730640722 99.46931555376511 7
114.03004834089602 42.22007982717693 3
197.66685223452728 163.8225420761564 5
132.4888919446799 123.61068738656176 7
