550
0 200 0 200
1000
109.98293234429717 48.7093853748809 6
90.20855416731422 184.39901069084854 3
47.03382929357627 150.79617373294843 6
151.59734476691543 149.05264412593425 2
113.23393021879933 194.50271514039343 5
150.18452978820696 149.94044304784907 2
135.1340107362616 173.34435282036048 5
157.18553425602434 29.5177953651829 7
103.19222778175774 77.57838189388269 3
128.28297488259926 166.09377854202523 8
130.17831507552017 94.87706516172784 1
168.57037200268508 41.71936550879715 4
41.92106986213618 75.74422761042058 5
46.277374889004506 114.12202189318968 4
93.22427732555168 76.25144610743526 4
34.54413801807867 49.59612776522292 5
154.70085630142333 111.4630883011861 5
163.0586249443305 109.86169885286888 7
117.74278610970275 110.65390730805521 6
46.542411224714016 77.6541699479695 3
32.829183048613125 64.51886910217517 5
126.8990597876389 158.19778313562688 2
60.79058789537582 140.08203186838006 8
38.46567737231307 73.33310082416288 8
38.245783571448655 55.64240171664744 7
90.81744182036766 83.4400351109473 2
92.43302464039691 77.11563041222631 5
111.31342867964798 88.15899300983251 4
35.89241775567439 41.99848599969166 4
129.24600667830995 160.60615380382816 6
39.58241107140162 48.62406626344197 6
55.04898821966608 100.40826711888097 7
123.0335176581091 93.98080570588178 2
150.4928917955594 99.11374338809092 2
43.91168829280171 157.40788622533097 2
92.41216045359876 76.43639368435166 4
116.41136270463797 161.67280775328314 2
33.97706910984372 71.47923275677378 7
76.93883676858593 168.33031059682597 2
92.24947846796576 76.4031510321878 6
154.95721540444467 146.08372069817295 4
51.6874626133867 173.14801946884222 6
88.83660382084172 71.0194038173422 7
49.36290424777091 78.59407496931543 7
158.00930281698027 95.73973816052255 3
145.35218432303034 146.12307919819054 5
146.12062078425842 92.38564326751828 6
179.65552501238932 56.11772494619892 5
43.02118768318167 125.24449140441256 8
85.66833434745948 34.12138533595343 4
119.41448059389926 166.84363893171113 5
143.8911813439806 26.669821473225326 2
30.73014173665225 48.13753401486943 4
92.5422061262578 76.62513452331703 2
48.91526388965158 78.79583136621872 4
68.3144550396188 109.31960192345097 4
128.7792688978485 95.70835425668677 1
143.49872097618976 148.19704980280252 6
67.76588407371061 99.09013742499718 5
59.99247129631826 97.6962056497685 7
52.433152542065905 179.0051884442554 5
29.215792394288435 64.27001479499519 1
125.42942209607247 52.91429194870918 1
30.958250008702915 51.54906101880652 6
44.53394524941265 42.54011272295862 6
92.19130556259366 77.22789199015773 4
146.18318854555403 106.78058018907592 6
41.79257578537318 101.69439134229782 7
114.03036624410632 175.12501727357983 2
45.90710173408572 183.74843043208978 6
149.85098943743898 44.9691937410323 1
40.93137593003518 137.23469420079564 4
94.63966665425595 80.59368700945781 5
28.71583095909744 67.65289518898442 6
131.73299348963434 88.50907964472009 2
123.60649814622099 70.412828292966 5
151.81910271283664 147.5784037156853 4
135.47740663469042 142.94985463854385 5
60.91299607830429 115.52581732375528 7
87.99023856302993 66.28299735589334 6
154.5906927656383 146.95764011167796 7
124.07770110595797 133.37180396310146 8
154.83595659471843 61.189607459815846 8
128.11876405502144 26.451923722935117 1
148.5370978149419 110.53947332117627 5
122.20132824875961 111.44412092665934 2
93.85667993312555 67.92362442186202 6
41.16977375113767 78.42703491418801 5
30.743219362007206 74.9180737827293 4
29.495282567530907 38.06995735204527 6
113.7932488740009 54.090312323421614 7
40.483498905103716 79.88057748546021 8
131.15543445736137 56.917437680848046 1
116.8980894244347 43.972242257186245 3
136.55623484411376 108.02106993897945 1
156.1351855347465 33.903024030040235 5
135.63327596608144 31.29242355132801 4
109.59300151361822 59.52555673258159 5
65.91985610240744 123.96642798580612 7
144.8978505628606 146.77435270202363 4
55.73370858855834 85.58699065610307 6
72.60869633376477 180.99034341752335 3
147.81012705566087 147.74688740649523 2
128.34539350193876 106.91497779910257 1
96.63087567145183 86.4326617456191 6
164.0814827083136 50.990774581863825 5
134.52400767186106 148.6293309677159 3
118.57664641599304 58.167618887985945 4
144.75379410827557 22.684359992412737 5
48.194111050952856 106.55338805579571 3
100.76983463634346 93.47772647964523 4
98.41646024131019 79.8148394225925 3
59.336599094387374 123.46708448591906 3
38.798494956704786 69.6454796215744 1
34.17665145806999 39.88641127358617 3
93.94050312772319 76.18870147147584 5
114.30390229224093 162.13716227551794 3
92.94103576652475 76.25838275289743 6
142.7625520847536 40.526966205090936 4
56.604156105781925 119.22239554817945 8
23.635164118121082 42.84481132557825 2
97.95996793339759 37.73786199390859 8
56.32831032394101 79.54931759190211 2
177.16301506183507 113.82494587633059 8
118.04710376375952 172.36777073363464 2
153.76670997859748 143.3259417452934 5
59.05197784180615 86.58520460828683 4
128.41645891954641 42.02757079090987 4
36.56315491147083 128.35482507504173 4
110.79293580026767 65.01236998768792 8
148.27135888642889 130.6306408784325 4
32.44546852983142 66.74613838905154 1
115.08850594978801 175.5609753597256 5
148.90710286695978 146.28166022750696 6
38.13447158713612 142.930659136798 4
147.01225849644624 45.039488108985545 1
92.34150626754983 92.75085694371148 8
118.50960877554323 159.7470019782145 6
48.553846770556284 80.96818748651208 8
68.36018056678355 87.43699585736775 3
126.46833761127226 99.06506347309205 7
115.43269158639303 45.493999166623034 1
141.17941873450914 118.26427881112969 5
122.06823540024143 39.10369016781089 7
93.29385233974482 76.75335107431127 2
93.04175801542338 76.43091345312318 8
102.69167230472867 75.4004329629571 2
107.95406042430125 60.381997043954264 4
117.02017817432417 115.75660397715868 3
155.73670031176704 96.55766392403332 7
93.19358819804769 77.02674414824236 6
113.59737390747478 117.92063256442117 2
114.31134322652309 113.72570111688917 1
145.7634488547652 95.3946701569682 8
21.03284328423852 61.38721872208576 2
85.89772383141117 35.29114094379528 7
140.9314658034487 123.32403467089156 2
49.519224931207354 118.08663794187281 8
44.975445592681865 43.77688545225424 3
127.41332237540121 173.60288726297358 7
140.99063670146603 127.77875687200113 3
80.01386397224192 46.79944910553777 1
157.07242660826043 37.04222902232969 8
125.76637032022988 53.17728030054952 4
90.75653388515737 76.86004887332027 1
46.59038117852517 85.44888314975482 5
155.13949875045412 147.47965734991476 4
54.42761774874601 80.23317510398799 8
122.69854875168733 64.4047709677361 2
127.894369220385 47.865892657399456 8
123.72654274711192 82.48027888575199 1
55.871328229 115.95450316417069 5
82.45364894937526 39.915041422788924 2
176.36635395637035 58.16474970416465 1
122.81820294764931 99.32986941183934 3
168.39122520763303 105.77349919960352 1
127.69090284711379 28.369658943865694 7
140.0847808442128 29.144443210783074 6
153.3894604135573 31.216084274652296 8
132.12481889404833 139.68353555486118 3
92.20046923575664 76.10445689967479 2
175.63911244766908 40.52564195946509 3
167.3078912909436 74.78622609344596 8
117.78630749584356 56.450267610690666 1
184.4072991104536 48.586408834860805 1
58.61564025781384 104.47330981484966 5
118.83806237423136 49.00527774689674 2
109.49816591066251 71.07221809145938 6
152.90501150198136 99.01667421167902 3
105.02822826497288 56.386122716270705 8
147.31301011240075 145.15788098948585 7
99.75073122494054 154.48172464237004 4
50.97330376018691 80.11107415731833 8
32.811219069147896 66.76522760810388 5
55.81535973235627 82.71645824231057 4
31.12913349808794 52.06071744366189 8
176.89549378786245 61.78550306944677 4
92.68236359727929 49.024755896885324 5
135.64323210695989 36.16079631991532 3
63.542735675422875 177.50079080937462 5
144.08197076459416 152.27444623062982 3
88.95606299061753 81.2413727574183 3
77.88246925080277 65.27202215805656 6
100.73509725968802 64.87855829796966 1
94.29196863384371 51.86503860395273 4
73.41253265849309 133.72172846522807 1
42.899744497395815 65.38745439837523 5
42.23844441625052 159.81405970415 8
38.89719958239862 46.647595507623336 5
31.75597647538667 51.20072642845176 4
154.1521575921234 146.70548523788983 3
58.788127585947585 168.95137579533198 4
136.32501084172307 41.36964050870933 6
134.30585977333783 23.982964741780346 5
125.81464983260814 45.96264140221025 1
149.68651756103662 145.7289376032584 5
35.38966718910271 60.08454524643544 8
149.20207020603357 35.64997878162592 3
50.26401421426496 97.4118994587822 3
153.62965651595175 39.83501286946622 4
28.636387600891748 64.7446636262802 4
133.6548537015144 145.1056024587063 3
93.35569869565971 75.89669146157809 7
149.81594301130787 144.7355213182789 2
113.12711952012177 50.38686491715525 1
154.15592893058928 146.8286502988548 1
182.93157906583846 76.88540847908789 5
99.26248072003376 34.64520900907519 7
96.66803232668546 75.26596363781987 2
37.60973690945762 148.22412090205765 8
91.09889451244668 72.21308019704303 3
130.1718535521423 154.0788964971682 6
124.62587428271617 144.04360817208828 3
137.67338515277717 97.81566898976087 4
59.42898894481974 158.92742533027007 6
105.77775706293868 115.1420462179364 7
160.34743604618032 36.99741529993915 2
34.9407806988497 52.03706452709463 3
159.06508313377333 103.02929348318456 8
51.84998797203637 87.12616453969457 4
28.580328106807247 55.226220411942855 1
54.99414552407845 109.35710759529746 5
134.27188394676187 50.07308717783447 8
30.399980891295307 51.91294007576789 6
46.46737343576451 48.422002561509274 5
88.51665954040683 89.65975958227109 4
141.97122588391883 117.83047724793461 7
109.08448768477606 58.79959358356385 7
127.69619592921642 139.48480906133517 6
103.19382642970938 45.348760971531746 2
117.52941133158569 63.00041832999255 5
132.81878024765393 91.4870597189296 2
45.001411223668846 85.41182660222614 4
160.37614686210355 36.20522209772699 8
52.80016091837337 113.82975578376613 6
93.8757162021736 75.87065745291484 1
31.14966264214303 61.083063774178605 7
131.4733168500531 38.51495887772825 4
123.95436979532671 110.63077030037906 2
46.20947766386536 157.89260935405454 4
139.4067467484598 157.99777998753532 1
93.18740710073467 76.73605802463105 8
113.14305145655845 80.84142870942324 5
59.90032911389325 173.22414764350145 8
146.89062518648356 148.93801288614117 1
133.73887895991496 47.0161267838899 7
92.00245410475142 76.22938154897146 8
157.7229097869215 93.54459448245265 4
91.86744690225953 77.11624866549066 7
100.8444170100245 39.1519949298466 2
37.38894309041856 65.83827993921199 3
185.77320141601516 78.05924247532705 5
92.63929415333395 77.17882692021401 7
159.72918734663827 101.35753490123048 7
57.15762662334091 90.03786171314658 3
20.647320440746626 61.29255101953101 4
69.81564234137896 78.71711765019771 1
47.892803898638306 87.36604403893568 6
63.74084209063101 95.01714748593383 5
142.1393165019751 125.8788813744643 7
130.86912904947363 44.76732215498114 4
90.09299109049918 73.59726445512835 6
141.89549473653545 132.45673776023452 1
118.95675169442745 59.449656408415386 3
54.72048207846194 192.9215628580706 8
101.54226654122593 67.95682034102114 3
59.89192086365263 95.61102420458379 8
133.12752379097205 123.12347706124794 4
111.17454162889932 161.62435164332194 3
141.99674051694748 149.58400666862678 5
69.09068621169844 85.59159907740667 8
117.09045557682767 183.79302369310048 6
42.32758962771695 132.71018507706458 5
110.51403339401256 153.12125822076248 5
44.389544822661186 151.70544780310223 5
108.93935250967526 46.837351507048254 3
114.19519613986111 61.88291965083529 8
45.60901064888014 80.12627370432747 8
159.7021867786762 40.1764927788315 5
136.34883126159573 129.67914368439477 1
150.31923953513356 32.20350324271316 5
153.74809461522446 35.71504138139421 3
141.26692729102075 29.232183233431094 1
104.49274313704689 91.87260376146722 6
64.70043061532768 118.98425259536863 1
129.85872863688394 160.76324847072325 1
136.71024593905264 140.41941141110098 6
194.9963587877778 89.61988299345785 1
39.102757845244334 128.3194547739055 7
92.06486925996802 73.27244399385681 8
42.63940054176671 171.10494033267454 3
126.96822929154617 146.20038486713995 2
147.97304620570478 92.70037143304343 6
157.95214355902732 75.06582781441335 1
138.05015452585883 154.18872190401274 8
92.06190706467424 80.30915856401958 3
38.76941282134684 67.77085575329238 3
95.18493369378925 79.99597124907423 4
101.49496690535075 81.32705392847072 5
136.07449728825205 30.1353016244948 3
119.0123685270908 101.82330210370596 7
123.36376207288879 110.68494121910264 7
43.94049682945219 75.83012027944658 6
169.63579453587548 69.53345787548284 8
111.11591120665966 39.46894635260311 3
52.695667629036535 117.38528742829017 8
157.71431619004386 141.57007346488678 6
119.62956651644532 36.90317986555977 7
47.18880663974726 110.2439191588669 6
28.78936582457423 62.465910074266475 4
132.1119085173461 108.30386186598724 2
112.40115169049862 40.91993908653399 4
155.71854888410365 71.6982629081836 4
87.18195095720401 41.17156751797027 4
117.87563198817416 53.75002490088998 2
102.67166492250237 62.18044433021179 5
127.52950286234667 134.4367510863785 3
50.067584740507996 106.58126969406015 2
150.4455790234148 32.16930121191294 2
128.1690700012158 103.0687195572994 6
139.20574737209205 141.31679385524177 5
33.797367590188074 88.1174075511925 5
88.12531276150506 73.7612107885529 8
108.30749181946837 83.53549728942727 5
53.72046652950835 122.79963323277254 2
149.3751202227402 145.68962572693593 4
40.99611307126059 57.51478273343905 5
70.1362027954446 158.01917616989516 4
175.4196273216166 85.93731268089768 6
91.67329588620171 40.67268833731366 4
142.25549176965296 55.153302381144506 4
93.68238725849037 76.62003139372918 4
59.128029261128 145.68583638006442 7
114.05752615825192 62.4502439715428 5
128.5739609782813 148.03589444373048 5
122.78605222430126 58.36321502820633 2
53.11132417109208 79.75223156819939 6
92.50716265361218 76.36830650669334 1
146.00361681500277 34.07333889574067 3
131.53124334477562 143.78112252362075 6
48.46342611550192 136.91592468068305 4
58.3392389427122 160.87411326791442 6
114.38782078244515 107.40799400408079 3
54.1680684901274 116.65736715142612 7
70.32005740243578 118.65236240432684 7
32.45472153660819 127.66552746235185 7
137.10174476929436 29.4549042391873 5
142.48102611756156 35.966412263059325 1
126.84516489808067 164.68759807267966 4
66.01963615747474 159.83216042553298 6
98.79468959482665 186.08381981478612 5
93.79630637232148 76.52321489288119 5
68.60775132004464 102.30138462935277 3
143.13681779591434 25.21597810196089 4
102.15795293191782 75.50129991137844 2
113.28609156733617 37.938642229515736 4
149.35494333732137 147.3681954020549 1
142.3545794188175 83.74804735878999 1
93.28861294991572 76.33102794661417 4
144.47769655601746 146.62916864783367 5
120.7429929789368 169.59591561372588 7
51.910626513096574 155.6486953403031 4
160.02923049300094 85.8459281683451 8
114.90206516962759 135.3038688958016 3
130.20256551721386 101.069852555979 4
167.9663615662978 105.65379539727036 2
149.57679655271215 150.44172900280853 5
102.93099950422442 122.9561267734133 7
36.11014493789658 62.490700491497044 4
142.4963575900833 31.18097643718915 8
117.52644975750847 171.2355934516262 8
109.50475647614134 53.37841216695743 5
185.29957573951756 83.71618962440047 6
40.12851277307012 87.08244416203061 3
148.05747013075546 45.85824002720431 7
36.20289570248863 44.72434168023572 7
22.92786050854155 52.70534632552173 1
92.54202207576964 76.77913889299018 4
99.62197598632874 54.00719532311635 7
120.0727129174977 108.31811061426106 4
34.1620755413042 48.637272116784516 2
125.38091232676491 124.22934288753814 2
119.45371689542125 159.3670491116515 1
140.71446404145888 132.3077780698699 2
142.65332341855066 147.59915497533555 5
93.21400292764021 76.62944142901024 6
174.80657710936197 106.33742803195061 5
56.389767929950054 168.44273661872413 7
52.901522666730344 114.21198104040448 2
117.86812204871794 56.6920766359853 4
90.90853929461404 47.290871447865065 4
151.8000079811095 143.90795405243432 4
170.9865823028287 60.515847097056366 3
171.47475000360402 70.59195372147094 4
159.33430044408223 39.79352598398474 7
154.89608320113004 40.7843068388647 6
146.86675680696683 38.0117324362487 7
151.7279178411961 34.12148775331445 1
122.61231430861635 170.08952121335977 3
83.37137669038134 82.54851877073753 2
170.96361210451118 79.85414110745226 8
128.38835056200907 111.71217755940918 4
35.04317416611635 48.3448686575515 5
42.490466131211605 53.003020264442206 8
57.25776505764033 148.39090524418606 6
117.87382994625523 100.89042072885023 3
165.80766309152457 62.22679310482482 6
155.75013598880258 87.48566148406556 1
145.2979897485458 146.89301860319617 2
129.41482610703076 40.460661144770555 1
117.13226711073145 54.978618729961404 2
99.68973160356455 54.07882173433312 5
125.91295594266029 94.62593503481419 3
55.10098695939838 100.93682543588781 7
92.98422477968721 77.22777603251815 5
116.73350940512024 94.80419590785532 6
134.71874676459487 100.03223135882818 6
171.21757304538576 80.62554582036915 2
85.12730401843629 157.38234070032493 6
61.75592823080025 163.52379544280663 8
133.90242283630295 120.35516870854055 5
142.5584821663182 46.55029284212968 2
37.57411545417234 162.47516352338835 2
124.75894405866009 55.271591846317136 5
112.51165763272265 67.285662977434 1
117.35457153262726 129.0360399137643 5
132.52170176700275 149.66093524303145 7
133.076214979328 29.89606833466061 3
149.99516482124668 143.89930473927367 8
106.59922587406453 41.91041380169004 8
148.86565541868188 149.04645936495362 3
35.10774525690458 56.850262117407546 6
50.20941726131654 134.47536140150223 7
51.58864458404461 84.29946643395442 8
31.224850857632536 61.63911209604848 4
124.45170779662875 56.25991909778822 3
102.82820958134589 63.611505116300826 2
92.92244977070939 76.37237181625311 1
109.08264248468171 91.04607994434542 6
153.21634825391254 40.70521064253778 7
103.25210851180515 46.661202938273476 6
132.51688427397335 50.68789631567393 5
155.82345208841022 49.12726069823623 2
33.71518050876992 66.37569681512056 3
119.80783953805786 102.44218230095414 5
92.23151360009886 77.34468518535778 8
71.40971191223082 72.58894476439706 6
30.17548462713282 47.69868159637265 5
61.56587522998487 172.6308755729069 1
92.08651190534117 77.16829744731072 3
68.80488090299988 172.27332776962348 1
60.65319755617055 97.20081351584338 5
132.7881719377564 27.378818774861205 1
141.54767309457023 121.78209189948171 3
140.47078855152847 38.19747695413955 7
134.2147884873335 160.31747691264496 5
117.91716328263499 38.076298863371655 1
54.45395223373909 145.50783678764842 4
29.996676892447528 48.42018930968198 5
149.85612294869983 31.38410862783467 2
142.91722968480434 146.54937440182815 5
125.02177356405119 157.8120511885048 2
101.5398010196627 45.837035448154325 6
30.862849899855547 61.19026764806505 6
45.17497466416011 68.6652834000972 3
88.42537820160295 72.93879668744957 2
138.5690278291573 111.05208463950636 4
163.99389310286125 78.55207821701872 1
112.52192486636292 159.89659606794703 3
37.05671215272554 65.20707423888683 5
51.88737140851208 80.90610834066393 1
144.6988967485978 148.39453050744103 5
47.973338872589295 83.99629060064365 1
48.515272924320065 75.6515003808866 6
129.93289784901356 151.21140552455077 8
145.60659826461819 145.44317042125016 4
66.0340455708591 72.51298232477883 8
96.78560700060937 69.77617475972704 2
121.5610398818282 45.303602190704616 6
92.66797284607962 76.33130431425901 4
63.65295826873439 125.31770885799911 6
125.88344545442115 54.73269002005644 7
94.95840813398566 34.869335067891875 6
37.39758438588812 69.90990273830413 5
149.34527735040697 25.56863978297152 5
148.30755991525737 151.7891590068374 5
39.26211649783273 73.39057698874086 7
140.07293543174382 25.20651827256178 1
146.36247285283565 146.74097825760305 6
94.87760541209387 44.449759502638685 7
105.55958055214636 190.11136988686306 8
117.98636233405824 164.78232559443975 4
44.3942335274624 53.66758710848088 8
33.349609893145654 68.98709335102805 7
78.33390916105975 62.837830173189744 3
78.94351105808612 173.2757338962698 5
28.704406613071367 52.485696460119975 2
96.47173915929108 162.72370439061314 8
157.29180898716044 38.69882394600267 6
34.31696715291386 52.934322220377595 2
142.6843763289371 149.42198575437254 8
92.09141847221103 77.51597492265277 5
132.89755679684373 165.34014865179458 3
134.79961863329575 40.812934484538104 2
153.0665631200305 147.36420271998483 1
23.65539959730416 69.21163381291264 5
79.59562153187572 40.53557354063467 1
171.41897792340615 74.03486170449953 4
157.23449016204748 39.24648274475087 2
49.791802807828624 73.78348927369173 4
141.99012961074283 27.040424735971666 6
150.1134861136199 148.76019191305423 4
135.99912964218896 55.28730241652727 6
141.41639268114753 123.8225642484152 3
30.49498682804034 49.265880042910496 5
58.54173138746829 117.56358006045701 1
148.8456589074996 32.756601765329535 1
155.09523488620238 45.459598098400996 5
61.34341302354159 93.56446964808929 8
130.51523833513096 20.365283993536806 2
109.12376517736442 115.15274993751098 6
47.89787232104205 88.17243786268278 7
151.38720914687357 32.89965211148842 8
93.27655233602948 71.14186014957006 4
133.7565994654072 149.17982726376496 3
169.92864040489607 55.71488336786695 8
106.43246305399187 169.32291563139378 3
47.58669720463497 92.38833159666984 8
112.07670944761094 50.24018427603607 5
115.79104275205384 56.35637629338171 7
152.29394945131085 99.66031157164157 4
129.31994392006038 122.10101969286931 6
128.9966770231693 163.93822086730464 3
149.21775834202867 91.02885330326309 5
152.24671168957755 93.58241454451822 6
120.17126726172502 84.14925018838483 5
37.8747426777249 47.609618183698565 6
88.21224416275463 37.307319744199184 2
138.58086914142945 141.44025438430958 4
129.5640554172666 160.68794302967729 5
101.94061965816573 51.614338147488404 5
150.05241041898384 150.40066804811582 5
145.56985496883107 149.2614795795181 3
139.79718006460394 97.2272980792436 7
67.72253988540055 76.64560328824801 3
124.7921988578802 97.13964391829181 8
47.79046017724637 119.37444840149183 2
125.06785339501394 154.8444229476129 3
120.09329600737449 195.2692877455066 8
150.0231918935376 147.5639285965278 8
102.26865387969785 38.39130191919225 2
114.8865218550629 46.25647332511963 1
93.56939950155802 46.37311764317245 1
93.12170490111528 76.35142488992055 8
37.39329658359458 53.97989143915617 6
104.51200064751735 171.73039916660917 6
122.02825900417736 65.06734196317046 1
91.9544036443234 77.19738415959233 4
99.29763715932944 89.48472169788775 4
72.88252455731387 179.4941753217614 3
124.09795033771033 162.0324128843001 2
72.35457262740304 86.47721469123172 2
126.58783421194396 109.40752398790987 6
92.58768373302706 45.470229036471814 6
35.469617056885184 40.258818103378786 4
127.44010999202318 42.834369092273306 3
69.92093044153249 149.65920022369698 6
131.1523230180775 121.13216851158246 4
131.19464957039185 172.9138765367648 2
79.01999699883781 63.217920104443905 8
62.45573761186687 119.38845897591692 7
54.45719173237068 177.22916764890383 3
120.9633647326533 113.40056284391153 3
37.80175388992177 44.589122211427664 8
142.32443078671113 130.14127452696403 7
105.05880839933839 45.611100923101425 7
34.83310024737505 62.72965719577833 5
133.16473418800373 33.806693241299925 1
74.87533322971679 75.94809025138228 3
34.98644483600579 58.95747773263998 5
148.11968399125456 151.0278843140673 7
104.18144646139757 101.60244257509638 5
37.063371993867726 65.46383974919877 4
53.06673297326383 91.8129805953106 4
43.76481750719981 65.02717849367546 1
45.67860269682933 86.30883351999461 7
97.68467169024024 32.17548932219319 5
136.18862203299267 68.97893906539002 2
57.70414440998835 163.09097788436242 2
30.351650623230647 60.3986889709258 2
47.66072866082318 88.83812377540676 3
47.02442994818497 81.33770741765616 5
126.17473703411213 159.1620652180373 7
75.45270136565449 75.9168727210937 6
150.09137804639747 150.33346254757473 3
93.19180984126096 180.90100550019096 1
81.61224135503826 82.63840186026381 4
35.54575111522489 62.71960644416588 7
135.19264261671188 27.435756275190847 5
139.4052782906278 155.40340800764687 5
39.21054971983894 48.09498562721605 3
48.18834267274295 84.89782205102168 5
73.37417034321967 172.09696965605767 8
51.579022186885695 116.12862269122643 5
56.77581371466832 154.9848442311403 8
149.2194130888097 150.21372535637718 4
168.97828706388094 53.8027438866842 1
88.50066156014367 73.41024432030284 2
29.441210081172848 63.39336154603727 1
95.89192496884405 171.41566919557667 3
50.618195550802014 100.20994019797983 1
60.839393665098896 112.16750374210906 8
32.78516955491541 47.15263477400718 8
89.12450064606703 30.532436017658586 3
100.46701417411403 65.11293622349245 6
171.68654677427554 63.81848717896612 2
148.95210133440085 76.27495578081718 7
149.8996140879197 148.89399060686742 2
49.23824254417012 164.54605908763875 4
167.73452132287386 86.15801191364152 1
136.13274638570903 31.739365212356603 8
143.20211510480974 112.90960001228135 4
117.14693915714847 119.8211868752678 1
43.576380813363976 128.8933471705733 2
98.27825638569496 77.09646566872492 2
122.67041894605474 51.49996958286214 7
19.72858235353364 60.66528376535295 6
142.05488590284477 146.14774515276497 1
47.235833342994255 77.21494459034176 5
131.57287456598257 98.10630826334463 4
93.69437276677743 76.14413789335516 1
79.7789694523839 92.64482617443724 5
151.67135043193684 148.27076252995886 8
93.23528980702845 76.55617877973792 1
140.6731443699453 140.69410338606755 5
151.74689472755625 34.839614788079146 2
79.76163756395907 75.71035686175442 7
30.204351340358603 60.149491804389946 4
136.8426840767846 156.7705790000861 5
119.93609897232365 43.31354404329082 5
167.72457978129015 60.8336244509211 8
169.0630842524122 70.52107865750058 6
56.35515262180366 117.79526976763805 8
101.50709887167753 36.692259110729154 2
101.49100975703325 79.59933603637788 4
53.86194640848318 185.240480209759 8
114.6802928352399 54.73126916600634 2
151.89310797179587 102.3176829869866 2
194.00459455190827 77.49318049287217 4
44.023423849167045 124.6192355042674 6
161.3876663430092 31.440605127952455 6
99.74923806370934 45.73105452833347 1
54.406481708400094 149.89268151304688 1
151.44661644744951 112.68852877722236 3
65.66183401589612 88.20771609311895 6
41.52006478881001 71.78212146230881 7
175.3937995975188 89.84969527250594 5
132.06302549678207 52.057600874961594 8
53.62608358254695 152.05164598451753 4
95.83167864073198 74.22117557336853 8
147.74463378177413 96.68879299849233 7
181.90798296278152 87.85140299266112 7
184.01264305154592 45.20803567288458 6
116.55522820373959 66.60572114398592 4
118.81662718550878 53.43221000402339 4
139.60689248884134 136.9380604986373 8
98.59174875279312 171.0060611954079 4
38.7644839082898 43.53652205882469 8
26.362644538134823 64.40683116027265 8
81.51821871104858 85.26830615111628 8
71.74844998646498 130.50996080134058 5
92.33262766509668 76.38109615235183 8
152.15096549730475 103.90224238378094 1
141.51842874175222 129.00292056582413 2
88.44845310855231 66.38569287268957 4
133.98311768945433 38.75704080167884 4
93.49801465936284 80.97707747343368 7
100.22565190682961 60.406509772290505 3
84.31305052848188 38.50716857041104 5
129.4836291522564 65.23328331402635 5
94.00888632115651 28.166702455432308 7
157.91987251760526 33.764849895813946 8
116.99700533424596 93.32028272970098 3
109.3988854414524 160.31166339376978 5
110.18586872823903 84.58347693408716 3
151.65543013416462 145.37011394653229 4
90.3781179164782 77.31134270805413 2
66.10130732935973 68.5575099676313 2
98.24676847469948 76.55150607228835 5
30.619657590027376 48.0583086748759 8
33.013724115825354 60.9211913792061 3
106.06456475658648 73.56041513713112 4
89.06765380756924 95.15337796402993 6
149.7451619855078 127.52839418605477 8
150.91257927764917 60.46676835713501 7
174.1796794330071 41.72330096880766 2
122.56211519958038 40.69637845036611 3
55.867851202827474 106.50392620835353 3
72.8221903039229 87.7677780325099 1
94.59698770937376 76.17050122833943 3
137.2560811258511 125.67089577234835 6
46.178265241591596 81.34846511704015 8
147.37362659803458 37.62902749969001 6
102.40271447383226 47.87826542039768 1
83.30712682105205 104.92658560713264 7
99.02450876085214 67.87043316995553 2
99.14406382433371 191.7811837999105 4
159.73309037902595 60.825545577372566 6
42.369574693189236 149.77875535075108 5
177.09748280266734 84.64072784281795 1
127.48710294736367 170.07000230555104 1
129.07394709850814 110.40074009869592 3
152.4818773013277 97.26879928219972 1
145.62484430369966 149.03157589925516 5
158.95577989650846 41.88966474793547 2
139.6314069066868 121.04280372053039 4
142.6942465618508 33.06838155266255 6
154.66791923838534 147.64974760299683 3
107.2438692588145 92.30862723339928 8
76.54485297734418 126.09552845272978 4
115.32716009091378 57.198925563594436 1
39.16934587610493 63.882836723160345 4
39.55708580625255 42.00872142597956 2
38.70483826611221 65.41177178087541 5
134.44093568828418 116.4358164121441 6
91.98282584456445 76.67092045807362 8
135.14147133789282 114.63451914142549 5
63.64684416949853 126.48637029207877 4
47.71292857068994 105.1843565802094 8
145.2529099903369 100.82704102362025 3
37.520327506457576 80.83419943552516 4
66.53877938891233 112.50496983993419 2
31.841057142404622 63.532815431251805 1
49.42803915968819 111.6600999615946 2
56.884505848482085 175.0575838412123 5
147.1734184269934 144.55628031616948 4
34.57814698126689 61.15121157080199 4
154.77885855822203 144.9791773093935 5
149.96373978764558 148.03586912137754 6
150.2508266533518 148.66608614310698 3
96.7450365964566 44.16529070424189 7
171.61956429483763 105.5999833327953 5
169.14213796602525 69.91532868782369 5
118.3989491654541 87.55274641424393 1
122.60754781920556 54.17311327884103 7
143.95465245935551 90.76918243731964 8
92.24538277755947 76.77252439378094 6
45.27407635042649 78.67711587393181 8
89.3413492916767 67.84412986670596 8
67.66842959418045 147.11456649168912 2
96.76531676190481 55.7353205423686 8
32.81627448087304 73.97871137331313 5
140.47345055728965 110.49740710302079 7
154.86429087896647 147.82221931096885 6
52.14889754689508 83.54993323214262 7
142.91309520502486 145.61415398894644 2
34.404847132503676 53.44825463877423 4
135.47801855042547 106.42806466367864 4
135.20998773797595 168.9362234018831 4
126.7623471196041 96.20863423177876 1
93.85279826697634 76.25285353018836 1
159.73420421471275 105.06884800815277 3
133.27619604087627 168.83912839127552 1
114.63619728235875 32.96961403972641 8
125.6817986603225 33.32848645598377 7
100.95665521419055 167.27375062224624 6
51.147345591061104 130.03389698297252 5
77.43505198197941 146.52689222653927 6
30.725639394395138 55.88044611154356 7
48.7678739516495 170.31607440878818 3
124.75291923031351 39.316411477675295 6
75.18694105000316 168.3208554009002 8
157.7308526308693 90.44806014772209 7
55.148898810999285 87.63209518768092 5
148.5384755347208 147.26805533246713 6
143.0049200616245 133.11943060900055 1
106.65717581734282 50.330412277532865 8
33.73157624634594 146.52051832685387 6
37.390487230661634 73.91408472692696 8
42.82176199018836 66.90888741876248 1
166.57538265793565 36.995893160784895 4
28.128590662712295 73.22998528909326 1
56.565797306023136 88.0190855490464 8
34.54887896644931 65.59238493657506 6
39.05549053218339 45.867811124201076 6
54.48259903970604 152.34691379038668 1
79.43717358398435 93.97779237756592 8
45.02461696649604 166.3931697118688 8
91.73236248178432 34.9507292645682 7
92.80386520301498 76.58422485015505 7
132.9911502231432 155.51801419483516 8
117.18730579088269 158.38021174306078 3
173.05399693707858 67.53513139457277 3
68.62743634719382 155.75440556103578 4
40.44687261666509 118.95560477937721 1
72.16268298400436 125.11783052654437 6
73.05712013405801 75.49900152239613 6
34.880688242135584 43.93494397593474 2
117.06104865841976 168.08732790973895 3
148.35498821368847 132.56344527608712 2
150.92752030396088 145.36803942937212 5
100.86164102634889 67.94990803279747 4
110.23561492919822 72.60485096286804 2
122.69367321409082 37.003158279732816 7
59.188084337825615 120.60955103868051 7
111.26936445565867 166.459360420066 3
94.32786091322144 158.26301149372128 2
150.71667907140858 60.59330118625229 7
119.72246993678469 157.17653880611212 3
92.75508584877699 76.71023001644993 3
32.73423938854424 62.81554393123426 8
93.4816484992723 76.35369329210548 5
147.08585355171408 144.9095010204645 6
158.57506944007247 99.5183140431531 4
112.51689412527718 36.86192365119157 8
32.67685960006484 51.50937100546109 2
26.51235666788494 40.1738026753563 1
135.38220409884153 90.06106804114482 4
83.53425039757565 62.04376589100936 3
127.43810686474096 102.25405675013873 6
93.25751350324248 188.9639600260578 8
140.06958886406673 37.35210709314332 8
44.172116573842885 45.03969276656303 7
76.9223337135595 65.68704548373378 5
48.30923310853062 78.62496911704042 4
144.0168748423444 60.99386327724839 2
119.29415157296293 71.77116300947051 8
125.32042393740154 54.340717324032944 1
123.80329465866224 109.14088606289258 4
137.04472937548334 152.6517390056959 1
53.95179370682843 88.51311275041442 8
32.01055448821834 57.91922906563589 5
52.883949333991545 108.44233867284483 1
93.44058378932459 77.11966501610613 7
146.63193115388302 128.687069819047 8
89.1947883003932 79.16383496719162 6
119.46222659527939 55.35461935457156 6
171.50385657786663 46.127625102698545 7
131.29946312510512 62.57509551211672 5
142.17009826396782 149.79862094188564 8
156.31307286318525 117.58303797720941 7
149.45754599591208 104.46126931769656 1
112.50152477099304 96.48978471993213 5
137.40917422313865 29.33668187257187 8
68.68686974589542 74.34998978812342 4
43.095774766693204 93.25179601837223 3
32.74410745963854 72.83960788390141 4
142.95233447303536 139.4944028924944 8
38.06512550428246 61.72226895782255 3
157.19896179364432 106.04792214847076 6
145.2231950928415 145.30844330775764 7
121.79179687803709 168.62287545981937 1
29.113747212579426 49.03387845264592 2
93.31774923188027 76.01355394726349 7
111.76600584763821 104.89338690325066 2
89.18961945326822 38.246028896149745 3
100.56116647997096 43.052361643517806 6
148.91806228112455 92.7523590519263 4
95.85464449326314 85.6637870303631 8
92.21182454033858 76.54963550948666 3
43.22360763711033 73.04791481713166 3
110.14086690743673 122.16541585127038 4
90.91957960073613 70.17323733545574 2
150.72481850737194 142.722811044083 1
142.20808663588988 116.1607353138965 5
38.83722735694617 81.70883802332415 7
30.793505081750922 59.19292650056263 7
163.40320854185765 102.98585171352835 5
38.549096029502934 63.781422054868415 5
105.10011645228694 58.37659467313926 1
130.234357678316 113.61333570523641 8
78.36789402599285 43.42573807883038 4
171.75316231359218 62.91787442958875 1
95.01270234090366 72.23372800504208 5
30.99041389231575 58.63801924157161 5
133.40768570608986 125.25100949714918 3
31.833215257766195 63.436300248969154 8
73.99684493644307 82.48852076765829 6
156.69206655906555 41.4742379552251 7
38.91350843861904 86.20392462710265 2
169.6536237397303 94.08843094615332 7
138.00794190022972 41.66926301699313 1
149.13004275665497 151.32759089571655 1
42.5776999024822 50.55399830514829 2
58.22000810279176 111.31917437224993 2
131.59385875459898 144.26660781953981 1
111.81208225116478 48.93398863961315 4
143.43238027279796 148.6131857643592 6
167.93970097847742 88.03925858825338 8
38.87114913621066 127.62614256287391 4
139.0617109911174 141.3694004071723 7
143.80940119995304 91.29813260875466 6
64.41397852674878 182.60519104260536 7
47.443062761658034 119.86934617930953 4
108.19125351679911 195.8806447200494 4
44.33995215819025 82.29957822133949 1
76.18737401755105 187.7168457200864 1
108.62895898720681 74.65935245491129 6
69.84297010828722 112.79935242748743 7
64.41195372558998 195.8806447200494 5
61.11518890306321 126.23353569484578 2
119.67232963404584 45.4745661893844 2
173.75208327743937 85.92485142042266 3
66.25806253364776 109.93824989198073 4
153.34468119424858 100.61835505041464 2
150.7845123874258 143.50000077855708 6
63.53746436189417 107.9726203001947 3
132.69254135204955 107.92607600456127 5
150.6814909800903 132.65939803160353 1
33.701655783363705 51.97353968053119 1
141.57515664698235 150.37954044598422 4
149.53865432547494 153.3680076197788 4
87.21439306852234 68.74904401092641 8
50.12610231847828 76.53067514219981 1
141.57517557002149 27.7986938957603 8
51.48226423830904 125.21067390898158 1
41.62187381216287 44.661156220430804 4
60.74913243005475 139.95275727957085 2
106.4990289442313 75.74913551544704 4
53.82635668900603 77.9450902412853 8
147.16394146868586 146.5773212914784 8
131.10783393910498 146.62848942532588 5
116.20180769403643 153.62585185205978 7
57.995772616306766 72.74858447609743 7
134.4745505788923 83.6474815511475 1
150.14227629685587 106.4579299297849 4
54.84014808969414 81.28187632713518 6
38.48402091623506 75.6241255431322 3
95.9462752580107 168.33336837106322 7
99.31243686121091 78.76943141294042 8
92.8202749125876 76.63641220727709 6
158.51041008791353 41.198856673203025 1
151.95730826036407 38.55285822569211 7
147.45462453020843 48.96787596150372 3
145.21955171846187 148.63767833969374 4
39.772456285205834 81.77128882006433 2
93.06434032866125 76.56642589911061 6
56.74498653149942 106.37649602498479 6
125.78398338025283 154.80087593967772 6
71.36061013907822 118.71527470974544 7
76.85549571146375 58.34846184522877 2
126.19982256122057 60.36301761239853 3
138.26093225147466 104.33641468371124 2
150.19354638285287 99.15496874910882 8
149.0582959986295 145.6294743862679 6
36.015875388948366 55.24173915918511 6
115.50375568766265 52.70826610903232 2
90.58999581120621 87.8562730202675 6
144.2177742919747 146.79219671732957 8
94.62053770794368 87.36330376700906 2
64.99792857598467 140.5566756524556 3
122.23660800155768 82.31346594492167 1
76.08759694829193 77.91691395996843 1
93.70788784305907 76.50056331577962 5
59.04322039923288 195.8806447200494 7
166.65041311536226 105.60699001783208 5
124.47215433667184 46.5592508701539 5
50.284411004188236 80.71936206713481 8
144.3851839582954 143.26654214671643 6
174.1981481926314 75.32397608582673 6
92.39066966262874 76.58058096570471 1
102.82012363459052 153.9615290781604 2
50.30713845716819 97.83305055075104 1
160.5761181549283 36.60455749738971 7
53.615611450820424 143.71710321524003 5
28.932758787904124 62.04657103851121 8
60.29373976186563 162.43021822526595 6
27.42247596094096 65.61104702862681 7
92.35101219926545 71.97214849365754 3
52.44313676580767 93.06538616822897 6
55.91219259774048 104.26551983736059 2
91.92159081042506 88.38059601115512 1
92.09872437408933 76.4518996207676 7
102.45309248296192 30.635815349148334 3
98.08388903171279 84.75889708803757 5
149.5823151382925 74.42473723290938 4
112.48591223387324 165.19763129484642 6
175.85873962424574 76.36573897059233 8
108.52548176027744 76.89267987301909 8
47.327768619213444 108.01697855088017 4
