740
0 174 0 174
1000
41.76891473952418 147.39728712125267 2
142.5871002109672 90.81807716874161 8
80.70430917011872 98.73781526617685 8
29.108230151531195 144.82013348564416 2
116.5301088512221 74.48560618077828 2
125.69472138885457 73.33004170751613 6
41.97685340631991 148.23968154548868 4
117.94737415670708 69.50928848764707 2
37.103008920925525 150.16864009292672 3
25.25313353039473 70.36811010027712 4
34.020541757687624 83.85937930255037 8
45.32364808382328 50.03609472352411 6
47.3153721815672 149.8196850848652 7
47.939795712661954 134.29250751279136 1
36.43948950602427 95.4366291047663 4
115.99968173183665 75.33625443872359 3
28.980107228478282 144.14929716930834 5
46.67535662132482 69.23507154360837 1
29.626785040459556 137.52395918242723 2
95.03576547817454 132.26407111361837 7
47.847141503858026 143.70476997475106 1
18.61009488932855 92.90270411752383 5
40.454380268279486 70.97516498823622 7
30.481212153442552 97.20632800873119 7
55.61727203806246 141.99828263611445 3
26.67535041762616 69.31632852725937 7
33.41288810339159 131.45517667068142 3
101.1408143575886 82.52866275282508 3
43.19507482672618 69.14335236418688 8
136.70065919055594 112.01215615439226 5
109.83231925319646 82.16238114835656 8
146.70563601332134 61.369931456250775 7
109.10956161875137 87.00437318625856 1
100.09199549022874 88.6744748187154 1
23.706838593338055 88.30219934497049 2
142.12802881168662 40.73845146738535 2
65.71457178614956 95.15572099730454 6
121.19621065304707 25.41018073603918 7
41.75758416248013 75.12726451947303 1
41.077728123664066 105.20555060116763 1
27.9513012092712 70.4195060336541 7
40.48204141505893 119.08877963559843 4
149.75710434980223 80.29134981919941 4
31.218992624532195 143.36535563941763 8
60.73036344024328 42.2530591608617 6
80.31111359621967 62.45696544529603 1
25.795727709267204 81.04376811142173 3
39.295472851045595 69.53098904687855 8
102.52668944312815 75.73894676963789 7
137.44928253473958 69.8097711807179 2
126.46111745368175 79.02205909543028 2
23.58235659642537 68.88119711254488 8
33.92033037725911 146.37764142446872 7
39.57629850159116 153.4585959146714 4
43.76671889495999 138.69842424053948 7
40.921532666498706 151.00868386175665 8
143.1810968621457 84.15110016830337 4
47.85578212088319 148.95208234590774 5
42.750087785697445 147.7530504901028 8
146.93550272335926 48.206861227960474 5
121.18598816898813 35.73918680562363 5
109.24960894671783 80.70014001173087 4
48.798141916606426 62.54218644334768 2
114.76037792560679 95.95381090862415 4
22.627989582126954 74.0253485374884 1
47.99121475479879 103.64618254125342 7
101.61603517192385 89.38997379407505 3
40.06012683303488 70.25447742162174 4
50.86659216437442 142.28030657560913 1
34.086926065982105 97.32116250432944 7
146.7920661276934 51.13283047435487 8
62.73206118554306 143.51783843509816 6
112.27616804163361 79.36575752222736 3
13.715618860341609 84.24027903626002 4
28.06571758686912 142.43897636106135 2
114.97577792174151 73.892573889619 4
41.60488949925971 152.4454452317763 5
112.62395553143787 76.72298031768477 3
39.71682999395222 150.30824799993093 7
19.963856055761013 115.80836263936179 2
29.338603208352097 114.62036210254574 2
22.302615265420204 72.45969620814056 5
41.833102967680205 152.4770329703793 8
102.29841308133943 74.01052539028488 3
51.30603735207868 65.41743612117232 5
41.71546267815606 94.87215424008498 1
131.35216659743585 37.26856480448312 2
89.48562929020923 97.75235965872159 5
27.297733491601935 101.3471034289095 2
37.779682944613086 150.2840261627589 2
113.26981360985614 76.23443713336023 3
149.22471038872823 75.48412471128749 7
26.48490359290176 75.8756625759024 6
41.17637864060345 151.60266699411903 7
25.19668988347941 68.62016938461691 1
143.99691357233976 50.21222258655763 8
37.42251786960484 73.33722937241347 3
22.68863950876007 87.37509769783443 7
47.14955958338809 53.24634726446127 1
120.07920988473049 83.65252771102966 8
23.81524949121368 72.80649944458034 6
27.72124644626678 70.9667010124731 4
131.22382502335518 37.4685490187948 7
37.02220956386112 143.48683343227452 6
95.18867115440113 86.47518868426903 1
101.38192971376745 106.7143772987597 7
109.14621010237585 82.87179525302267 7
144.78634306283593 49.15246261739108 1
100.93824264631151 87.43788813278584 5
150.5148453069552 41.1292830257547 2
128.46472527937382 25.573184093359355 1
22.002751856098577 75.28519244322518 7
52.06101545945981 51.1693143029106 3
137.07892141376018 67.57109074236884 7
138.78146664051732 74.67927502213183 5
111.45471080566963 77.39872086912153 8
42.5366620853428 148.88421083583907 1
34.84556040152616 110.84774529900454 2
64.56569541800955 101.6754954680684 5
56.016551093494854 59.35911212781222 1
109.92001439793583 137.52759487346256 5
60.69400980264526 87.94050876825456 6
150.23479537180094 54.34352626167204 3
27.766014676237223 136.73865490038443 7
44.48646696458388 60.56779705263148 6
23.843438482179245 72.82252054320988 8
44.653596544950716 66.35181907935727 2
129.7649984030215 72.40429443972033 3
50.612661416165075 139.73823794266906 8
119.44699021188885 43.0578588297544 8
30.171481107292536 90.09140830239537 2
38.8736232593195 152.95645624614258 6
138.0152724451542 80.48024893846993 6
53.82592901513306 145.33144025973002 7
148.26166561556707 50.55413870656898 7
45.31436279131138 76.62476328635711 2
35.78232837690057 152.27169686177123 7
60.702837451267136 146.03355469911713 8
30.291468362476422 118.56088340178326 1
37.07445834025586 94.68457364453405 1
136.2700456194387 79.87277726825351 5
23.569251682811505 139.37071849520385 3
33.14849146118542 92.07095749180884 5
110.58042376171382 80.0611259797221 1
30.967408894615115 97.4642214811057 2
49.12439965717465 72.17702969455607 2
98.80017915985474 75.25491075492143 7
38.97314540419976 151.37289871937034 2
24.46443049049263 70.16150467338024 7
28.374786315674307 140.85407095220683 2
32.721323655117125 98.54092379929115 7
106.78538774521428 81.32714222056492 8
42.8291217096056 64.43663108116198 5
104.60347678470534 80.00069699299102 7
34.240781427072356 147.42698900611586 5
43.53726498520411 151.71172343370526 3
45.61438556320385 148.20824109619082 6
49.15754361106539 112.36727331971147 1
23.216038708260708 68.89307444937963 1
49.18452297540449 60.99667742503118 1
43.48599934252771 99.44731830044502 7
31.942568901417996 72.27332251488372 8
25.472353387439668 89.56997799868543 1
27.58961973374984 71.74883298540858 5
38.06407258995921 100.96200335096144 2
24.175067835887614 68.33673734667767 4
75.19923012437091 108.8971044293248 7
115.80165045983826 121.13275479944461 2
137.73689542597515 73.06106821759784 8
84.33561334150019 90.62694850324603 8
28.599097712943266 144.28242840494593 2
114.03808542264223 74.22077593198783 5
29.917581515489374 143.82269170117894 7
41.32103200695069 150.20507799192552 5
31.69763330571296 71.25676014495494 8
45.06937742032901 151.51237751687623 1
56.45183383813888 43.721067107975685 2
141.71524692670835 62.41937545178908 3
41.62134578724773 94.33446159383973 5
21.978584545093973 72.1018841920396 8
123.41776013982211 129.11304121920804 5
112.06692198505654 133.86097787182936 1
124.68958759890245 34.37532680880394 2
47.15368155308791 95.47792593060021 1
35.22148302578127 155.02908239747916 4
77.79834370055163 99.07959013820681 8
19.35286275552942 80.73534525887975 3
73.78479134940831 86.41959581614 5
49.00222837500536 94.79051242423952 5
36.91409798276746 148.1492906312481 6
66.13355453968492 117.04020824831406 3
31.03368536070039 129.95128693175835 8
125.98222442708129 38.01191008649981 8
49.25490200959101 148.6723475163834 3
33.11195352638788 153.2014143320434 8
140.12818410999748 44.02680958568231 8
124.438776571921 76.28224857594732 5
45.85066662090069 48.37195265320945 3
52.199792523502786 144.09503120567896 7
119.44006058687424 69.49570631457995 2
111.81400231460894 89.0083677145092 7
33.41530854303115 102.17977742187568 3
37.3451672008578 152.7772107126759 4
35.860738345117355 149.7209915132546 5
124.24519682352617 80.07267267198138 3
28.29573640361144 65.5655547447446 4
147.30049918990977 62.28472653056791 8
150.1084345586141 40.20134709337269 8
80.99610928529096 104.92210214155588 8
24.34486167187472 70.32505081227075 5
126.03325639864795 100.91507752546154 7
50.35988743306588 60.275590577987934 2
68.82371026871803 105.52194906125857 8
38.744279723997046 150.2292292407037 7
112.93557515467766 70.56431532272487 1
30.920445227049 139.6261296232076 3
43.082569817699856 148.67094782090928 6
30.47241864504621 99.58887602687699 5
37.6637436526199 119.48479982689304 1
21.442919320374344 136.85694364487557 7
115.21209183019518 66.854615264437 4
151.7172881467706 45.42615416721202 7
47.552653593773236 98.70959733965641 1
35.558073731526065 146.98889703337576 7
113.05582870022323 65.61833414684192 4
103.15691814779696 97.89832129499514 1
44.000623312380625 150.28063732551215 4
49.23746167285348 149.06601218247548 3
38.01403136045459 151.11130946456993 8
41.98421798044879 150.22391163147907 8
157.88259572044865 65.3275923238099 2
18.923692465041444 86.61723272942854 3
135.09014022960753 77.30630563931625 5
24.799879025482824 69.33955259089804 5
52.31533135406728 144.02458639502495 6
113.7441944548484 75.1148634442555 2
80.18200421501014 101.78806374934288 8
59.100529577424695 49.14946967634468 1
35.025186158346095 142.92326150164752 1
112.83930759101978 65.27858624798922 7
46.54260198026089 101.14801377377637 1
112.70595956827425 65.66761452168683 6
50.32856186993566 66.69542348958241 2
18.967039980475818 116.00838914844957 6
114.33039633320242 67.45990544084226 5
141.7825590467909 32.81877112633187 4
37.08126602034633 142.5058610561028 6
94.62757023665426 93.91272083151836 7
26.70966754141418 68.59457850712437 3
151.02983857011324 42.92424924143932 2
57.850007088794435 144.18847013718536 5
56.72847179598081 144.05841637527598 3
63.80372907943076 100.2794131656336 5
121.96347474412491 126.86928624596425 7
48.03574981044182 97.88133577896083 8
121.03161490170791 73.01534371703967 4
27.458178760426964 143.04814704734713 2
49.498800375904146 111.35073223664426 1
133.0289069260687 13.071535370842735 5
139.38959048698058 62.622782490042646 3
105.66519908531575 77.76015654767747 5
27.186876413310873 73.56196486621276 8
53.97872992477906 61.2805292777674 3
40.58210369948216 153.78090997679848 7
45.012342931333585 73.01075967381564 4
20.17284428798785 71.6426986289121 2
123.31075305409492 28.81526488328435 8
102.72614352971699 82.00678229794784 7
102.86486311570619 115.27071190399742 2
127.09249989375421 88.68439921661503 5
35.656839618675676 106.15912288786558 6
32.819405865225015 95.25883977306377 8
115.5169497838184 119.92615517367078 7
52.31206562151148 49.802687783594564 7
41.47083292826778 88.47019265662311 5
44.025690805544386 71.92446796874898 7
43.1828978993152 55.403380576464194 3
119.76638453149846 84.4014635705019 1
29.16500215895497 92.98507198848044 3
119.92837159244466 65.26501414647356 4
26.269061855300393 80.13091528575838 8
41.996872741353535 149.31085988341988 3
28.12894953130214 72.08292820347556 2
157.13398720772466 66.83185866026176 5
23.402060922023335 72.1336895102637 1
156.6638846985691 46.105508953406115 8
52.478239059477374 144.3390093864239 8
104.8898469379498 85.28344416949507 8
140.33347996126685 34.283456361633384 2
24.438129900813188 104.80647254231717 4
39.921262398663735 104.06136903424928 5
111.65745861947774 81.91687795736648 1
103.43148356919627 120.09686803222407 1
24.587673849632363 78.6495236451437 8
59.13990092243421 54.14083667314934 4
40.25532432614917 152.0909820341563 4
23.70103248298607 70.38234792098885 2
40.42916061467611 70.97109488064636 7
128.48895377979264 110.40177739617906 8
33.783110420649614 148.19450508039264 6
39.966151078969595 64.65190232508301 8
31.289101646688444 93.85208751641142 6
39.939382984526105 64.11094671951655 4
37.47592810306531 150.41810779083448 7
40.87112812959431 139.12835042319034 2
30.167218477422864 94.55298711126035 2
25.097013429026877 71.10377200119687 7
118.99023995329364 97.9004946445165 2
113.85955388540567 124.09760661924341 8
28.85894052935652 103.57445685805465 1
35.85529964008162 148.07546116429666 8
29.00967253599649 99.69947511674016 8
35.58264948115383 102.42952958725957 1
126.44171616947932 122.7459577565054 6
53.58363474598423 142.31718167708473 1
123.58728296697039 35.617932654229776 8
28.65447721818078 96.10879875397367 6
42.90612924954512 144.59086834770906 8
143.49576753937046 45.78451243076602 6
44.23341644396183 148.0753996813148 6
34.05186884273781 107.64631702098728 4
114.80288120285272 71.75694635301369 7
142.39171575646932 43.29004268569291 1
102.4277143469143 75.76100082072247 8
150.4925448457744 70.00928552603867 4
25.885073180107224 140.48785990641164 1
61.00396446666699 144.61974999863259 3
136.93382538079607 79.97901404613094 4
138.50353773402546 41.889825979030434 8
149.12832376349562 76.17613279310197 6
21.981291247419772 107.74146146221898 3
142.47562861496792 73.57461586979528 2
118.23719232926777 78.59051071775903 4
39.897804604565884 145.53611748557086 4
49.39943112031088 60.3770906339394 8
88.27358486079244 93.16617015525289 5
23.574063445768118 71.53542001607738 1
43.475952016446676 150.23946190410928 7
124.24489850423436 27.342626681670147 6
143.15589035764023 78.82178839335097 1
44.120302275231424 90.06726017236578 3
35.83371833721539 103.17748348253944 6
57.709018243097944 142.4285028282486 1
89.97830420200764 97.31275163843996 5
46.726060337687834 52.372108565708814 7
42.90010018343147 146.21031387886362 5
132.03743166096856 111.37616332142426 3
50.4542117823273 100.72633705911255 8
34.303518309912725 100.13302546826974 2
145.94528845447817 50.1160123801742 2
66.08113684807458 99.24788010435657 7
29.71635583925905 66.22625012795346 7
114.98041547841042 66.91094830145227 3
35.615420933120916 90.20452517523111 2
115.5237579656419 122.16818173956555 2
45.5692777401526 149.1339637050229 5
45.71371540159229 102.36594648892135 8
129.82744354455215 77.28919196308068 6
30.166496352279392 141.05734691073317 2
32.12151103530724 94.40433247934715 2
35.33698533781867 97.49209497674019 8
143.2582319892262 48.73146192593871 4
18.850616021357826 73.11791731067677 6
22.580537353827374 73.16163871686786 8
42.918216775812446 149.95689745226557 8
40.270726803904154 95.15837711686541 2
35.8712791988973 99.81779125815834 1
37.30365224571451 69.86627701420747 1
47.20751846130698 98.18064117937625 8
155.4275277188908 41.03923194860056 4
121.0170030944083 134.28435683035474 6
29.997431174702125 144.1901650586758 5
108.44228744484317 78.07746055091174 5
39.21490173054338 154.72580441911455 4
145.00030406904185 58.16595450506687 8
26.01996253361986 70.78108201370286 2
41.60739785630045 105.14631509514336 5
139.70202076056015 82.43657334852996 5
32.80399546618162 116.01691015531506 5
44.76066269031943 61.03075880570234 1
123.91109988861724 127.58738567956573 3
28.49329071913104 109.77768234981906 8
145.24714043183363 36.905380114680966 2
21.52789753510644 74.5513884416304 5
140.44201041034864 49.235209434960694 3
25.238583500286378 71.75165195729733 3
44.95246135129945 149.03408466078915 7
42.39785583074966 43.161337666074076 6
71.54282692869799 75.50837907790773 1
32.6040640933641 101.40824482464114 8
51.848820448370454 150.65097937823083 8
49.60823139727196 47.29509677457194 3
55.589870818439984 103.80613350457809 6
145.57146732876004 50.8080330121088 3
66.2348364761523 98.02552541953955 7
38.00149634024259 150.6391839327728 4
151.92849488245884 58.29048351716111 8
26.45015238562639 69.44580656814686 2
132.92880682319884 68.16150190899853 3
50.27430689993738 146.88318610217715 1
148.07706189444792 49.758436440605244 7
143.37091583497005 61.61390722934859 8
50.58274823492353 101.87983513411359 3
109.88542807510882 80.07573477696977 1
140.55058877720853 76.41433583708552 2
57.95726486074569 143.9653628768584 7
39.348869333183394 152.08454419077896 1
124.11117068003972 106.4778475003252 1
38.106317765001194 102.44683443250621 5
51.39055223104507 51.892639201585006 8
41.870613332870406 149.76934287763703 3
56.167549631686825 42.14690036832094 3
114.10046805094187 80.6192189514268 7
111.37507752106849 78.10940535718333 1
130.4551984515206 71.97008062621843 8
121.05780953829725 74.04941880785634 4
40.32421353827065 63.69412715051911 2
53.94350299293966 41.58493993847973 3
134.9684500503635 80.8490775510518 3
36.847332495070496 145.95998375874032 6
130.36113525321525 83.23646598203987 1
48.88456188552983 92.9078858085064 4
25.893261761364744 95.07877047610002 4
39.21031032117059 148.7914545995609 1
52.64818666637012 71.28381060397882 3
24.07091570214008 81.75769100735074 4
29.432397864771016 79.91588530696099 1
40.060688248579304 141.22769361988472 3
117.84587067219441 130.73041386661978 6
26.94020646329747 65.1283608590131 2
149.70100187064952 78.00566342499323 5
39.73668238654626 94.32407556815888 7
41.52978779616944 151.1550339443088 8
44.72551921200092 146.87589415417045 3
104.7252333799842 77.96335686568554 5
23.474490251464193 69.54651129365439 2
141.9232065030391 69.1894436048657 3
44.23110586579598 68.9462010402732 8
42.75020539540141 146.59871181679077 2
153.99922441493342 67.78172206402152 8
101.27860867359436 90.72974074478812 7
30.779038566331547 70.91519607870784 4
43.547959745369745 146.22301048966784 3
48.10261284336973 101.98999810393796 7
125.18853460669813 116.07539593381165 4
130.42087907287146 56.27475261664266 8
24.430229194639868 83.27086055771552 3
45.63392616993746 147.27468197948184 2
155.56674370019007 41.0193335380972 3
39.765326177702704 147.3213233969235 8
53.72848674886267 147.45273641976507 7
125.07546769331907 84.5981670065367 3
20.306853583202717 130.28330542610058 3
83.885445107085 94.78086848071308 6
108.74246763004224 86.31541496989519 8
113.53838826778741 67.98916037276038 7
123.89810195432283 21.590861033457003 8
107.81552903786599 94.0154642518868 2
28.096915714802456 90.44830520927671 1
44.4973890273111 146.4136554407227 8
41.54399672383413 60.15470113919441 8
133.1000630073695 78.77082870400417 1
122.60514670399188 66.33982572615625 6
91.91773095349282 60.65089236731369 8
125.5374560462979 113.46671406142006 5
59.65258564442659 140.8337637482406 3
47.90073887679362 104.3145185707298 3
138.61366828282547 75.67422214425159 2
18.551384289753805 82.70053044357887 8
54.356379656864895 58.55329550296253 8
36.358688514753865 66.46491109076132 4
41.52213753376999 93.44983336151903 4
86.30605492775622 90.63728567956173 2
111.83059152336011 72.65658004270148 7
123.25797857822248 116.38150272012513 4
153.13233493923605 47.10624286377491 5
40.809507816225576 103.48184322238336 7
108.94127651657485 88.6686592205362 6
29.757614766216655 96.67083217204497 1
24.785510810675397 83.69362762364534 6
106.24383258621171 83.56685569201716 3
29.12339604275094 137.68422057143025 6
131.25132098352753 68.43243022679707 7
126.1086966732758 31.69208866362016 3
45.813480805904234 106.13635592154311 5
36.63664293812757 155.54652939226074 5
118.86236167271946 36.07259439804971 5
25.487436200652574 137.22311471325892 5
51.49879576143728 54.22812856858662 6
20.8474114892842 135.0856721032116 1
42.431833214606414 70.1698392750798 4
26.859323385852488 92.98672562333809 7
133.08457152440232 79.05169854254218 8
131.51649568234734 32.61321911799476 7
43.68564047653676 145.35574728495672 3
125.42077935665608 37.799740176918796 4
21.53698210533395 71.66141686697142 6
45.75168113095219 99.977447550185 5
40.943532205685266 151.18359123507278 2
27.795445195352578 69.10423231565726 5
47.45076778447687 142.90773876573067 1
40.18347979455534 153.0204003712225 7
31.55066683685299 95.952528645474 3
46.33028743245506 96.85617584407396 4
147.92614591379433 39.4928059015726 7
44.82418707380053 128.04356028256205 7
24.041629038149456 71.19578837943335 5
96.06835430199129 89.17931536940638 3
129.17140516667712 33.2174494473777 5
129.5556500061231 71.57932419856844 1
23.144499047975785 73.70362424269416 4
103.31775529502829 84.75653406782513 7
108.5162959912798 85.02201511017576 2
42.31636766042398 147.47776423784185 2
135.59822203900495 84.4020749538922 5
18.063717918514662 113.86347481344725 7
37.403115491978056 136.37099899813856 4
35.31013207240444 138.04720494624127 3
40.53245792234972 148.10121120098208 3
22.699471427703973 79.38743556087925 6
107.41153079005849 89.57916219953168 5
22.994038947587402 70.7825808201129 4
42.0178074893826 139.98523495596712 7
97.31530450020811 91.48783047607003 2
27.63353402055185 105.82025089331525 8
142.85818283032944 90.15006100666415 4
19.468197120275573 103.32193746307813 4
35.99124245746667 98.07957144234642 6
47.0318647365233 143.0259586658748 7
41.64898668231902 67.36186525991737 8
22.883737683680547 72.25103963899556 5
145.8990002407655 46.997662602748704 5
41.53938285686091 63.72600838748305 2
25.11640250310786 89.05255437174102 8
27.51650145376776 141.61638001342365 8
137.59742177467683 42.813818761705804 3
134.89676325676157 40.3757810003357 6
27.759740606611093 149.14169235856127 4
21.305345931400282 74.03303193522962 1
19.66724743691786 93.59090518212366 1
36.18002343116129 94.47239519862914 3
148.3966151047153 48.75331290066286 4
133.58899860856394 30.44098424768549 4
36.085020778788866 68.59238870257646 5
46.64199108523918 104.83194625066368 3
60.26394238219514 145.29475759049978 5
34.685343212456964 147.1714550560052 7
151.24933898443544 55.777020470431495 8
52.83288285808249 44.614861663705064 5
24.63622914438141 88.75641690493953 2
39.16277761655323 151.69841240535737 8
17.717552769224618 77.92345303518154 8
108.6994761375888 116.79002259586834 4
26.729870816388033 63.59938364440332 8
31.341215244372975 97.16170585273807 8
55.04777197963476 140.86492222763385 3
28.415355027468735 141.3474395555771 3
41.27252921626056 106.61116977262401 3
111.25467845776282 125.02844838130598 6
145.7111710264418 42.51834458972191 3
46.23204348959995 105.51082605395116 5
24.348928876899507 71.15432864656988 7
45.11117866735044 62.86608266484119 7
29.626157351027707 65.48406145091346 4
41.819112117397154 149.40074402866318 4
122.11838370173037 29.11865687426068 8
103.470961767584 81.17007566490568 4
42.090326845768786 62.47832480305208 2
20.70189898100704 135.22416636179818 6
143.56660960572003 46.771853651263434 6
56.248618715782555 144.3974559339168 1
111.65894064427775 80.65287072965303 4
54.36222411164311 138.57704437843086 2
146.8850858744375 37.87531916838857 5
42.134024187615395 147.29769047164385 5
35.77637968104176 72.17496443328496 2
44.00137771851949 115.20669398811326 8
46.761352507600776 148.7946905651875 8
34.84411647074781 116.85179813303938 7
42.17051697004058 151.53153282744753 8
37.16628321109813 64.7257254463096 2
88.55127649563346 104.28912258782127 2
31.29854769620582 93.81091221421929 1
28.318911196712172 95.5255810090576 3
59.72739914472044 140.55555049903697 5
119.05272392415671 29.496392557068926 1
54.972785425459385 62.405833602330766 4
42.826237766713824 147.30879769593986 7
41.19369700251735 147.4999892122196 5
38.216583364711774 152.0990849249543 3
120.12936394521623 76.87015066053662 3
143.1451454123098 54.841633999600134 1
28.6679751600708 67.05312287382525 7
135.75405454044963 60.94755451440548 3
22.450778930225635 73.28057850274793 2
114.09803429231783 41.36608908265795 7
57.902450149727464 146.91954545289602 1
27.181907087944218 70.72948660928357 4
126.80411628957542 81.5864174955369 3
148.95615267607866 46.774731025247505 4
125.49019589039519 71.75194446876927 7
137.04773318116432 38.813322633976384 1
32.046087032428915 63.557035064385786 7
59.62439870901263 136.11122675329435 7
27.554502108514278 68.79061545732836 1
45.416543592948045 110.99731852864394 4
19.598246059005454 96.03349455262361 2
136.25651260270703 87.61284599299621 5
29.330830706611582 71.58348985164834 8
50.92452750959525 64.43782785725757 5
27.30255928273145 69.45052446629794 6
68.59264570384634 93.37519555198506 4
127.3845558548405 36.03484306321893 8
22.172576103628117 74.68244233804569 6
40.11641718356408 66.45450210246516 2
63.437774880747625 92.58971010348094 7
153.28641159276913 42.502774397740644 2
103.0881229159326 82.8683602508695 4
21.44838522260761 75.1301357300022 2
119.10763749830784 69.76729931970421 6
51.31457340441222 142.24796238629503 1
51.65354925068535 155.07328371489842 1
105.88882239894815 83.18226970408838 7
116.95050847257093 74.87753668274844 8
25.78587667091727 70.8589011341714 4
46.60500086602013 150.30307217808678 8
50.72799261089391 62.94623076704961 4
110.42188927033314 81.44406755036027 3
22.7499515463875 73.8196396820785 8
31.97400550729137 104.57660650194782 7
55.11560401609367 41.80504838400915 6
119.44055316832929 92.95023249680702 2
53.0843654935835 41.90906133707929 2
107.2558190567839 94.32567960329192 4
157.6825198280153 52.25000594808486 3
110.74562972888185 79.38292394505224 4
135.8088532054111 100.3937502812101 3
8.532037759353756 129.6875805371263 1
34.532841409150834 100.38900875841377 4
57.11992378390518 81.66655311415975 1
140.7873881757969 37.766010269473824 4
109.52481574226279 84.88210074509458 6
36.50597918342069 133.11823912453747 6
52.97359894760408 144.5739021442107 2
53.846545902745056 106.61732027351547 7
31.25307081105445 153.3566403974678 3
38.86328151662561 148.71773444048583 5
139.8476256753621 53.33003689836128 2
108.90481390488941 100.26967549025208 8
150.12704606622145 52.8959796665467 6
116.7097852693916 132.62176853293064 4
52.549458868876755 49.007372173249 6
104.04225126621459 78.60569982220827 4
34.647728252514355 149.60551915884838 7
40.86941131040375 153.1887652325833 3
23.289814762955757 143.56843827562582 3
102.5014297998685 81.51587973269262 7
41.19688397262329 150.66613258668355 5
29.418598615322193 144.89027624145777 2
63.44920827342495 142.97239482549156 7
33.697615906763616 93.24963945634788 4
33.783324821627104 144.55664336004975 6
34.651689871294955 136.1154596718046 1
37.16336814723522 146.5451164559281 6
31.65207751576248 137.84929100112038 6
44.91747059689732 148.27500649306674 5
45.117583493316324 99.11782465146531 8
44.957500439999805 99.32189584161392 8
55.72398185985806 147.09429688054803 7
32.74114948789028 140.3876592654281 5
45.51740144933502 98.55392426046802 3
38.78977104965402 151.88157761273854 6
41.199238180028004 137.65702805722313 3
15.124647284456856 118.40360775185363 7
111.65429850501225 68.85851093197712 8
142.81089634030866 115.33918360896502 6
38.93637510124921 118.472170185409 5
21.77418581298749 74.9012966644622 4
44.8646791330825 147.71935069684298 8
38.68055383187901 151.77265618991706 7
60.888097574210235 142.67754488296464 3
28.258575646641045 108.55685475036785 8
41.476684111508504 103.56457355251953 1
23.181365169578182 130.40380236329656 1
28.695703167830942 100.3137932493131 7
46.64698189451761 66.53711616089566 2
53.08145763266838 44.847415940274935 5
142.98533940023123 74.43910789240965 1
53.488815491548436 51.036435278660086 2
41.78795448913852 153.23422630851155 7
26.889726181985218 142.3786728744119 5
124.4006987212927 128.30675583974818 1
148.87699818667232 51.16301380497857 4
144.5911224328197 65.81142834478814 1
39.469616850873024 153.4963872739435 6
35.25092246964894 147.7505453926462 2
21.156440310463736 70.98362927840708 8
58.57644803380434 124.89446625027828 6
23.519114448656843 72.97742986982495 6
122.13027283655599 129.6497678187134 3
108.71264825820634 92.49632082593372 7
33.970936823429255 95.62265868773734 4
132.01538686449712 78.91175630192353 2
17.865998691611303 81.27814755932953 2
148.30955272681936 38.37993805277638 1
163.75547516426772 86.12929076612207 5
48.15284820945513 151.2278799922842 1
112.46105762941832 71.29675168987062 1
55.6502253562015 46.324432836549676 3
33.274438414014085 98.19056395914454 6
111.56074397411797 106.93731373219947 1
103.03038628259364 86.17306140059019 6
47.16055905809167 99.04948304188882 4
143.15346081373661 79.39264537911068 3
17.98735713807398 82.50340079109456 5
122.46024606953617 65.82813488253976 8
144.42395270444678 35.40531678813869 4
104.63617681633157 77.69112331800194 6
29.667036671771665 97.07878965647616 7
118.43628343824977 107.40999895368881 3
36.28419101504026 146.37661801761678 2
121.10829915855072 128.17097194919617 3
108.60657849091379 89.69382739696134 6
41.24529951247737 155.40740504853986 2
111.35676404342647 86.9507251510196 4
124.66872441993739 20.10148383335669 1
42.94814546524135 65.2591189326394 8
44.1012065407745 96.14653939238646 5
159.13135849330783 79.60702921743918 8
43.58962259250256 147.5853814964399 3
118.8091192107235 134.47996293459423 1
23.624991693777154 70.2351224086135 7
127.10347511394151 35.057045351398955 3
25.635064069016206 73.79302205130139 8
133.53562395357525 29.78434701409963 7
121.51535543333226 26.963271459568837 4
42.67396315345957 148.29633463807207 8
41.23636668316719 152.57387165799065 7
14.554420127091635 75.90058721478923 5
35.154543224540284 97.0641254695835 7
131.30059383139533 118.28847006424277 7
51.625678549114056 50.47513784241087 4
27.73556017355782 71.05419007006347 3
128.07352204100766 70.53471575983781 6
43.47617272754973 68.50752318004326 6
21.067482206080914 72.8026665433368 1
111.48720493854609 78.98861064245283 3
20.470507116196657 72.05819773505829 5
52.02795297882 145.23313344866065 4
38.2795091959286 68.42594053014764 4
103.14378506934013 94.69061468540275 4
145.93945809593464 79.98299927165637 3
117.64589649823684 70.81032585269583 7
28.650934031835007 95.0269546517026 4
30.365025491478647 74.8042045430155 7
47.32472835085549 92.05602248421482 6
31.33686527249093 67.53716459215904 4
24.577627409006123 71.33512551148824 2
55.409422246303656 47.50235455174144 2
26.614239428914807 72.00668565908732 1
120.58257893977947 26.831769397964614 2
109.42908926646564 76.88271358920476 1
33.627070007999436 146.58455094587683 6
24.107241483498385 114.8027301656195 2
44.77838612563447 146.31175565493328 2
31.705006067349206 64.42164880666733 5
144.69567316027675 73.1610912024047 8
53.259507867192916 146.54434722035313 6
114.06781041706141 74.7549988800016 8
23.135813444394163 73.55082373766818 6
144.07835582535222 40.258992314165376 2
26.88536204393354 68.29697559423172 8
53.11701075983024 136.9740912781985 7
107.92323149195167 75.96553082911323 1
27.947219312024128 102.99913885299839 3
57.02556841753796 139.86668489513372 7
44.09915964397811 74.90637715422915 2
39.47176863618369 154.0976409462446 7
20.018937670281808 72.04835591676819 5
56.17022073782215 143.15500448468487 3
35.341830726131235 148.70598492132999 8
140.3817424786393 76.32709383833382 5
35.343674158414515 156.7505320761928 2
105.72727830188325 77.24475316558141 4
43.26714497608088 142.70133473875248 7
25.41027157044603 61.319563003132195 3
108.40923452046574 78.46298380919099 3
138.33031314573458 58.01331823757218 3
112.15738489260904 74.43312185275228 8
145.8928554160781 53.838325790459166 6
37.12393116029043 75.2517402763688 8
31.896300908878807 67.52799898078379 5
33.65501598305417 68.29294264477882 7
30.06968654457744 70.87870771545138 7
31.587664453169314 70.40645314791124 4
118.72423975177885 63.534042923801884 8
24.784511414148962 74.25905190392015 8
123.91980029003723 114.44490759653957 6
21.581027802770908 75.0114719841486 8
40.15623664805215 151.56590342696853 7
119.51625969619641 125.9171477876362 2
50.386963295378195 48.532598674259944 8
28.48568222522743 66.12850194008945 1
26.319714220330443 69.26637403306229 4
19.367479162034137 85.94300948073689 8
26.959732059547818 72.69406611473724 3
33.77706893389732 96.21492149985254 7
107.10202530517412 79.00796891595074 8
106.8941690382572 84.35313839814205 1
100.05260619060559 79.12082097034596 1
43.21338164405663 61.843620048807374 8
25.83418524331658 72.60901499275671 6
147.38111539371403 73.64666716141635 6
32.749399447197995 61.03110656450643 8
26.956525729608042 148.70903594334294 7
39.869095113027676 153.0685568477606 1
130.71388555558005 83.17523107627726 8
23.660529636172384 72.59365322968151 4
26.585001195879176 145.5757568441233 2
22.227923337341025 73.15690475297814 3
127.10236293868377 75.74186311752274 2
78.92388568079176 102.75045032426381 8
41.514094845306616 149.52143946219556 7
108.99121783673135 138.31978727145753 2
47.483986699815034 46.030183869409385 2
105.41257805847343 85.23331654758917 2
108.91367216273798 66.58262569351774 8
126.3784878879925 32.899963967851555 5
47.53947503129941 65.66708383506355 6
157.74061717556935 46.03952566727119 8
115.14462422842404 70.16581317586059 4
24.134277152944815 91.19736858044084 3
106.18260641242014 83.45756600823677 6
117.00597860258233 89.36943071246269 7
109.83496912659177 124.24600871581903 3
127.01347104177975 74.86360582932278 3
80.51282965075694 90.5974574171524 4
44.39287125633952 147.71095803729 4
95.05997256398052 79.50522599985963 6
134.64221254429245 38.21782313227949 5
142.1989760326809 74.54407443053161 6
31.89168567686785 138.994840366505 2
123.04740303914085 70.58294700844122 1
29.146871350491182 78.55023765522074 6
40.84541303219178 151.55890195844367 3
41.20407904382436 99.64542522497766 1
42.091439686708284 152.0958681570397 2
33.70435350271991 71.17731871218363 1
142.12338160939285 50.729586641494805 3
46.448238902503284 67.2966087793759 5
45.27762123912016 67.90381589183899 5
21.90231554965436 139.0010489674707 1
36.02626387946425 100.54225384512625 3
22.053078981750563 108.03405327121075 1
54.38332001819225 49.37683432693744 4
47.899494179978454 47.091785346008294 8
44.525778289875475 149.95826157655176 5
40.27444588721121 153.4462582814802 6
19.257136063163404 75.96922926320607 1
142.66826496899492 55.329231803462484 3
127.37377013687728 129.99773471501177 8
148.7865406997631 71.39034347092816 8
114.74497074045259 69.34590416042734 5
157.25312601739185 53.365716079307745 7
27.313294512379844 87.08108853591506 8
25.725542247552685 67.52902814442082 4
20.174422656204385 103.79532015189056 1
127.59387578946186 20.999302444637 5
43.89961588835076 150.48575094538938 2
73.38967332821801 91.38514676535657 1
32.5596937042575 72.58493382876242 8
45.99663581988238 151.39588034248015 3
56.13563598992618 43.26479697749736 3
49.789613319242 104.85133602041061 6
102.84523495676196 85.49153202100004 7
62.564620726905254 58.978511626829835 4
49.07694397513607 146.00737497786344 5
63.49003828976759 142.31430731205987 6
31.163966768426544 143.6078595267691 2
22.191064230095108 73.82223962769838 1
48.943156612264744 48.10629563587173 2
25.095329786934727 128.0247023970695 1
46.454639454653126 106.93107483648899 7
135.380973607386 79.11212119046625 7
112.32956269620632 100.22568329774722 3
41.97614979055159 150.29128378727387 4
70.42622965437137 105.21538410628708 3
53.19632789864223 144.63539537862331 7
45.606556223650806 147.81416492461372 8
150.78770604555672 50.388712415743875 1
151.32978307175293 62.20850185913467 7
106.36255888465058 86.02966591393317 2
54.259461756449056 142.61708003963074 2
29.436941676917773 68.19021722352154 8
51.31454248314553 64.76576444526552 8
83.59125744465291 101.86795350169018 4
26.66910895350708 65.67124119330488 7
29.301023307178415 96.614549187402 5
154.359382990064 56.02058740703602 5
24.904477361677223 76.14151050592376 4
109.77406287370107 84.5490660223456 6
147.37891731884892 74.1835715428365 7
33.490559927857475 64.70149083123164 1
26.540782872417612 65.65334068282938 7
152.2809612078062 74.40862435733544 7
46.57964673754977 144.73359972998148 4
37.318383532276854 91.8916923963713 6
34.792592018072234 65.38816316819405 8
51.47378304621262 41.26165809053166 4
156.1344893200249 70.76746223242952 7
51.310516556882234 119.75057658670474 4
106.30012610056649 82.64878599465688 3
115.84510428301748 122.87956783135328 5
118.33511043125266 66.11190457710083 6
124.8783613826119 75.37019411167982 4
104.93513429384657 87.69870583468523 5
143.43189829600672 62.16142569247419 2
41.73499624775187 150.42095619729892 6
116.0526268129677 124.26053571761602 2
50.75399800685711 68.09431567369921 7
40.66398223015703 70.74923904257105 3
43.686817580539355 60.785260386359994 3
44.02907335165163 58.55129342117446 7
36.888463998591156 145.4384695819063 3
104.56705280442678 82.46794675861814 5
131.13504149880256 47.59723723141384 1
110.93725158122459 101.2620356879236 1
42.944380812618036 148.7958688815079 6
28.045167559518926 140.47472965981646 7
38.149596945674574 152.71186615381612 6
27.765345406819982 69.59515304955532 3
115.60011399471223 67.97584284051665 7
46.710496149454535 141.80213602968803 5
27.854229424831964 72.73548464690745 2
115.81115996046431 111.1813531705353 1
28.06359444142138 70.71321845019898 1
94.57699480712725 96.09045381567238 6
110.42053950706443 92.37648346289794 7
46.315926697588196 66.18078459241323 4
39.98438461161945 152.8958703581514 6
140.0365752383767 81.17539037397526 6
126.20695534141839 33.47487614373329 8
39.24122840313777 95.20843363464202 2
148.63328786671826 47.659070673551106 5
121.9185690386891 92.24614898286474 2
106.2724966090829 89.83305973954288 4
130.36204250033498 37.168717391219985 6
150.3414245970854 74.99673904224397 3
37.888655517908674 100.96433234752745 8
102.0482043942981 85.85492161681628 6
146.95796776077498 78.23722087036909 4
124.78639691818864 36.11364077430999 8
25.891960261619353 91.76651109530967 7
143.5439235526042 37.24329293191156 2
33.968078038571576 152.8486647604204 2
51.515764342116974 44.387998684127176 8
109.72982721042904 72.81746692956587 6
25.656727796375222 135.071271056104 2
52.83436468969575 43.55484228029395 8
55.828558598059175 66.79741037147845 8
114.28948985612365 102.0665297518453 1
111.90124707596934 83.36437404009904 8
149.9511555488047 31.943327056102454 4
41.11885697283818 102.58817044754277 7
37.30619627704223 69.94206447253987 2
108.699330410894 89.37547265839483 6
147.41076147205246 77.06836875159962 5
35.762173468495845 66.48565956237996 2
37.14671156470803 93.43185769014063 1
142.1394221504383 40.32049794719368 2
148.718174663106 61.57143594811383 6
38.20429687626057 83.88174488283266 1
26.47492958115277 103.596989832978 7
42.70868716637198 126.9880101105675 8
73.51694336864887 81.54657364385541 1
57.65470373698454 57.165170399854354 3
29.07237481276358 96.00070936482486 2
121.33034217649994 72.57989005270308 1
56.0394631316585 142.21684059117547 1
32.50754064919933 71.31658389266407 1
17.020644427296006 142.60948419151808 5
138.1518381255708 80.51745130377498 4
91.61644026941613 106.41740361311807 8
138.78210470518528 50.76350614588188 1
42.281728364253134 148.7819438207902 4
39.72619295209655 153.29801627418135 8
114.36144164747404 71.03987199588789 4
28.55289194768148 141.78294000547186 7
38.602886899319586 152.8345059672191 3
26.864086599244526 146.3735272827279 6
49.546901138379035 149.82723037253461 2
40.83089331498337 68.33127908548795 8
24.002192266769548 70.85284194419417 8
27.761844769689993 147.9621928608872 4
119.98179783400663 76.05213462943513 7
107.06861321354423 94.5082360104381 6
31.399503884480488 142.29444687184264 2
139.35855399810666 75.79404340114291 6
144.652164064433 41.45143274990936 8
34.5197650189479 92.83927911783874 5
