760
0 172 0 172
1000
56.677485144063404 102.85404137443001 8
139.1599668485346 27.851980423951527 1
52.33036894075003 87.50876105793475 4
136.1172318710807 92.0658653615874 4
83.94687663786122 35.71190568611466 6
82.673759860735 114.15124724244846 6
80.6464865784617 111.70505253564295 4
98.07291084571733 140.0658501630165 3
128.2390786538943 30.130559784229945 1
61.005578069758315 91.90024853021265 4
61.10686240107221 105.44265710973241 5
80.93994202128587 25.96818834256104 1
125.13748394516081 92.25413733288713 2
101.5446455574979 145.87000567529378 7
145.1006526125663 26.547332530371243 7
75.8376262658762 30.708055177886617 6
52.78822041225104 92.96293732080855 8
99.44532869982122 87.2157891093316 8
70.99482740705956 37.552649168290685 5
144.0495457664477 29.273666318448882 8
91.85502822216998 137.83509457581755 3
77.55443757530803 30.267900526420675 7
129.90457907958162 39.4522405200087 6
83.91190904044804 24.801060941605726 2
85.52108237439487 130.10156103727238 4
92.93480201283616 43.63182892909911 7
95.5750061961679 139.463261225041 1
77.42795460773905 29.889033107774672 7
62.93663868538814 41.59382619747836 7
37.26312387752285 116.58269061596152 1
73.1106012994005 38.22705610863495 3
68.29795790968848 35.583131427353145 2
49.81846760359542 123.9969276186204 6
135.3760531803755 43.5749637015216 6
130.77626350638457 38.01700812977302 5
72.10582546236402 111.43831390991674 5
131.25718236920375 36.9697896008062 2
114.54447478101632 116.63667437333592 4
77.93819844143182 112.53104326481024 8
102.29784117177105 121.05020643692382 3
85.24470142906151 125.03340117951535 1
96.18136610995442 142.43678330476413 6
91.58516009347932 119.11998821856518 2
118.54273728906453 123.94011725291645 4
108.3939723913092 67.87500467135015 3
108.62826146160997 33.10860514779068 2
54.20622709528763 105.55893725161916 3
137.0357490638764 32.97443061134256 1
56.70919096215059 99.57378226744316 3
89.7335297650372 41.2288880493284 8
30.19435452837064 144.34439864046996 7
19.938357938868595 139.3640379490654 4
124.40054783839413 100.51076199626087 3
135.55126001428434 33.51964368359885 5
48.321747636238676 82.60588273640818 8
74.79668148790616 37.111395653077935 3
53.45140138034907 106.2781546907279 4
83.14373638670662 29.66948017330816 5
133.15962749658803 39.48578006573172 5
84.08995220300935 136.98052781488244 5
139.12552679897811 27.916961356414067 2
80.15666954847151 48.72675307217333 2
80.7213201148223 109.27000614572036 8
81.33404060166438 24.91236878800597 4
90.03489807636836 141.01790387576753 5
91.75186195337169 138.0820102385458 3
135.54820377955195 93.79775064010138 7
89.31539069260683 123.18630752235732 2
94.38472102304914 137.82727389450298 2
97.41357400946787 138.1894795585593 7
94.13532949943536 41.48231781290729 5
49.626478035096184 44.17562227319146 6
133.255141652875 89.43506280149235 6
84.40283128373035 39.745244129639175 2
90.04111988891154 138.73211204691123 7
74.91937306045597 28.92674855676436 4
151.66552417646315 85.08609736403679 4
79.35342851353872 103.72935471733645 8
41.71418535836926 123.64509676789706 5
92.85836040466219 141.17361794466598 2
105.86012268083992 148.31541278121733 6
68.09826032255255 29.31211458172488 8
69.24104708283097 40.32105446817691 8
98.72829874111792 139.52230938236642 2
102.76778848556769 42.01239168739902 7
43.99598010373457 82.53351611953546 1
94.9767527519062 48.77654358592791 6
39.57405265523694 146.52598443207197 7
50.00709173194973 58.64544517275887 5
94.04038332984248 136.77143133081933 7
101.98062189879315 69.27874631564072 7
86.21614897846199 106.6091270651785 2
55.85648263649299 47.9125517640585 3
118.77098879399361 74.29939906264687 6
113.46481503805119 107.14529278578408 1
132.1886604466553 42.236982695029425 1
77.97675141281323 32.40505251630891 6
89.31879842401568 140.66394123211123 4
79.59226080669275 24.99606304767345 5
95.77448429356677 71.20909976780877 6
21.407606217508764 149.7119536526642 2
22.32584597703962 141.71883523342407 2
92.94942970513458 139.02485214444343 4
100.36982698737499 71.20608331367477 2
113.85760587060189 33.794050150034565 2
50.13107426601886 48.38692439998116 1
88.4744156261847 138.8220499748006 2
75.74951518716074 35.611820323829264 7
134.13017919720434 35.718909254065004 7
127.27832950579592 37.05540249578249 4
108.88446820284578 77.85006138656696 7
70.03090681142062 103.44960712447282 6
57.00598175863666 100.06827547983326 2
55.91629974813677 61.28927713137258 8
73.49761129706224 38.24555515557602 8
71.26431125623394 43.07185715213006 5
45.324932201023124 140.48683135801303 4
102.55910757702772 30.270352417904935 8
54.44547890326189 101.38441360043102 1
56.53980009851318 60.1348110771425 2
105.48578009136224 68.3580160456035 4
107.97919505741356 130.6817344737697 2
80.06525527250035 23.58242154655159 6
104.59107052254416 65.44498132335683 8
60.10242389612555 110.61388189858363 4
47.16420719104339 89.99502090970874 5
136.81762372886283 27.327229730513196 1
80.18011915027796 27.370914575322864 4
88.69525002724319 127.32773425289484 6
57.54004952827494 101.00746116054884 6
30.647828199102094 98.83683412661692 2
76.63990059394129 31.160796126156157 2
81.76700189318413 30.969999121043134 8
112.5338176521733 108.93252563429039 1
134.01979424270777 102.69452588170687 1
36.47436281373093 73.42117104181628 7
141.19065069041415 39.208128431857915 6
55.94022337440106 54.96386668017742 6
85.85400090830268 108.09374213874108 6
81.86379206369412 25.273479148516152 7
76.94355876938741 29.961225077390427 5
91.00683988981261 120.00645636341474 8
95.8391917609439 32.92516904389304 2
118.56458343239775 37.74229581635781 1
72.96707575447391 110.91684548927631 6
93.861602146559 139.93086316809428 3
82.69127249744132 136.92088251746165 7
86.46824789772344 65.90464507653495 4
81.99253788317553 26.986658117972564 3
95.6695123241967 70.91279775585727 5
81.5927479079097 127.14315607123093 3
98.27775441925937 48.63901192719365 6
76.99026984989128 31.396101257576937 7
92.72703389471812 140.0089956156253 6
80.83330799535305 131.31693639533373 6
83.37313041791076 134.61897848372914 3
121.8232304768559 123.15128604255574 6
73.8032328453369 116.0267801747824 6
50.26014515215526 99.5965757274844 2
107.95986115153227 67.62158060213208 2
91.18652395763539 52.087229928301504 4
64.66451102854255 97.33955433780713 7
64.71206731953369 101.58321566370954 4
87.69457055832942 125.16743377664076 1
75.60298241606817 29.684936011904696 8
132.91299803085172 40.07851070765844 3
72.60234586488453 31.70812074610111 1
120.80810034807473 95.49546087958748 7
86.60112131601579 141.39764020480067 1
91.2082483660373 138.70753677915783 4
142.12896037465845 28.597126531430273 1
97.20164705700913 62.256595506080714 4
136.04850910941798 44.96280507859356 5
133.23293298071343 44.931263330045375 6
96.45307960412899 136.95977379634175 1
120.9463443426542 112.01124238113347 6
60.56362598114956 98.35544356159288 7
55.64257148504082 99.52263079813659 1
112.3581283292124 79.43307191350706 2
77.21600129562577 31.234660753609692 2
87.79596425912631 134.21582791863418 6
87.79081592194022 84.5124830531283 4
87.52467624073734 133.66634215004686 5
74.76483125959834 30.63952860752743 7
70.6887749714514 112.33369183969961 2
88.06146552917765 140.59878143279545 5
53.544074412751165 103.17693757161872 4
92.38156339170888 143.0691182651621 6
133.83474621682348 32.0085205321041 7
108.35462136502301 152.35508932085875 6
58.629451697823946 96.7508049352952 5
145.89248270396797 29.392829737937003 5
102.04460292516977 67.65989915993858 3
96.44504123384768 44.18687738630924 6
74.09246213211308 48.60607446516823 1
43.34663345914767 80.62763052841484 1
118.17063884435312 91.74258961958442 2
83.9495887072137 95.26377115944273 7
93.8676288403819 42.32020763256146 6
139.4337488957198 36.9890691641042 1
49.22565658109262 80.3067666460084 7
71.00047600581253 33.68189751048662 8
98.39538994036054 140.47845039627845 4
135.53424883464538 45.968675340454915 6
46.75249941695001 61.162823288902196 2
130.51747740692073 33.531855395273496 2
132.68915819265354 46.45142999912852 3
76.63553405540762 30.531679647172588 1
80.13521897673678 22.307565216834174 1
107.56737830611385 131.88092082067442 7
56.767279343355845 106.37607533101296 2
89.36120269145684 34.89273039663949 5
53.331959733633575 104.33536401759378 1
26.435361158232283 153.60804105145164 4
80.62531293210367 37.41499412870628 1
52.36433469532941 105.387021894161 2
142.2256144224168 21.981898406843676 1
117.18942322748569 94.07992667557649 7
68.37578293020808 110.48409021806228 8
45.38871939763642 123.94290361486121 4
81.55235092198848 39.00033169281891 3
69.81826606670015 108.44003553521053 2
125.93999167624922 39.31086979015842 7
40.00341704753621 119.86068635937932 8
126.6189309451148 41.85223827524429 8
97.60311136593698 55.85329135747715 2
87.02794945800144 44.802679375820865 5
96.91257519946876 39.747022264348516 5
115.67085287416732 134.78017397287152 1
79.06386520620339 26.79570117763343 8
136.29631388555723 28.911140083134846 1
99.23512242588663 144.1074868400342 7
74.34986999978724 35.112742130276864 7
107.16467079407987 53.40032695623708 8
115.89110515515337 26.84905935581192 8
30.40853703448832 64.43819672506767 1
57.58975444521608 97.959047006425 6
91.49168368072398 137.93277538570914 7
39.460862025822756 112.01630605477331 7
47.50515631446645 69.26782325383378 8
128.15388875891674 35.595831200009975 2
110.03370929750298 73.56723168007291 7
66.06498708248458 86.93342492860998 3
80.05927055479935 25.51107122923682 3
136.41409057749323 43.793245138394475 6
136.4901591699927 44.28488489750143 2
88.59390636025894 43.70163265248912 4
109.21512699979365 69.12398091593506 6
136.43021632284183 35.93226497805969 4
114.57952602168072 147.66201507465624 2
57.51407448711749 87.85034096273927 5
84.4315032456341 115.93542523809737 8
54.631934796153 51.50315626373825 8
90.4759756711268 100.23108369482442 8
73.91568073643735 26.704284884958007 5
76.91495643949742 27.965666836682836 7
93.28008622004 83.76278656868234 1
100.75731115481413 43.24813289010517 2
40.04110728282395 141.05672927500353 8
96.06089597174204 64.33446627530206 1
22.253404001142638 146.19498885720174 2
72.40444712911706 114.01067226088777 6
97.12234220553427 139.1745451845174 4
46.954993633340365 56.92634533494203 5
83.31570364227944 34.42512625241738 1
135.70448827485149 43.40562862403554 4
39.852963653801666 69.91620982662914 7
57.21390490149124 99.85970041902567 8
90.52739744934554 95.8374154936131 5
82.24042595590724 33.16100434885107 4
84.50703275665184 115.60541630951062 3
102.44216250261425 67.56073242034837 4
115.2162984162675 102.69675103002302 6
142.3078816788712 26.166366087348223 7
112.00348748383597 90.49768347022534 8
103.32572640850762 131.7403686992207 6
48.955436507452646 83.6883943747976 4
76.84639980905514 28.38177665715764 1
135.6875045079259 43.96795440954543 2
94.95649578443334 130.74350207081173 7
71.68013087401954 42.4103144887246 2
139.65476593825252 40.89169253657413 2
140.3151726743219 33.318273880746474 4
93.64312153541805 42.22891213096736 6
54.94586239466953 102.37577519761604 3
124.16419946260616 94.00898581922347 6
130.19642163048297 113.02100669514502 4
120.53533913682382 28.761311661312952 1
44.66910630856698 66.10014942690056 7
77.46183591498898 44.942236815614535 7
99.0909587907268 70.92905838076298 7
115.94188828875942 75.67323043010371 2
110.25345648160356 77.43083348530024 1
74.23167421164243 46.751798381653614 1
96.40375442814582 54.53182057155971 4
53.85748900884509 104.2007341023511 3
77.80012212391789 29.033914653942997 3
78.03463683090261 28.58377269548509 7
52.43275159721605 73.70110325599143 7
58.830127372160405 102.17876422059994 6
75.55798791330402 31.39879562069557 5
63.114535151174636 69.78237385778218 5
120.13656442968187 33.437737028063026 4
125.5723460459241 35.02073919632315 8
76.07329443800316 34.697300555800815 3
80.74729971206 25.627555663598354 1
109.64869008376179 95.38250562578236 2
44.5376180915044 103.40419985147619 6
76.75037981492316 114.11400817852584 4
89.52545996229783 32.72774737939873 2
54.054872234456894 86.37988054856494 8
48.28170406628519 48.046420198340364 1
100.96907360318879 47.270787544429176 3
68.39660382442263 108.91682637343793 5
85.76399317942405 37.04101595810869 1
144.44221848507928 32.6777376928672 1
88.8952446147129 138.44849710582383 6
84.93862579007391 31.848828474292056 5
59.84895539586453 91.97696477223545 4
79.7190585634182 36.111083087645355 3
90.91581794708773 115.23585652045743 1
79.59702145904336 27.965800036470053 7
134.50532768397733 49.02999045892683 6
85.7419919850854 36.06600031210218 2
135.74104329554385 36.847428535351746 7
83.57657312563767 30.186220041277004 1
74.67933920362108 28.99115345515845 2
38.73843338408194 97.35216560096441 6
75.17544237817489 36.38123532325889 4
55.79305014899879 100.14191030674098 1
133.63432987133723 36.844989265590705 4
70.09156817402605 40.033182076448284 1
125.7329254159327 32.328730937087236 4
77.41438753745842 37.82651332946584 8
85.73725724775905 68.8982014344709 5
42.54840318632006 81.74978938296678 7
94.15453036931972 47.824535881477566 7
53.148981340427014 114.82771836778363 2
76.4016693785299 35.501424857828454 1
74.75916029564222 117.0487791417805 7
81.45256627430159 27.754339540432564 1
136.70702406983816 43.1103461020839 6
53.92258443427808 65.65140542765592 2
39.84558109356261 59.32676494758848 3
83.77972137109168 141.50155177407225 1
94.30638821569939 47.20787365053984 5
66.3228576319178 103.0567676785464 5
122.96640065920204 88.0196585294614 6
80.46900199085438 108.15575905162933 1
57.84209230992559 98.42060977988271 5
144.8205467494148 29.04475156634175 3
66.21405462104457 111.32497151304113 7
87.84947042572917 118.16602639519311 3
131.1686597077001 30.37228201567631 5
97.3330857101203 70.341853817851 1
56.48008755419855 102.88915590159809 2
105.67890633925295 84.12746013911698 5
125.33918273090254 33.59789637492459 5
103.06064757719453 69.63411741125412 5
44.82966195577039 85.82749114879536 4
81.94184307590135 24.46047437499916 3
65.69911878223479 54.35359278433968 2
75.51343315785215 110.88534848568622 1
113.51369289988071 120.1195645916761 3
85.00116410838577 91.06278139284103 3
80.8141779553348 102.6556966231384 6
88.4715955553508 140.8144014503962 5
97.37249143937636 66.43845626002219 2
132.11020466995933 38.939960067851594 3
131.7161101459012 38.429117557732894 3
57.361509765083206 49.76448948480802 8
79.42707140942922 51.312799808659676 1
120.72494437006736 95.60235565550262 6
22.588561910370483 116.29123357195621 7
91.32779139344493 56.97937769222335 4
98.65586425069526 136.4953209428125 5
147.40211751898337 26.852209809491548 8
126.93703100165543 87.24227155523438 4
38.44224790054048 113.51584127971677 5
116.74893212697718 117.40780662888142 7
52.765839135659064 49.99283360493724 5
74.41049900820991 29.85429000336681 1
56.70176056509803 95.39390755896004 6
133.56539119917332 29.503908146300496 7
42.65209960669409 72.07379933870892 2
79.69533013849234 117.89155234830223 1
117.57118910075336 33.23847217024445 8
77.36161223196315 130.7997252437275 4
73.26476260956962 40.916520423175314 4
98.20207208860077 141.51865567168778 3
135.31099202749652 45.034696771515286 1
53.82452100874538 102.70710105580687 8
46.285476452870284 76.67021504050805 3
134.5578819947275 40.33238292584221 1
75.93411663118968 30.227484261523053 8
77.95746699941616 27.169762438408252 7
38.57668160830912 76.72027963991 1
91.76522147134729 66.43148743522023 3
75.73723006261673 35.165978888810876 8
124.20606618842953 82.53697592087906 5
77.01693756987005 34.956337101261454 1
68.42299173832316 108.31818370203185 8
55.34523135637012 104.61239949345487 6
108.51571251116687 40.66845762098563 2
90.51131997749714 140.21302969156156 1
39.042918448150715 66.77001823562735 7
77.51842871209607 29.750264113884413 7
148.04126346027505 28.48814697019763 4
87.01042946310515 97.87107306289454 2
107.87667741463153 81.27598881340246 2
34.03058574620123 126.6243755731176 7
88.78838783508614 48.0187193173658 5
41.02402727057315 78.66394387191622 6
78.3968028305176 26.13825139293843 3
23.333848630159206 127.23563130052607 1
77.67307781494983 28.060804988641873 5
99.92669895133689 131.1283413145284 8
31.55461867887941 67.92144253072668 1
61.75563982057543 93.71418709234725 5
54.44596087640271 106.83548870792345 5
31.154131364980728 145.08708600820754 4
83.75716522062312 138.48124732025445 7
127.94128680501898 97.72262596482535 5
57.0436172406677 104.51900308929424 3
73.31193813406269 42.59523611543106 8
115.38535899649075 90.82766265817939 2
101.94688435842846 141.29374920490747 5
84.88490998607548 50.18065489754415 5
79.612130262067 111.76194696501356 2
130.94602446386367 34.35658401178268 5
79.79355807599997 24.142069268460826 7
104.40274385765417 70.85991695361017 8
87.75523381293694 112.04394766010667 5
97.83710563840981 142.59848039974364 5
77.46528616582687 27.32707246731866 8
109.98623663868985 116.76360645777845 1
126.90600849819245 36.94492632894007 1
51.75740812034907 105.56067192924324 1
131.07141250124795 37.289720099575064 8
96.25922184064817 137.74900843569756 5
74.77209197456858 43.69173779264991 3
65.1233298178598 65.90293319909898 6
41.216812244439936 152.95698085741157 6
76.0766340462037 30.181616486546556 2
97.73675952922211 139.6668283673683 8
76.19998740768945 61.13323150308028 4
131.22100409149442 39.515345388972264 6
61.56686574666767 42.29404412259531 7
141.52889156780162 22.546843992164362 5
130.6828906898201 43.89225404530626 4
116.3080821300543 118.98489417092226 6
112.14434925532322 65.95606253656881 6
98.92516007831534 136.3075160324872 7
74.49537775640077 116.3526776452108 4
75.70633682488521 114.33698522131542 8
135.0363162338534 38.773659920087844 2
136.69090813260942 31.949913294649832 1
84.26421395373589 31.705132058006026 6
57.466936238312606 99.56501309128603 3
32.961357820918906 49.57850394369852 2
90.53276134334615 39.70130561473366 1
111.89100370077452 74.8061742207856 2
74.1743882427567 28.11759055794495 4
72.52388786170005 36.81337859473516 2
42.67192886167897 59.18769990785707 1
21.687488419766645 130.81848212921068 1
92.63517254789762 76.97614380047192 5
80.74730534626933 24.661979207715763 8
99.83238701100197 63.69188934180509 5
93.09640217593738 141.35802307091166 1
44.516767600590796 123.92891544083415 1
87.48554686698172 48.515592428889875 4
60.81902068356591 103.37429486604645 5
54.537014895109614 115.95091437097338 7
61.994466615038064 104.42248823572471 8
84.62960274698507 31.22230076343529 2
79.69415826574082 25.51377079353067 3
54.95637418908874 103.71881642674958 7
54.155743417945224 104.40884313552593 8
55.76055727732539 100.5373547080272 6
87.00247387069706 121.17922081077782 2
83.5136760185778 41.84977428438506 4
24.970631833224378 133.89887886924853 7
53.1994737379623 140.28084727611997 5
88.41299308250679 128.37525658832945 6
54.21645742693015 96.53781143066254 1
56.8892394644409 102.29528742196509 4
95.85955840653732 60.92957923318786 2
136.44460350319662 45.52973006439551 4
138.01178602700722 32.673388520657355 2
78.97546865575468 31.91940835520727 7
86.85127308875094 132.21334502222456 5
126.14822015378178 37.18888585621639 5
94.56199926190088 138.70830108758705 8
114.20080346197749 132.06126218121943 3
78.01886513872263 27.84127951952499 3
54.292418647188256 109.19841952172081 8
88.04610552124205 136.34541709976295 6
103.20385131097666 121.87552986962527 5
25.2925806981832 149.79760073580113 5
81.33472992150841 128.00675625996166 6
93.42310273240679 105.50101621540273 7
77.33180279284187 54.16316688435175 3
132.06687513479517 45.68799336736049 7
49.585659926548615 103.12519602331801 5
77.37841631006133 107.74380393726392 3
88.30669716884985 141.2986826498045 1
77.6455304542438 31.15175823898304 7
106.40963173673781 70.34239071105262 2
33.70355640761562 69.12849305279022 4
90.01822683854837 144.57070699921238 5
91.65646165256842 75.58860959478285 8
63.858546089821346 43.38615046914801 3
112.94529352074973 43.081712965580856 3
99.78137961478474 137.47003999287807 3
84.15450909148232 124.65092151910304 5
55.937152863657914 101.06920679220269 7
53.89911766271476 105.91647391103771 2
99.79302204225844 141.4779530500888 4
54.40649709959019 104.65373488688785 7
146.1283128721779 26.740264756770706 8
43.62262026564888 113.2457399219807 5
72.3918828595488 54.42490407562017 7
25.589182778674903 150.5408535595239 8
134.43914202108482 40.52628962834497 4
63.83751694901386 102.20545255043359 5
53.56952598896541 104.25471876992144 5
60.58778262701861 84.54288047219804 3
138.61079443816004 111.65028111057217 3
79.11402902414287 106.12826597784053 8
88.61136146090023 141.5795757535633 6
60.4770386192787 109.19494825165738 4
15.345496948779811 119.69449737258961 6
82.6823979386299 24.58674379257936 5
72.1550006948788 98.27139975699663 1
134.39837791529834 34.0361174131941 3
131.13939838085273 34.30009660843907 1
51.213737985400954 69.04574311728892 5
105.23835385393289 76.43276704123222 1
96.91835678863157 67.8914793723541 3
82.1145048138619 25.62737908196323 3
95.42251717728317 61.57703327082284 2
131.29395014504848 41.45691234397131 4
95.1106234283266 53.2368172137857 7
57.84665455730866 102.304369326808 2
97.90910465574339 46.85092763666282 5
77.96991993641228 30.01905424838624 6
55.048001876905744 107.13521529618778 2
92.99880435240739 40.43520847805465 6
138.76520331708755 29.940112539157013 5
116.79834794229943 106.27721663717904 2
65.4261798245543 83.75357658274805 6
44.23118566681242 119.82318911925118 6
84.57107692776172 125.46006828946022 8
131.63099147667535 39.40672816726379 4
90.43847241541893 141.670695789475 1
78.80278749824099 119.3648578319346 4
137.99789314151712 44.761760776933684 7
65.34066165317918 59.28603099845434 6
79.7588959732127 31.072390272134776 7
65.77172484015742 62.51818678981758 5
74.4662847977496 38.176972445758594 1
139.47365175806743 33.197958978530394 4
81.50944024373187 131.68307332764155 8
77.21102154186968 117.09685654263009 2
91.9645737623287 110.1210228601039 6
88.4465882143118 33.63378847135075 2
57.25292671877291 89.07222064303176 5
93.51912989688937 140.4374827251788 2
54.647973242888455 103.53073616125032 4
78.32615408356497 37.81725069631716 7
129.69350377400713 38.994134018865 3
89.20763306889972 58.13714343072111 6
118.29062683289364 80.50333490583988 2
88.57814863167626 41.18514723721869 8
37.05765702533787 132.87491313031427 8
60.230409691373204 101.16963034124757 8
38.95807273143102 132.26338859008465 8
132.93020481057704 41.44494663773161 5
142.37054620126537 21.176199667965037 8
96.44530221080171 72.03153067071855 5
54.270324326227495 100.89804151610417 1
57.435396280936445 137.2556889035321 7
89.0647740015083 35.052135025849914 4
78.32773561502155 29.642560178845365 4
136.52778176176022 37.47619478776056 7
33.08033062459898 101.58686782087855 8
89.649116857864 137.88259260535145 7
72.22176839502535 35.001738171491596 4
79.07562267338632 29.05382636118124 1
42.47688125417495 103.40790514454916 8
79.9518064585462 27.885927064481663 2
101.27655736928779 69.34793847822503 8
38.12772540501194 58.165449572085905 7
130.52237200779143 31.71461058076407 1
95.44010940835565 135.62570427509857 2
100.26261703470637 33.53704614038673 7
92.71573327928961 138.45462544362317 5
130.49590279063978 101.18462992844584 4
55.05898516182142 102.78008296944287 6
95.11782208169946 96.70566787274065 6
25.936648495469168 151.71759206681415 7
93.19402372107393 138.00725164477242 6
79.71114941032293 27.610574632264115 5
96.67154018992805 48.08969079543323 8
95.76593698082849 138.30630104043294 8
55.9909621385628 102.3617454004488 4
71.93722814476207 40.14669447186368 6
119.63360573098475 96.63490619090975 7
66.47434600505358 99.66547567479304 2
90.51378651424982 76.85405365258646 6
131.60870715635903 41.68528005936382 2
93.50910579191464 81.02236704936728 1
95.34626379003824 112.97743195024601 6
78.53015991499981 26.228206094094343 6
57.86785945046439 98.5125669868895 1
132.49003085827468 44.79401382152326 8
41.99186162902979 72.1375375405909 1
79.736236901321 27.4126233522952 6
91.78335875950472 140.17253036657075 6
51.66406896083382 126.63565520870638 5
88.03558864252312 72.74958440619433 8
73.93732216423079 108.91436380521586 6
59.33766441159917 112.2350604234589 3
116.78349212928288 83.66126136130441 7
46.585781043780585 56.004890886090315 5
56.60483124496048 102.11726095429543 2
111.01447219167564 45.80699642375918 3
93.22560253298929 77.42269204751727 8
39.013186057171474 71.51112469696237 1
53.20044281191057 105.89782598377258 5
82.07134567498879 42.35322183499811 1
29.40185000004517 144.83951042827064 6
28.921134476759153 134.8661284234329 1
103.21877453245375 85.08947280871519 8
55.579087819936845 100.03082855314585 6
129.57036090609617 30.496217174181414 6
94.47595542584395 142.99931979435343 7
48.07538192185628 104.19939572830518 3
118.07527668465382 70.365370332375 2
58.074946406319405 102.88872130132941 5
98.56769168458337 70.29780686004355 2
127.2040302132192 115.33593744033693 7
110.8718339861588 69.78583225473935 3
77.73824686675741 27.01628608162822 5
103.80934052399327 134.61116461127483 1
42.82060644329184 64.65821635197956 5
136.52812407699608 39.290269889383346 6
77.96331049109473 32.374464957157926 8
57.6547157971467 98.80487902470031 7
92.26535050481462 140.0112627559162 4
80.25241770419255 24.403309556581576 7
56.05865014637895 102.39835767314968 2
98.18310532096223 72.67043735784061 8
92.04619673632894 43.11906630989077 7
47.20546412899055 50.04514407818417 1
66.97457316250158 42.44494944412881 8
134.3025004503481 48.03784651683511 3
125.36056836834052 96.09115736205142 8
65.14470206596323 34.51241636251268 1
130.26329730938173 37.20885241719817 3
80.390865852358 25.97506095532506 2
90.77862704173006 43.196242762631954 3
140.069365136272 30.155474331201955 7
95.90160683320724 44.80836524035757 3
108.53285513361467 27.289551344939095 2
119.0506904245174 38.112309164423664 8
80.59948423259954 119.33996720952932 7
41.77550517446944 71.37682885995504 3
56.68119412942658 55.123344649479165 7
126.11959583731156 38.14210192095037 1
82.34047182750513 110.87828578585051 3
79.15181644656357 31.50931399239598 7
108.41118361977607 66.92835700407514 5
68.78161682086858 97.56695162596677 1
46.08296914938479 49.22745523401736 8
89.35820444156062 105.73247842367581 7
39.05769475884021 82.02668846545355 4
102.7813913129375 63.53669230252178 7
61.948436181852564 36.05723804204251 2
108.42750749542328 49.43664973479274 4
113.68727878455978 74.28641355979795 2
91.97849774183655 140.41778998642042 3
109.76708764566602 76.83787554938424 7
54.6695125434886 102.71406759712146 5
132.20274483962373 38.472703880425854 3
67.47848941780485 31.706107378308495 2
81.69684545477483 133.86282538829022 6
88.24845285930827 43.02357991009869 1
53.12894480866561 32.753375012982644 3
140.63096663780152 26.54361249317735 5
98.40820306843932 68.85465211789042 3
121.13807124701945 91.25776212600692 7
84.45017711242939 34.95278641886429 6
92.74994828075259 61.435850529143465 7
77.03819035466671 108.85380430683658 7
114.18777828501078 42.78215700521959 3
127.81312875631123 101.13684003028231 3
43.67533084182907 82.11281042637894 6
45.296473016201595 73.48724804243456 3
42.672388980016294 88.77921474881225 3
57.44876045303825 99.42473228809746 5
129.93620662696327 123.67541919773727 6
87.68653162212037 49.401488615482094 1
73.23165539170023 33.77597254633432 1
87.44493022644258 38.969307780346995 4
62.65290612830095 35.663027971008965 8
131.98398336333403 104.6310778830357 3
118.75222634725785 139.88404863926863 3
134.14733245625342 38.808596620402064 2
27.39593072845833 147.40960465247605 2
71.19114528155949 39.45917259372186 8
33.154467516440846 149.15079863973895 2
81.54822695192172 121.04067545961233 2
55.35096545650315 98.7879328522377 5
140.47174025357722 28.928619658581184 8
97.93042196505948 74.41022791695967 3
107.08921674030132 45.99683702064698 8
131.513015860601 116.24184278181696 4
56.72375462676271 52.867951951165495 7
92.17346589794555 61.70599528628572 3
90.26303209400876 136.9340367235981 4
76.03110224388958 36.39927182680412 8
97.7231768398787 138.67693534036073 6
54.97206528541426 102.29544424042525 6
115.96922529531709 68.42410606037122 1
59.755556360749736 119.24284122396017 1
89.13419081027358 36.89734980391497 6
107.49487112779165 117.65701465279307 5
88.69639702036413 127.31891646720439 2
88.74166538128874 86.42964667673304 6
79.98013157468176 115.99140166071771 5
80.57023050985009 112.66359651489125 6
129.4185065832534 105.50755171631549 7
91.8222559275205 129.8750846742039 2
128.40380348867234 37.88386948040505 5
118.19305449171779 87.94179215096665 2
86.27237247861781 60.22229586195749 7
110.69661428251614 39.63686018507463 3
97.81193394394293 92.27641919872882 3
94.17022761579513 137.29605059612575 3
90.69071315931112 140.1438191477099 5
48.93719573195215 68.27716192752524 4
77.5041727815292 29.74629588529051 1
80.16021292939564 27.452059846548604 2
31.976881300144417 145.19973851952267 1
125.80147687314582 99.55343059682866 2
134.28621703088444 47.207364628049504 6
144.0636497567806 30.595291520355666 6
112.20104767883483 33.87388855535168 1
94.85867525083262 40.126146073486844 6
134.06892623933206 35.48577655099844 7
72.23781265230652 44.33889769119969 7
142.75675864274714 30.792971804602917 5
136.00555113319194 43.77629453361854 2
95.81733593585147 82.26850897245318 1
143.11825446900022 27.87331887372775 6
89.67649014234186 137.53992722771423 7
89.61926099887773 131.14953538048303 1
79.30406617382427 116.18131928190473 3
93.5276355759519 67.25635170883086 5
75.95862632577838 27.96601513107895 8
132.54575349407926 39.69876367204497 3
120.93659154923556 127.08843297018657 3
78.98177278942491 115.16794308087154 3
99.65045942038063 61.20501443804175 7
25.721911454886296 146.5550179527111 4
115.57642449027078 61.22939913120824 3
80.78742790712192 27.275897349823232 8
80.59853501264693 28.487740119781893 8
119.25149750940068 92.0468724367135 4
81.34038100338654 24.437515594595183 1
70.28542725156117 42.6802157848254 7
106.47127931041845 65.1016595893056 1
70.50062499781086 94.98892035008922 4
72.99257624217432 97.58789886452307 2
47.840111405468726 130.85915349916417 1
36.861624223714486 56.94438806258977 1
108.80811245667407 116.08318392193321 7
56.67303834836296 101.91600201671991 3
32.6582458201343 76.47132182795882 2
69.09613939641952 41.22935637582143 5
58.881235224544255 45.32905766255376 8
54.5340620047571 104.18852441133042 3
80.36566515581426 114.1812090084018 4
79.81137322473015 26.760759131854567 4
130.17312489428048 35.562227653894986 2
94.2838468320244 79.1808852437752 6
147.94332574857808 28.641774497646313 7
53.91615414094726 101.08714956008674 8
76.4313028604072 30.837463551287588 5
36.94787820573869 136.10437669949016 3
55.7322270396601 102.62130921783289 1
69.48183077887445 41.61204098916136 7
90.51857925174681 140.89829027858787 6
57.676995817000545 102.03122767842103 1
97.501009770362 119.38640650659816 2
68.36498992671316 123.2980607116226 6
75.14690949392528 36.678335367488756 1
130.89382538000172 39.102932616597094 6
104.8784277523231 65.71235804464668 6
54.2981098957032 103.38347952125426 1
132.31047077174455 42.306425665282745 8
56.031754767269895 64.44339664981379 2
79.26936354928428 29.052336917166 6
55.14488298686896 89.60752548074946 2
79.37969663965981 39.91921469765074 2
55.475455468577216 82.45188939201974 1
132.8148764689524 41.5187271103286 2
82.87724732588526 30.18462847965484 1
49.44685098794797 52.3187998961998 4
72.34219735481234 61.16348615178044 6
73.18474672491116 109.92532804627153 6
80.87924065768267 83.48406792846357 4
136.0292148972905 34.61630399348266 4
81.9997571626511 28.324318285612573 7
58.72212048543536 100.94516485232589 2
134.56045398918656 40.381001312212625 3
75.07180868553141 38.962913700691736 6
131.0014525610938 40.127981667050946 7
96.70544046551986 135.69647762346452 7
132.6788389967283 34.365067197251335 4
38.13916342579057 70.54608763022692 1
76.71403875249341 92.1771450075376 4
31.46460322471983 154.8768688399162 5
29.48347291204354 116.95222364211648 5
92.45626585549127 142.28190173257514 4
99.80510262721225 82.3277908669729 4
73.26126784057267 31.56163933400758 5
107.43923043546944 92.87572754609309 3
79.30310734560102 117.7866642889406 8
99.96468636319756 142.61472597646193 5
83.35890494056294 27.721607227626563 8
103.89419041101615 63.06450457479231 4
56.038342627060416 101.14976520648415 4
101.04842808847387 62.87219667068327 4
54.59926637926133 104.79664170949026 8
56.80580876979928 102.35179533121725 6
82.79087920059979 23.589477788287216 5
122.06564421385224 106.15720543193241 1
76.67533903160201 28.428528821545832 3
135.09035182503993 26.21602645245496 2
117.38618008867773 47.53722419869847 3
97.50263162907612 139.6787295981401 7
91.18130871331324 132.4841187378146 2
124.81846025287217 90.41370229022708 5
52.722494378124125 104.63421064255691 3
144.62316532335578 27.683095075099896 8
91.23806285704899 141.83519625367614 3
53.90986142716738 106.05732212663595 1
71.68803827497277 111.27378838965136 2
70.91531991348307 115.60115012251885 5
69.77976865158311 42.34144454857807 4
83.0125268293944 23.981272286545625 2
57.11664449397142 103.98085593752687 5
132.85404598195845 103.60907584868495 2
130.0749743918376 40.29396614551688 5
23.32968868711981 142.51584062150664 7
57.66604924253488 104.34198996349441 2
82.6235779608175 27.074184550161025 5
57.686005330573174 99.65320940982505 5
109.78021539227448 31.36944768307285 8
63.25513909755021 106.7543359515473 1
77.2728223206604 30.012309681577996 5
134.88783599886776 44.49467788872737 1
72.09415112961825 37.294907032231855 3
60.390968239335166 49.881290051307026 6
89.88648342027521 138.26411216518352 2
103.27402505525221 65.67550524317892 8
120.45028407561394 103.43610765180028 8
126.92201270503223 111.40432144871218 8
50.38093701338989 59.297340952436265 6
124.44380983166165 85.77754767713849 6
90.40689610100917 122.10143656170476 5
84.111743726788 27.18115016701958 3
84.97211729341508 112.75008833815168 1
82.23147932940196 144.0563308322821 2
88.80508489822412 42.66679177018749 5
99.52173719686677 137.43592190708154 4
14.747278979150112 145.27481345706457 1
97.14289169896755 139.7000482247976 6
109.80117545744855 122.0116951346622 5
91.80582225834921 48.75344559443595 4
119.39796300210105 68.23177422270801 5
82.19647974912114 117.18202865204651 5
94.96924961552615 112.35688801403018 5
68.63319260433933 105.87764402643568 6
35.0416879343359 61.18795481337749 6
60.12954077521897 96.04760009191108 5
138.96952164133432 27.16805047825615 4
53.38622262370741 103.07667165211764 7
74.29252503777879 36.11699221933312 3
137.33650557734694 43.40124012141303 8
68.13526453211918 33.10632325547839 5
103.10052483784558 72.01229605100485 6
101.10166568337486 139.777687487673 6
98.48236295179815 68.94524549715489 7
105.00819920199513 56.94294389425656 8
98.0628986337463 144.39201595399115 5
68.4953666384065 117.78345543633321 5
99.66752252692356 143.77863230752416 2
73.63281761080633 31.735305364658835 4
134.59366002987073 41.345176424315085 2
86.73317576144301 133.50856314272806 2
67.70971983362796 32.56504040629248 5
78.40428341302261 36.80989415894342 4
72.46613915154472 32.144550685899574 1
29.122033386738813 146.42239620874793 7
45.684395724013754 82.83629654272127 3
78.95608940467254 118.01814636136987 1
140.78192929327116 26.14634068665562 8
98.82412029293673 75.01943797389423 4
48.737444302695025 64.04725542416125 3
52.652656475201965 104.13288407531695 4
102.97803490389761 70.7389453603169 4
101.1523302716454 141.76718966569936 7
106.01691911256019 89.80439457181433 5
44.810932490605666 83.00766619349574 6
131.19510289878164 34.50259361630371 4
81.50948292657684 28.375156569146448 5
51.339685777457774 109.37703662252059 4
96.98696756662613 46.117717657844054 7
83.94145176983474 33.60777476759589 6
39.36144306824841 81.68819088272485 5
85.64821068092672 139.60047825593568 4
61.82326829607375 100.46647347900938 1
85.99918777042589 139.81968161919528 1
103.56898977862888 72.64011511072866 8
88.59823974802455 46.10036711646951 8
136.5094273090233 36.313305124186414 5
75.27463120729485 36.13112098344877 1
81.76774148274524 26.57084811732184 3
71.92918052999727 44.015056637601404 8
94.00799002310612 131.36071797856417 7
87.3949268669053 106.5086898403387 3
104.10861364558328 57.86501609130903 7
96.58377690862658 129.78071785386737 2
92.4937435142468 139.86345456173333 2
122.60459071526206 78.59047493750151 5
49.3027617100566 98.15756601177277 7
89.0081454437811 122.9503349623682 7
47.59512044465333 76.68637920048323 3
102.87628420412443 28.567999930696487 1
85.25137353809258 115.39188554342505 1
67.64298502266102 54.23229487617967 5
88.92269516827356 139.44920592374703 7
131.45846138853037 38.053600607343625 6
72.45227544003052 45.06175339258433 5
117.70494514843142 50.102050353786396 5
124.19211035285065 93.95214528169333 7
56.593441865326774 101.26484155841489 4
87.81313210515901 140.64918894691294 8
100.04963693971429 53.49309210684337 2
127.34860904596877 85.55385088127582 3
69.19334909942683 50.376603938134956 6
135.80164377043397 101.96611223598893 3
30.50755491738104 136.1695093402269 3
56.72961862240918 99.28146828980758 2
79.08031787135444 95.03146671181773 7
43.83982829545731 120.49040656660227 6
90.228137770502 119.91089562356369 5
57.39767449506946 99.59672978197794 6
110.87859338092562 80.62828668061492 3
76.7485743757624 28.326287594782094 3
136.9785927332206 35.926173565905884 5
99.24061332981756 69.44750530845475 7
92.1164050548213 122.13489293613729 4
83.16780708181889 114.58065813630085 1
132.70953474000632 36.88223465705971 6
81.47814477990326 25.738787500880623 3
100.11207447944506 70.12100635037466 6
134.49603884956403 30.943755972074356 5
139.55255519374452 43.28889649875289 6
131.61337306364507 102.2266332357528 4
50.435629194051934 113.11362760324816 8
91.78798150249698 72.58672268689688 3
88.88126490864634 141.27950593298056 4
54.522934511071696 103.49228553725872 1
78.37046438394106 27.423985123214347 6
17.864004733309358 147.35177855441233 2
129.07675197965455 40.88178636483613 6
90.80871420389794 131.95188206866172 4
133.70266589287405 37.34825607084204 6
90.87678909006081 137.72956885468903 6
59.83639702263142 109.33468171354508 2
131.47538408529977 41.81872120371673 1
59.00538875504704 99.71651016590144 7
125.85129144575524 95.53847541783831 7
133.1870279621565 108.19064453289032 1
82.12863396629287 25.94694603291745 7
79.6090559610032 106.5907622881501 2
135.5717466722039 34.61805106665853 6
130.77300954717717 40.52913825061104 6
67.87030689666129 40.74133553706379 3
117.09229108735913 112.26654504580709 8
51.6318984505881 49.807228094771766 3
92.95213883819991 137.1767234799606 6
91.43050841512807 140.55457502507937 4
95.26753962841667 138.31590527509547 4
66.34304001713092 57.28260494639905 6
