770
0 171 0 171
1000
117.88393798884746 86.87590671723987 7
48.24458661876252 150.96409172926425 8
51.112745613264394 68.9007065184125 6
128.51366829811522 96.7234695068356 1
47.24757455961627 63.53339724939365 4
66.90855717195815 118.11965423204975 4
63.89897901078506 71.4292301722946 7
67.28974226283547 113.06435332204433 4
93.53471308061704 27.909348797861096 3
65.98856487547827 109.2728729234528 3
30.31660880229654 36.115675655898535 6
41.43538868268538 145.5883244047772 5
102.26404196015478 22.120073947113017 8
69.47450233949111 112.16505909871691 1
92.56045176384556 102.23148152679444 8
115.83059246931214 97.0723231052716 1
118.78508313577767 94.70045276743257 3
110.70630608084566 76.97775252311169 1
51.047142134214454 144.06617488556918 2
63.760186789328095 70.17072840079031 4
103.3775422279847 60.195539093291515 2
58.85329111254647 68.82130024619106 4
122.63747269292236 98.37826743344651 1
93.80853676678456 51.322056316305165 4
95.4638936993553 58.227007897922824 3
107.89385012079497 72.1778648448534 8
68.50347032603118 117.14956961661512 2
66.68725649542651 109.37868014927811 4
86.94106386689707 56.02777307182737 4
74.90988564465766 120.60717009530055 8
73.4319216219093 78.38307705428372 4
60.49313189263646 77.66953055846179 7
60.51085679805007 71.43098136524696 5
78.30992072212565 43.78238746170348 7
62.25287626384601 69.67357639467008 6
108.75612365803569 94.75917838765311 2
109.90233654956167 75.86335693064416 5
120.41658939920963 102.10227553916508 8
61.128072873912146 69.10281057259789 3
50.7946445347637 148.06372762727565 5
63.622096717305475 115.6458201515333 8
80.68757252096957 57.67932096690629 2
77.36670869808653 109.53659619877858 7
105.50082234204622 75.04237510642211 6
52.69795432446301 143.43312008449692 8
108.67506951551276 73.92038367228784 8
53.95947764295247 55.75521773808379 8
61.74410033719586 79.0092789460997 3
63.16043578127597 74.43639634047763 5
113.03643734875486 102.09473428723732 6
60.59753394901416 68.35924118338818 7
126.60861104764611 102.17048644049623 8
95.92178813854268 60.575666105549075 2
128.44114338158306 101.75768804921806 2
58.555827504059465 47.989834260712364 5
51.8734630844517 147.8695463499418 7
76.51797750598492 107.67762179775418 7
110.08520207451778 76.02274211013726 6
109.12689087847853 72.97018310738044 4
74.88799436365865 81.98081626163832 8
94.10576756268146 34.16188037759218 8
39.81399363953484 53.53767905362882 6
28.436973718558093 39.02527431015995 2
106.89036355574414 75.2346319727296 8
86.56938149686302 56.372166911655576 7
30.54713758378451 38.52559518835534 8
106.4479996758982 55.625281201941675 3
99.47607090750269 55.18868413411456 8
111.634424435418 80.41802265550766 4
111.07548185258422 72.01275331769203 4
23.522090412376286 36.906260153887494 1
87.46748798616908 87.03815563031142 3
111.57628423990994 89.91431853750288 7
89.98959482663406 30.39574268418151 2
39.89337783923041 142.77729887072442 3
40.21891329893374 28.531714383370723 7
60.25069727018978 77.20715683519491 5
60.06786551574965 71.45708208343696 1
118.38217750626481 86.76214554636056 1
128.46435653241207 102.07053453303317 1
45.709976534479885 81.3866604840885 7
32.76732671275404 41.45966618887949 5
56.826906115689084 73.56809224498363 3
65.97593440424568 60.7071189694805 3
129.30293819383198 99.85448756492721 5
91.05211853382664 41.285004171557524 5
93.7384322271022 50.13968468436481 1
88.34274505321457 103.12948217820853 1
127.84466564887839 100.77162627722917 2
59.7273563572299 70.4320990202388 3
71.64043101799358 92.41150463459519 5
57.54738782209563 122.93984829903368 1
62.95297103642433 79.10041285100777 8
58.83496979030964 70.88811882468782 2
66.5311624981744 80.57109363852425 2
84.22239028569493 51.853616667208264 1
108.73835790976023 78.45511369746231 6
98.46960102421689 70.11874672921408 3
71.46289170616511 117.28524433066252 8
62.749534048057114 113.82161148354623 5
57.2508245052871 74.13687984751016 7
86.37680062397231 44.112675701416435 8
74.47509464437238 108.39809752961679 3
65.60366237062578 78.72814492052284 7
91.2022395835352 53.131493309282185 7
92.37762995221546 47.80256839639184 2
85.74524351860002 44.939644125009735 7
58.650664326615264 155.55173124003295 1
70.59226577699657 110.25388485675154 3
96.2364558366496 62.15719680660923 5
37.882025282838136 139.97450998944274 2
58.69545460240085 78.93414455149772 1
57.42976378533243 146.6074206558917 5
79.79856658668888 98.72311598942451 8
96.29540044121693 29.087612224488694 7
129.92530679825845 101.36724708188217 1
71.23955487496048 144.9096762719366 3
107.8441535294609 100.14454729082318 3
105.22720458153098 73.55374171299884 8
54.63422043458999 113.989195461045 8
61.283750673406935 70.11689039580753 8
101.47212289631373 85.8281852417904 1
54.68243115664024 109.91416657477126 6
52.952561069585535 67.69265459737876 2
63.55862731285842 68.62377300226248 1
82.85862631242576 51.541786577987686 1
72.81463694054986 112.47926121968653 8
76.87471284546517 71.72655603556909 5
115.08937839760183 100.76215521951899 2
63.04182216127736 68.7428191053259 8
111.40423957494713 76.29306930780129 1
70.55176577351408 111.24042783742829 3
65.46183382602511 127.21837247435649 1
128.97607511202182 101.54386426034176 2
68.81484819527196 135.33616173004592 7
64.11929795429131 107.60859122822043 6
59.14282918525958 52.85196376194388 2
64.5206613329337 70.19755892416282 6
58.5082354533279 150.7998287947515 7
42.56882194545986 24.703615501577314 2
79.02370278555209 56.5860472021579 2
40.35591380374377 138.12143048513465 8
64.45661179351251 116.68676374951725 3
90.2547098312281 35.080932326122586 3
82.51007967102528 41.335765519970906 1
102.8234795493895 48.731815891314575 8
33.027402216736036 37.029439882213126 1
30.852367752428698 30.099082393927667 2
60.198172337826236 78.22542160630319 2
33.655215391509934 47.25884121506628 8
60.772883441246584 68.67278834522185 7
58.70426275337381 80.1059199175674 4
64.10531626094873 70.57010109860201 8
43.78537577015365 148.9312681784539 8
35.335156726469336 41.543714171583176 8
91.67204667099126 43.09973946194158 5
81.14165941104116 102.97832263213157 8
92.72619363660233 64.40507536032153 3
63.651502102507905 78.9323629679214 8
61.96102151801699 68.99193747273635 5
91.2909395315942 51.39768681543446 7
91.66894887622684 21.03299085906691 7
28.531813734307548 35.79032627069364 5
52.286201505186085 152.08180744558376 2
109.03391587590092 112.34442555924379 4
62.33329055231578 115.51288679860646 7
112.854739775189 105.10728965161017 8
105.92779163205026 73.95835953706438 2
57.35540802799548 88.62036214176138 7
106.66745105338086 72.82926065399548 8
59.18703121457946 69.86312657579758 5
60.85398040778788 71.55782571753417 1
90.27188380113594 111.48088157577452 6
51.1339454603739 63.37845256967363 5
62.262456928318684 71.73748309183337 4
37.953379229229185 28.285306204173835 5
60.32520325870608 77.06467211225669 6
78.01326380426266 101.4476806163391 8
127.16233033774685 99.08296129623906 8
84.13974600696041 52.92119065330953 5
64.7380749555353 77.3568635178897 4
89.25855670348776 111.16846352617013 3
84.74737592740102 38.298540175924394 8
66.93346477664423 142.08808354240182 7
111.10379591978362 83.69478355983 6
106.33968556449787 63.118809411803994 2
69.75232169611424 95.97458070539606 1
128.64801965317957 101.37467938705012 5
73.47239502549027 100.55144184202351 3
65.7279875600206 107.25501305664804 1
59.50505358751914 67.58628424230997 7
118.14855520191844 99.66399471395194 7
94.44938705616107 47.55255734106505 5
62.85747111425138 70.43956723838568 6
36.5670416350199 23.944197030408642 1
37.65732633004766 54.195380026235554 7
38.29207028938063 39.25191447895257 6
64.67643425332926 106.77705430121286 5
61.50225233896786 114.2882904348215 4
38.29962852074141 142.74457459388236 3
59.984986696649145 69.06411788369986 2
67.07729082332071 111.25976557235246 1
111.3344862698256 95.18028678981506 5
91.05083717681094 43.428477389256585 2
55.75078749620742 149.37009506035915 4
91.62696934245542 54.14018419586796 8
119.42489757107201 100.1666165058963 8
60.42930806139065 79.17064448188505 2
122.29306424011548 97.97548056152417 6
65.65245407621899 107.23627733994543 5
45.470993799796574 142.42631873356234 5
60.213359196202575 79.34603491339382 2
56.48726533090375 143.9814366915771 8
45.33801737166404 60.07447136195125 1
67.3721217881875 55.10230880863368 6
83.55448289677118 95.44966353232633 4
64.15402512777885 121.46617528794471 3
75.71387475745497 79.68055952733245 4
109.51744622119126 75.99856872814914 4
97.67540808711561 108.07377437523517 3
59.45405525372659 69.88969313419162 8
128.98896329172155 102.875876487829 7
62.33517011616313 76.48555389655402 6
60.96296040137262 68.99400108293223 2
71.04798347633692 88.939953536915 5
53.71509632786228 73.88256041480935 3
40.027824482244164 41.93332363047031 6
58.864114705302256 71.05968900639984 8
95.15847868489058 30.3696628622287 5
109.18770718319605 101.5455294179137 4
29.135906753786394 42.77997982974054 2
39.42257671386614 155.1757217175157 8
96.55395980714269 41.2824301195043 6
111.1110355057117 75.2998761944361 4
93.48524000757457 49.093541017860716 1
88.19838582674787 106.9530656411116 2
123.43740101691851 99.93427617118967 4
35.1804469676682 26.33409995372624 6
118.1547322310737 99.91839975402769 3
60.15421961726266 72.58299595207328 1
54.81892935841721 67.52697474743813 4
109.12652325631012 76.98005326057391 7
110.31295777762199 74.6886217028308 7
61.41291491374597 66.65074314299447 1
64.44594266184131 114.36398892520398 7
94.4207282556909 39.26802426796132 7
110.47602459327535 77.1496539706598 2
63.55324060293785 107.37393974205158 5
128.14544379532313 102.68469475611775 7
112.10437551004021 99.91345986479702 6
60.585068007276135 152.48668679845977 3
47.10436651014306 130.77556882997908 3
126.8445558815954 99.59948816710047 2
35.810346888359184 38.14057036285523 3
50.180256813663526 147.139896300179 1
49.32686225140768 59.075271089430494 5
54.81572794277486 145.82868310446725 6
43.64811852048825 141.5690340636625 1
63.69599858530112 86.12983291455319 4
93.08088160318215 21.367887173643506 5
22.683034203569214 28.679756180783052 6
56.58257306370507 71.85148103677282 4
33.62846889611756 41.70423168156731 6
58.03315518484756 113.89185186108674 4
126.29845017849439 99.73238452345124 8
48.18088511926696 143.63523886643193 2
85.37448578638916 48.53477335795781 6
99.34795660619415 33.089560387627216 8
127.8511609559861 100.84574680840494 4
31.833955247151497 30.05511635441013 6
40.77349708609606 60.51240857206004 7
89.40289940844384 31.37220225500677 8
115.57398359819403 100.14006518881214 8
129.3891815195477 102.06094449979608 5
56.983036936943954 119.78918594384905 2
91.45586888743588 51.27539386986359 2
72.6376383185191 81.96263235686577 5
69.10538014520539 117.27468642149259 3
93.17185947431642 38.71132793406037 4
64.90966749279617 106.9958496195447 1
101.0740772997188 93.63708068138929 1
56.254755576245756 146.04454964667244 6
60.39227565456351 148.98668799361855 6
128.04374171842602 101.21960795523576 4
33.6075983040851 42.47914308534209 3
90.11920796354143 36.99300938898436 6
32.694732206752214 41.76343347105145 5
101.5364709851222 60.4771187652595 5
31.91317969509914 35.82487254798343 7
129.33987317294725 100.87454930717668 3
66.88542550480845 112.98575217814557 7
68.16263220744983 98.35859007540677 2
62.225072242009865 71.57244609678787 3
102.42996994933645 83.9794775025434 3
64.94161130499916 78.11364231444944 7
95.5767578247106 53.749426366808144 3
116.4701791663886 98.7418457940634 7
112.51901386402517 95.28040153467019 2
74.04598297354609 100.34302180914338 8
97.52484446642259 44.54522813880242 7
110.31394985094082 76.46600725543445 3
83.51978392535855 68.12275209154993 4
27.317516298815583 34.889195429810314 1
115.85501896390363 98.34121817073952 7
110.96692176200277 81.31364216638062 7
127.3040289772027 99.12754540199157 8
89.34588357478637 27.238513812134677 7
100.1594058997304 67.2050237432143 5
127.92736659427129 100.03778012489562 1
108.04383928244371 69.39390129799168 8
71.17050306580663 112.84744556846135 4
65.50753903600888 67.11063089550453 5
62.82814114647019 88.21030816697211 4
74.88252602236729 108.90434459902279 3
123.38614793327672 100.83933795194544 1
61.99607799594698 77.89025521756152 2
23.450094345722285 24.61473780485602 1
60.2471444363186 73.40430512296301 7
29.939957438805152 22.26081398688528 1
94.25343317060138 21.75676659240946 1
128.2733563636805 100.87723400875129 5
103.53074458598546 63.644168397424316 1
103.01226591064112 101.4316012244175 6
98.995406908854 67.19623739704421 2
60.43677931632073 151.88768786034584 7
40.798213128968975 31.79631578063324 8
88.84927846438666 44.33632226874585 3
108.49179139206403 76.08331075019399 4
64.53437108456124 113.62922698049402 6
61.53148664330654 114.65305838552518 7
40.21492494168486 38.47147327006802 8
124.59140731191738 102.49353079212067 3
62.14623767963732 75.49910884267962 1
79.16480646616134 121.84497251982808 4
92.52930815437536 51.93934968202026 5
28.934389461476066 29.814125296763386 2
54.121256587464785 127.3980353241115 6
40.790477960310255 22.845348371405557 1
52.25446956440284 123.24467002022581 2
90.03845526449821 45.27585650202668 4
47.05151575879293 126.15391683708245 8
46.11464502842315 150.26249036570175 8
59.04254363058266 115.4251250928628 2
127.81776567895874 100.94276573688325 3
53.74838464977312 141.50771498492287 1
128.16240519290986 102.02927101412298 8
72.0830486679929 110.69384550575762 5
108.99753381712566 76.27692892650563 2
89.71537384783014 99.00016304471792 7
42.06443713191139 48.21875244090028 6
94.00789227056471 45.2060927643711 3
61.62691359203669 112.86299215417743 4
58.18937675482948 69.4362611491239 2
110.29565043000677 78.04647681149068 2
128.80706907892957 101.44004256675522 2
32.16399429135513 34.788954712292366 7
108.96938370627792 72.49918290586164 2
89.6803423874787 39.90678324930079 4
75.75913429221664 112.62661106420141 5
62.4013595345223 147.26640627983204 8
64.87098830208122 69.23042709172019 1
129.09634666037735 100.38381194086149 4
121.74802089803 99.92768969947493 2
59.532831803501445 70.97748278252584 2
71.14767931069295 112.5533998932422 6
98.00500693653422 104.25241390238534 1
58.109830164743116 70.6983671113377 3
77.73998764228598 57.20788390054493 1
68.56946820007465 94.43078497370358 6
61.150152678415324 134.68038730006512 3
62.95834807323421 78.80548857511684 7
110.50558470660084 94.8071844129836 5
129.56358719529337 99.57677598625375 5
55.9551694097329 148.96395352213418 8
109.90803304306944 75.95206345041738 6
64.01387920180005 64.92966501169843 6
36.080302751753365 23.04302195656586 3
82.63058530786735 60.62593589127614 4
107.52612436168172 74.52291282220105 7
27.579892204505526 40.28783428544749 2
100.333659472731 31.214921325189035 1
57.6259438054162 62.45856819506387 1
87.64426246841921 115.43808379569859 4
124.86712122333206 97.40023551998918 4
61.777790378807644 66.09442157828609 3
30.987272569566695 40.138828594505576 7
56.851700048898856 113.05406587404818 1
115.22342181284408 89.68620638823361 3
63.68337581654115 68.75632943766465 1
81.37410616172501 60.22555150288398 6
84.95923053942651 103.21674787590746 3
74.77932860127147 95.41870362204885 5
38.85222533320089 144.61856792665188 4
63.28796247848879 97.80350679546731 4
60.948864007764534 78.87343435260566 3
128.74939597074263 101.01595058807085 4
38.65101128729384 35.52238468210683 4
96.03091256543631 33.342570881490545 1
122.38641597920865 99.52050752061689 7
61.05285662736263 78.53403610506322 4
107.01352423422924 74.47238389382409 6
61.96786348062867 78.90420685702738 5
111.36772169408243 74.64442874705514 7
118.66171170687362 100.12521563637324 8
50.7105881085104 151.66670999897642 5
65.08528804234899 70.45748618515559 1
64.4343805646821 68.73747800913875 3
62.28321541914501 131.62212692669647 6
29.840297880947066 33.05359533565213 3
52.65350919722504 49.31775106365418 4
127.48979291592984 100.77572300491728 8
110.22184371667286 77.27436480762907 1
36.47401555456302 22.38351110109555 6
107.14705743144697 76.37462734699679 2
61.338101031231254 79.51512913317221 6
62.48827825507914 75.24187938655794 2
42.59593881620984 149.6452406221821 4
35.24002914486119 23.129272863459363 5
128.43224243707806 101.78601493492323 3
25.362865965199745 36.74360602357868 4
53.28509271378246 73.49516183474043 2
105.03391395058297 89.43893370527333 5
128.18108946432807 102.74588041425663 6
40.15421586155631 143.45227985979122 4
112.23424988201657 111.6172925947525 1
65.96728208869143 69.59825608054486 4
117.98915761065052 97.75358012101569 4
51.99249288637481 59.26760649022388 2
106.92979209003357 58.89499136252027 5
59.82537710644219 55.240339274087226 3
31.912981475815037 22.93072961103731 3
39.56571968517427 48.178994142477585 2
97.2249459540302 22.481253777856278 6
61.584956383680584 113.02007504138167 3
108.2725243756509 78.95568172842212 3
98.3258245815202 106.64135336189345 8
33.84363930305947 40.11974060775229 3
116.64243646542566 77.8885741324437 1
119.778715187768 82.91718611473968 7
58.81785380066287 67.89730110783466 2
94.69042449324621 90.8854537557492 1
64.0518578700109 60.06845132568633 7
67.80766427945164 144.40478326876405 8
61.8701003253534 74.82426778588534 8
40.960690280774486 67.04996353071063 3
54.51545566042199 148.84059097681904 2
67.0625682508505 74.52521422634264 1
108.95469749790003 75.92158396307633 3
33.4942581206864 39.28972912224138 2
61.273123827967126 147.8306494425323 5
65.39518485174914 68.11920926772686 3
56.572767444926 74.02204812991125 6
19.32695278962627 51.55593693015797 8
108.96342935291824 72.5185969115376 2
128.78825393499005 102.1961395558476 6
97.0010727129628 63.68680417273875 8
92.16212618688334 52.087103574365756 4
58.56031307559892 76.94179891519995 8
65.19874201594205 95.87924304209905 6
107.50500155981541 72.20904434421507 7
58.03631061186896 141.08157022265635 4
107.0597142724787 95.52658483751625 5
37.31725875064174 37.04355466471017 6
57.12576603319711 143.50272298380628 1
118.87446683234484 98.07804736353964 6
58.08885018181636 143.48581865690807 8
59.32286652528622 117.92272046676652 2
108.26340637960521 23.496993890545653 2
51.69233103014329 146.67410609498387 2
79.77681818702878 98.328909041869 8
78.09803474809611 99.47125329871439 5
32.45079067255099 32.005007170950506 4
115.13724138761741 97.3242333205009 5
82.25900703136767 110.77131574585033 1
43.74353915358632 144.9453035827184 8
128.2581538009615 101.585749395987 8
56.812194785234965 123.31024143710428 7
94.9355199531551 105.63114785066223 4
60.70379976904592 71.48044904258391 4
50.601845894887056 141.02891232764242 4
114.54274646104149 98.11928236628732 8
98.81899689128976 47.073248170600834 4
64.69731110995589 116.83945109372127 8
106.64876282856481 72.73090608118231 8
44.18433417676876 141.46695300271907 1
37.93472808130011 143.58661496616725 6
93.64741585273221 31.983027170294484 2
60.72217805912807 78.14135907142382 8
52.731997915159866 72.1664690145964 5
71.98137233398387 108.73588690247007 8
128.1781418875232 101.54037519208744 6
95.78753988018985 25.591270180074655 7
107.94160035162086 73.47287340680171 4
86.97121506983386 22.63115026974244 4
111.13406415543065 76.70935234221908 2
41.46556892734165 139.96065043773825 4
29.45432992185151 27.194689215277027 8
111.45839960755818 90.11710476677499 5
63.62080758464156 66.18289637153984 7
48.18536017515424 56.39113018549617 2
60.33626717619133 69.01799256825801 5
118.14850977554055 103.42877697187402 7
37.06113036761651 61.47542413006809 5
57.78863876592545 142.09733531451062 6
42.801244795101255 152.7672858369428 5
60.71956752189126 68.7498529230861 5
88.04383347369193 103.01023849715614 7
108.91391049267784 75.84125049329573 3
117.46047257992905 97.59786342917218 8
33.80633471723131 22.56942974495559 2
75.26364042667402 61.40330314674955 4
109.7879296353345 74.71170899330949 2
64.37003970333853 71.80875863465741 2
53.2502834428836 153.37328278865957 3
60.81176813733338 68.48777944535424 8
37.40821882263805 35.61396767738732 3
26.028663024617714 31.87064273349888 2
57.10304576818816 116.11234115416698 8
125.45114406001944 98.62753168961059 2
106.05824107099419 73.39173368996815 2
57.13665605597911 93.57602683382498 5
32.900796214072074 32.376346822833895 6
117.45690556473619 97.82800842364382 1
128.67001021140433 102.8875994331606 4
42.674226895202246 51.899817733272435 1
97.05406716299024 53.64278210101285 5
34.002678645177006 27.77163260568012 5
40.85594679955789 43.55575818497434 6
84.58446704794592 34.368575046925095 8
129.19843824060735 101.7399487438679 3
55.81619424989905 142.47162668621675 3
44.69643911099016 68.93520058241073 1
62.339912059091766 67.94884282392975 4
105.58122634570901 73.59471584839939 2
46.086044074024684 61.58549209784533 3
111.45789294420014 103.29288265349018 8
118.83483279521535 98.95825047820232 7
63.035600722503574 108.86600227298678 5
60.709941831580196 70.51957831989827 8
118.99860409824939 105.87795456391173 8
73.78866322932544 81.69979863815838 6
61.179350108988444 77.01756626922399 2
115.82586902452562 98.05113430317938 5
76.97933751319893 93.26961093681022 4
36.61446701975293 35.61075992876842 4
94.07700481780692 95.70223992087686 6
42.96619707640146 43.844491284700474 8
87.3246235331726 41.18016074994423 8
88.302880348354 42.358312151626826 7
91.26242211897244 41.43257283100586 1
60.52789019370821 142.2435934899504 2
54.54081451543754 140.67308425328417 6
36.448677378101706 41.80168572701982 2
53.10842632788925 142.79767762643382 2
106.76726371335484 72.06935969931668 3
45.70096218914303 148.88644252744993 6
111.27779627644237 76.19899201320948 5
46.45587910994272 144.2689757743422 6
110.48373746153936 66.19609606259108 4
70.91120464195251 105.1068768720278 6
59.811242185066064 77.05993223291892 1
128.75778809856948 102.42498563254807 7
115.34765566390732 102.12388451699286 1
127.93008545806177 101.6435419742438 1
56.00389658568268 113.40464999321605 4
56.38345423282831 73.28909548341433 1
54.95514584823334 56.835520377288894 5
101.98577191919743 44.23329894050799 6
55.79096441794976 73.83604210510458 1
128.4243216026946 100.74079382193261 1
50.3982191408067 70.1639644751903 3
73.22126308076096 53.804697516896034 3
56.31133020037008 116.5981306145826 5
128.19987608046915 102.78756455986623 4
100.84961557202907 103.0907914193398 2
113.39167184863787 70.81492674730865 6
58.843768409968405 145.41244607307058 3
28.864763887314705 48.17290161634883 4
44.22882680644811 39.44950216297584 7
63.11731200010479 68.82676168336621 6
111.0073795754542 76.82910931556083 8
62.76377540102045 69.46533602229329 7
109.16925866819088 78.2274025590035 3
90.667373004208 24.539730819292508 3
49.603429852650464 144.34047306320173 4
62.71527870122124 68.05271637893745 2
125.29183537708867 103.22462871708406 1
59.5675539790803 79.53829068308927 3
129.63421234454688 98.22159011164125 4
63.57745657556545 79.00532114398658 5
128.28285897257132 101.08847171089171 6
54.70991836395575 68.95108330486472 5
60.759255122492426 78.13120397621817 1
53.751557834420424 63.91612263146086 7
106.93486319960826 77.09260000084466 4
66.36593012231751 114.2090878140376 2
66.4598241844884 84.58582737315767 5
68.42967193297761 108.8853789900373 5
69.86747970306561 77.4094179069554 3
106.40695490669712 86.69349489991481 2
129.4547971952547 100.05884377483842 3
116.57357194280263 79.27798079339007 7
107.82002584292978 75.63866002745958 7
37.537610079160885 28.553145769627378 3
71.83722059991265 50.75792123007732 7
47.18149834928261 44.576580063844375 8
88.29964448482309 39.052519825568936 2
75.60938643651158 113.00039384236345 1
40.58276901652002 54.70874363592538 4
74.32046271498865 105.68346764053402 8
56.78117006262912 76.27597130614647 3
29.890113912039247 37.93838033892077 8
94.46299990259136 33.62219370377208 4
38.78367707812128 27.9228488684347 1
96.52056706775498 51.738400355265405 2
59.62488966455002 79.5454019218274 4
72.67422072338476 110.72149818036675 2
85.87997557546252 31.810521534409546 6
45.88691413620291 62.450985753664675 1
45.59256884561369 148.57766646514577 1
37.14890782105215 32.48717353816826 3
97.41426733840225 32.402748409945325 2
59.2502118668037 60.42365086481326 7
66.63034641966857 74.99141105304057 7
97.80996821029062 82.44738133247407 7
57.52651385600763 144.89065485697097 6
51.54281229820872 139.86764678743862 5
117.41721643616502 85.51902461202015 2
117.05003035930855 100.33450658001149 2
81.45334639064914 44.91135246716249 8
94.68488674267881 41.59752709189941 5
38.91585860088086 148.5630818540113 5
100.49338257126104 67.7763164782874 8
102.25303149063718 47.62955978279326 3
108.83684293383419 75.69087981421893 2
109.06206901015443 74.7953542923566 5
129.13367545867004 101.86885980733216 3
74.11474605667036 54.77327833153903 4
66.55379525931183 58.35122516749632 2
40.818659684756966 55.36706840070277 5
63.79451037543996 76.86561070509873 3
92.56613493201085 34.009961383734925 7
114.37651124984212 83.95065851793836 2
49.66401515306455 58.37052144380966 8
114.84564241991511 92.29940354333856 2
65.5645763833544 70.69466993086695 8
97.25137788666402 48.71024514919232 4
110.28569180015154 71.94617140414073 8
81.5794852793898 62.88529323802119 5
111.04987377301761 76.8101483848512 8
126.65429567635887 98.44234193062634 4
40.21302035092386 145.47970275546098 8
106.2020576205853 72.52421451344706 3
41.399895841418086 43.66350638634941 7
56.24894551110389 77.10364959729509 8
89.15624401744547 46.00337549478614 6
96.23891602353639 92.78304310035625 2
112.03555014980547 91.33429474444097 5
58.59189706998698 133.6614404356828 8
62.77814936826808 76.46241184772663 1
53.21740398280827 140.41335751524488 7
56.27240008368009 146.81287132001495 2
108.52171339016668 94.36906263006935 5
70.73587069971322 115.37809400856051 5
37.096128109994225 42.63691874378928 1
98.05321333289086 62.711378492953386 8
115.94537045368943 99.81477369655823 8
93.10634102790787 48.88211449053329 5
35.04428753444672 28.39282729221928 3
40.079862810031216 56.46249211618113 5
60.522020120698265 134.6716014384876 4
64.57860556535405 80.07208629598084 5
52.10853491783341 129.7259139544958 2
128.30277015810253 98.3097165852984 8
69.02798238527615 134.52043038317186 5
34.062299074873444 25.44059062910147 5
95.5217015990303 44.68508774214327 4
36.62753957012089 43.49198214168254 4
91.01973982816534 54.21591441935252 2
61.49558922797924 78.00305340199732 3
128.87313637021325 101.24216506331642 1
114.966987483042 100.56521128667241 5
70.76903661386935 113.52744431940941 7
65.84166486951965 94.50079384614176 8
122.84806862197163 103.43219464939537 1
47.66439498898013 136.77173352647978 3
39.81448261926095 141.14048474813475 8
100.52089980020914 97.29937866623884 4
128.9037808540441 102.01355022633597 2
74.65593603860668 108.84047096255593 6
86.19291476715703 38.78752146217539 8
110.31919073445937 75.415697013919 5
59.21444683847455 70.84498285095583 6
128.73777558754577 102.80644096158755 6
30.366802097032778 27.05705539545988 2
66.79667937698412 147.60044964179363 7
127.86544865482072 99.63967821062947 3
103.9601961414473 61.087119510222145 2
128.15322110788298 101.8175517071816 4
55.62880798055035 75.25984526576623 1
59.865392804172835 77.27685952329415 8
118.51524727962438 97.77065876312459 4
80.01559442467617 90.46484973864916 3
128.99305435058437 102.94819601375572 2
114.0273025785519 87.18970305153533 5
61.26753742146028 109.9999516075705 6
65.40005691083672 69.5975151289557 2
77.05108617704039 105.05777601114002 6
128.3555511198405 101.28154465527702 6
36.121504516305095 40.41206484652428 6
53.665310324395 142.73727091049406 3
111.40101746873209 91.30081080228805 6
69.96591630235575 108.44262594869598 4
114.97158915822445 97.76997006256433 3
32.622531336799625 42.3187018950305 4
111.56341929983964 84.67877399620983 2
88.91729836274014 109.38361091367076 8
63.24539784566288 141.36449359049362 1
61.75120642522638 69.44271532616845 5
113.25410113187921 99.57456038773623 7
109.87829557489859 75.3335659214226 1
99.05817730445062 56.14071473498725 4
68.04824732069063 61.016165992416695 6
52.68306653740896 145.95729608271841 3
93.27657828695975 48.13502440481541 2
129.99915862472267 98.01586340782168 2
80.59093307063988 107.15528586084142 7
65.58069582549513 96.10906366832086 4
118.83755452183892 97.97191453659623 6
32.2913142846344 24.990243234655452 2
118.01587178846597 98.47577547956966 7
58.04972158357737 152.12222285933186 5
33.19751581160043 21.652242199781416 4
61.895790716107676 118.85091000018934 3
44.84999577881103 63.644713533496784 1
32.713080766818834 26.422081339491942 3
92.18266411394657 35.042533726522265 7
62.44506637929519 92.51900583606003 6
32.52501893436857 46.33937858388329 4
58.44991366553623 121.18385101460643 1
53.84817609628531 141.5998460558294 7
70.25497579911 78.4494453979054 6
110.53025518410871 75.61340523767464 8
108.2953347453622 77.14418631888093 6
78.01242574489763 108.49319788925236 4
40.44500822152711 141.8406649477143 7
43.31026177178245 53.75595714037327 6
48.25898151375544 136.5100364210105 8
58.34441618137003 112.96213902562837 3
53.358654590364274 115.15904133669872 7
89.17525931100951 44.74501023689442 4
55.28755776196212 113.90357101733264 2
111.15071603763782 95.79169778785257 3
55.1964025674842 65.14428271361564 6
94.86621223797201 59.478974966001495 4
109.18962165046587 75.90417071513724 5
61.932765612768904 67.94672947514965 6
89.25713930999036 116.76748227727484 5
90.60866815515386 47.053274758506596 6
54.12950422103176 67.56027724981418 8
62.38819427913072 77.94238137334892 6
128.92391258322408 100.66561960142936 8
78.76915856293516 103.35695237010242 5
71.52108622193545 113.82650159298153 6
95.09127395622134 105.57520841913717 6
110.78554642717368 74.07479655981999 1
29.652307995571626 34.20661998358519 8
63.46277754337459 67.83498334792623 4
69.55115441648039 109.39487518597672 7
61.847606079898746 111.96563375534937 6
108.47756794466024 75.01130492568335 1
47.24368549954085 50.562056530412804 7
111.38102085168008 76.68465598023786 2
54.90655548666434 55.95206685873585 4
114.86996545949667 99.3628551886274 2
30.213217706141165 44.08440465982368 6
67.51425137671615 112.3439480702265 5
62.63523498796418 76.88216830679191 1
63.66934299380082 137.82839346369042 5
107.64055522094542 100.63802393818256 1
114.30000253844038 94.23683333773263 1
70.96599312658276 61.29131583029222 1
128.9327838435771 101.25803597730287 7
97.17174032258018 27.72424901951431 8
70.9810403466549 113.32690907576357 1
115.10292481308403 81.25452811241281 7
113.38659172834697 100.3275716464135 4
17.274324848724902 54.051348503371756 5
98.78207905103878 47.515143049209364 2
123.63213670067164 96.86842049442693 3
114.69202843283152 96.56988045878788 8
129.21848552801663 101.03096943475455 8
89.79506299836147 57.71459439941577 1
68.40012499508866 88.14103281286124 2
104.20520458845294 97.24072238280797 2
97.79861307394718 99.36045909435198 2
72.3250613169502 60.82725209845716 2
128.48609989409937 101.70169376504323 3
57.47284477504198 111.48326478661156 8
31.750182486690044 42.55542227993172 1
100.44472912275575 71.57437270377545 7
48.34778750328925 141.9008103239219 8
28.084178435652355 63.64509297221768 7
47.16402946482102 145.90635729908377 7
127.99695786964541 101.75280794841409 2
94.8931727178732 56.249589899022304 8
87.88741823297165 38.649261622865254 2
61.372156170537686 77.23928933866092 8
67.72508585957976 60.91026612262148 4
65.2430414524815 114.07366815220183 3
92.58619774361556 113.08962760115351 6
54.95819224959833 111.76314553928076 2
114.58162440484536 100.78952771940617 3
128.3160956910623 102.2949728020949 2
74.24788731643184 119.64412309447441 7
86.47485738484542 55.31924175790873 5
69.61885063915166 111.99164980351378 8
61.11288381511398 116.30521977919012 6
77.92549239484687 88.31984800245627 7
53.13925235127319 144.3230010833675 7
62.24143292574869 73.08278896339174 5
65.84449720747573 47.93709616949092 4
129.33842779005144 100.37617960678034 7
128.61407301576463 101.77450568296209 1
99.63454990100865 33.26051938932129 1
100.34675833880063 61.994297001685666 1
25.78332509655816 54.48249806120985 6
59.48890644810687 67.76528932135234 5
109.66244910842391 83.81775662797648 4
107.11113336614018 71.96453630170933 7
69.10173270619411 112.65804385917552 2
57.09424086612321 111.91145708261642 4
96.1081528312356 64.35440918625092 4
60.17015901715241 68.9341802647286 8
107.79285708742363 73.99532302631464 1
60.747628691459184 114.28260134133728 3
68.01328769067504 118.29303931500247 6
115.67495273011838 98.44359442746573 1
108.62318596507063 72.61335670323712 5
97.76255272000081 63.1940816889249 6
108.38650196095159 76.54987947493261 3
52.82478066674824 143.25465495677497 4
116.24448988826487 100.72678855488012 3
63.068987508843534 67.1689321966018 8
92.91561991841343 46.55573130473561 2
100.0893656262012 35.74864322075468 1
96.30765336196525 26.687444196626014 4
63.86735083197131 71.73596623094569 3
128.25715930332896 101.05978824159317 3
56.92612746248758 117.23774890606691 2
72.96492850207385 81.50813861148319 5
62.23140502999146 115.91238018732314 1
119.9751853655819 97.68566703490679 7
103.0868362303166 109.05231451371455 3
89.31776053761466 53.91896642911987 1
73.4890997665695 72.2804556797281 6
124.13127815466952 103.19900602965267 5
90.83608292074435 47.817375390084386 3
65.61771499313714 108.89438959502804 6
112.4027824341012 76.12143776836747 3
48.348920232433954 144.19278753890862 1
113.97900161260574 79.06788489905219 8
69.74815291609414 105.89540176166678 7
81.7173578462493 51.49567345683496 1
59.7994537646274 69.47163150054286 6
83.30456877938197 101.69657172951175 1
39.855084449755864 137.5885131519427 5
107.81563569445186 76.45158400204029 5
32.6128591406728 23.192656463427074 2
35.69636080544163 40.82787692143102 6
82.2361961275911 99.55255627405626 2
102.49750457145727 73.38114129885243 1
60.56746327320732 115.1726991998292 1
45.484014537580464 146.051453737666 8
115.5420647893167 89.45358882357024 1
116.36561290082501 92.73846256447005 7
33.2878161341912 31.921012637807863 7
109.3395828435448 75.27993357063589 1
105.4157917102678 89.95921320497152 2
74.044228977819 79.52019699696628 1
105.85422941580948 77.89468718206986 4
62.60682828664318 71.65493933993592 8
43.52572583136671 49.20694268054183 8
127.96641880185526 101.53616616380586 3
113.6753158184055 97.91545615552708 7
112.01474698422084 76.2190311839121 4
111.89039705082992 76.24596576527657 2
95.70661556062122 60.511814158013394 3
55.8309104984571 146.05759118511327 6
36.956340592794206 46.599810976093906 8
42.41025124909047 153.50377318951035 6
78.7334232602949 44.86893908265331 6
110.29595622217025 74.29591167088488 1
30.273312295413042 21.588693912757176 4
106.48163046726637 77.82132620938857 1
129.13282049376164 102.6534368043261 4
65.21551867133782 117.21623165304325 4
89.20787627707438 110.83100622985705 4
64.286259888055 75.7928846695908 6
51.28839299878725 155.59636493527705 2
128.36979237920937 102.92809006062441 7
42.284654496616064 138.71736676083327 7
95.595452620356 105.51423443058293 4
60.125934521697104 68.80765312311945 4
63.084367123194454 129.27995803347267 3
127.81257963664461 101.30410995992419 6
60.664589532029304 115.72372963241729 4
85.74270795666212 61.640797437739714 5
128.92528768835845 99.95183950861062 1
75.33708203968513 52.64368928768453 8
92.34965481083704 39.245130327986445 4
45.14592235355942 141.98820884133164 3
58.78094257762911 70.33235129247612 5
27.509393605390827 27.175766602373358 7
50.74743810851555 84.50062111766158 7
129.18437549077515 100.92169740135438 4
59.834270092857224 71.70911818169425 1
116.50599389428169 97.27915909547893 4
67.21347818274019 114.70257257746358 8
61.14080205375038 68.83191825957556 2
91.26904343124313 45.04911565705291 1
60.20986449534408 65.50409328482986 8
48.19521793634084 146.7372209836702 7
82.89112159354578 101.66640266166907 2
94.39462034777276 90.66829938716315 5
109.93585641298631 75.2365394207811 8
101.3805004807939 58.77898117341423 6
53.48064203524832 120.62398658552621 5
54.90183931437112 144.8536795858648 5
49.38853226789182 141.3630177896473 8
110.25600246659714 87.71582670445848 3
64.51015983539119 71.06296617836117 3
61.05049167419867 76.12435490696986 5
63.661975158149886 69.577938534698 2
72.1139968616464 109.82129036925124 5
96.67625168602261 59.660456443939 5
61.84994525266321 77.99396302051993 2
60.370985101826925 70.84289755506921 6
129.1041834070386 101.01889969103617 5
77.07024378938874 67.75438399752056 4
41.64437258931712 139.56184050599217 1
50.897959649445504 115.07367634618086 4
56.661435419614975 150.35143009410749 1
66.77084385304664 48.168771951087024 3
59.46212501075721 67.98936396248988 4
109.61770775343405 76.38123371925903 2
61.36916114930371 71.29112608008894 5
46.79307169187362 141.02912082539683 3
60.60704737212483 72.39476451213446 4
70.35087582931824 110.43111670063921 4
116.63745775976936 80.96420126745498 4
90.43914177030206 47.16627807270802 1
59.8060049228505 73.13967176460241 7
36.015345503069206 21.412846049630936 8
58.465873886561305 121.10899113720973 8
118.85661433747211 95.15249824264201 3
64.18195522590243 90.68002366729412 8
101.1774462469042 68.35634591174608 7
107.72988505337476 73.27201097952945 4
61.16952662935269 73.13979809189608 7
59.07716669181788 150.14850952662627 5
121.84048004722334 95.50681325336816 6
63.96809394935389 70.6506270411754 6
53.67879229469418 114.5247257770194 4
32.46444551582249 36.17129724386048 4
76.05907665150316 58.000855306908825 6
48.276898128580896 86.0528035069974 8
129.28103319446174 99.61373459923763 1
97.79688609814342 36.2839010956803 3
38.45328044155087 32.22280036221921 8
61.17786067254806 69.25993020140346 5
40.44181988356108 142.06408401235365 1
108.89370050432312 75.13274994287644 5
60.19520652935081 69.30057160501188 5
58.71194585839712 76.03846433141777 4
115.94394474925664 100.20038991887819 4
110.27866241536118 74.4107896265469 6
103.05075502493192 62.26057422439111 7
27.33356264049241 29.033001541413334 1
128.86820155474106 101.71754313880777 2
60.324789670322815 143.42047268481866 7
61.58686475102767 142.48898848950753 3
42.5440367657597 59.62432675516403 4
53.62390064592765 150.81333436498775 4
66.99398533096475 81.84385903942164 7
59.031560067300624 74.41832249239796 5
61.66857227966094 77.0281587690343 6
128.08696070858824 100.90505091318686 7
106.59461908260668 72.85784733919661 6
78.07624606826853 104.1950929228999 3
108.57961860864391 75.52630232240953 3
98.01137691827677 20.894885163547084 1
80.7987203090549 67.36066860619542 6
80.80283537050401 75.22523783192902 2
35.966887571572826 38.443873714684706 4
31.471218876244205 26.491662887324487 2
115.14733383176257 96.9403330669116 1
100.09649629435533 115.81513007589996 7
31.195446823107364 27.65403430353378 4
52.44860855288052 118.37810114499166 4
