790
0 169 0 169
1000
141.30082711064136 143.0275813559128 1
73.53442728315522 27.021780731013195 4
112.48905858862605 121.83101579716029 3
61.6594552885239 24.18606166340582 7
109.11352625886038 124.52796217828904 3
70.8131945908974 91.09092035986185 3
111.57064565004514 121.03166412692698 3
111.91418818155242 122.99749036412145 2
97.7038182867941 136.0102150287792 2
120.3100176715662 71.85606144513264 8
65.56712794360406 24.819440816558483 8
66.36055424662902 134.96349798126957 2
124.15061693987533 138.0072070779918 8
82.0027362149203 26.523492550897636 5
66.75186557632004 137.97568343364404 6
130.08221473970949 125.61727386320382 3
110.92137859545429 122.4084916622959 2
111.36568284210458 121.9901683684171 1
52.126287400557324 51.321226908657934 7
107.98893869249115 124.44818100939969 4
65.16572341946518 134.4655743886291 3
78.14412779146541 88.00582190856403 7
63.113283593075394 136.47765685362032 5
55.204248964845775 23.41699667510705 1
106.06290056964468 21.745468709863363 6
79.8845556823788 106.33511048743449 5
118.1943181141131 131.29521684986435 1
139.78260575028594 142.03828959331162 7
121.87910455461763 144.60930417297047 3
60.6107230091244 21.991491359678932 6
104.56653441260852 22.85570714106087 4
99.37132908890118 129.7077668058691 1
64.75116244576672 24.178237407620692 7
66.50753778756149 136.10273812879825 5
139.645488495382 147.76000951039842 4
58.85730181175008 28.410031426251823 8
68.74559635769873 124.52959646926276 2
137.2932458948651 136.73729295137855 7
70.84607370786782 97.22877294651923 4
134.76727478264633 134.63058903364268 1
72.16055433365541 120.40526715084506 3
106.68687544279103 20.636152972677404 4
77.9502215571914 78.0792227445805 4
138.45156221797382 141.39667877550636 4
104.76042059327432 22.69285672875959 3
64.6601779683524 20.126165877355515 3
105.63256385530703 147.81644265241187 2
123.42372756464604 59.53606603667175 4
104.92742496645617 77.65713316241138 4
141.3099447027882 146.7104689501099 5
140.99459395896568 147.9440716321038 2
66.32073374885384 131.254226026781 3
105.78738831425791 24.501097884155186 3
97.1129456698818 37.194513664859386 7
55.79778323225069 61.4408217126479 3
110.6754211819542 125.56203123537028 7
104.25469993639162 33.24852760690311 1
79.5498633010345 144.3151979278459 4
62.22491136844891 127.31491716708209 3
63.77289632860211 123.79142248166181 4
88.61293808052054 27.065224790322347 8
94.43772059777122 132.36556413539662 3
58.41658213152894 22.161991792919093 7
117.9763330390592 55.438089238797076 1
84.89022941923874 94.93178655024109 8
128.4438161309341 123.01031527805888 5
71.67817999324932 25.493029352812975 6
126.66818031715337 136.8006579528595 2
104.48728589602312 129.13316854074148 1
86.89759337160602 139.88460690428812 8
121.43059204916275 97.5497125064795 4
87.17943457189888 137.75149416573953 2
65.20535675504037 124.95620040192289 5
104.30734922979293 140.2438292194359 8
108.94957878204968 139.44092066021076 7
84.58285543746267 37.459696506333785 4
103.92242319494918 124.39643753843352 6
100.91370617182619 124.12820022741717 3
113.98162653521135 145.36626392676393 3
79.26618024460763 86.71377740614409 3
100.17583949807535 23.87647522900303 6
114.06655885036118 126.62344630983847 2
60.63484008276534 129.44047773191087 1
113.56776497092949 123.90536375678563 4
118.62353692554449 66.25871843130754 4
137.34470672639048 137.17103117733564 8
126.00977374559848 64.62787063701344 8
101.72549452313687 126.27170220716025 5
140.11917632483815 145.7735383795146 7
75.83356509986972 124.51527855110977 1
127.48181037221046 125.02841057288131 1
133.9766772187226 134.53009252732323 1
115.7654681096987 69.96362089913667 8
56.53699021869788 116.0935268794591 2
75.90087188038095 92.0919782865871 8
99.15233407902133 76.15840105026504 6
103.20229525421112 31.55598542440889 5
52.579434051690626 101.24593316196504 7
112.65221351161131 123.2116205048419 6
118.4502768627117 154.93068906321216 8
121.45192341771894 142.7702030911184 1
64.79623190092505 131.78932819746578 5
65.41984382826955 134.52539002905695 7
104.53449366813898 139.4643084747318 1
113.04953882016784 121.5185209708291 6
105.9498038013988 125.91349194267863 2
116.70482988003018 66.73434359893011 8
103.73891615912014 126.51684102086658 4
106.36721874857453 141.40321744887507 3
140.30872882719723 144.74217532482453 4
98.98712511378034 85.79741866982627 8
110.16923230637966 127.6681946107807 1
140.6189040861212 145.03769321857104 2
62.99968599352174 123.1680766106215 6
108.18796662786299 131.53992163312438 1
127.98064185898473 55.656883728617885 7
77.18918195933558 107.60056147199265 3
131.07113838313637 107.30571572531993 5
110.86195345227475 122.48071613582293 5
141.41591353262973 140.6722117553214 3
108.64393357020404 19.95068366196406 3
68.25480832119916 139.6785992039988 4
84.03261385580622 32.473684120237856 5
118.91868066471733 86.65986740339751 4
123.8036391524538 64.97588287969411 4
141.6160866932886 142.93914542625643 2
140.56561895431452 146.77178097589965 6
133.79283398858612 136.45417221848803 3
83.0477798380135 140.66330180387922 2
123.84883514310403 140.226538912729 6
109.02736984537363 146.69588134129788 7
107.18237760909284 79.11424228446198 1
86.43373445771958 12.637994046512494 5
93.89977337365498 123.7824110613473 6
103.43070725256355 129.49238213044646 7
60.474699396873824 53.894896221036184 6
54.53663248720266 28.452417256853998 5
101.56697109955357 71.84929125671165 3
113.3126732665606 124.50101647211697 5
102.85904374400445 132.10592218519804 2
109.11998541138674 143.75399196596206 2
67.72838860040956 22.156831403171886 7
65.34463322705456 124.6698666882715 7
102.20724944292701 128.90429265524904 7
114.39880511377139 68.09803151176975 5
111.8861198994068 120.81395732776804 3
130.56048726412115 135.40035458258143 1
64.98071294136211 19.903060465713207 3
114.30636647075767 123.64567615551542 3
112.46338025607807 155.86676557017543 3
62.52242094341345 125.20907322032444 2
82.25488681064158 21.414658642609027 7
63.07170034351904 22.328043164388262 4
139.17587738009306 141.93622015022532 5
79.43986475985349 92.82926516713168 6
87.89507249423478 84.475591743346 2
112.24942719270362 121.98113973772996 1
97.685826982963 28.382687259518622 8
114.57648393675642 123.59986947399562 8
65.65998612104045 113.66412108035985 2
73.54067653123252 144.76029027973692 6
139.07103596179547 144.73788040357803 7
69.46697003637956 126.85182422106462 7
110.90668786106743 119.78168405644294 2
66.59649918408797 141.93341881994795 4
134.800476653437 139.648362672347 6
80.25571661721918 140.41125194181447 6
113.42872065750478 71.77554676398951 8
118.54663777001053 47.15789665501701 7
101.57024495072226 124.33585568235861 4
88.9923162923126 130.70160133441925 6
110.57626371210544 119.95775126685729 4
132.8574393987138 132.85748501206044 7
101.52436040964517 130.2049664582537 3
109.08053414934548 141.8653716846689 5
62.9491617610943 127.7612432426665 2
65.13683053565182 137.74288820273225 5
67.15190795046567 25.44580597930409 4
111.05407358310327 122.07356641149273 6
145.89875073876925 132.90141820160852 6
57.9204472015145 27.91917676127179 7
117.62437099654896 132.6771084366788 8
100.26060778665595 42.49704205077268 8
52.23380947070689 49.21605357833285 1
85.74562451694716 85.09286814138181 5
86.0781149716341 87.24017941258893 8
108.03143909504416 23.91788488170079 3
77.62062712930373 126.0111350462361 8
114.67226641399829 127.55164725284617 8
97.66001572705885 38.40574215436605 1
141.5466005295589 143.85228771375137 7
105.24277714875721 130.30443846647816 7
99.79554523005574 33.74915428364573 7
110.2345328715357 132.53243639686147 8
88.20451797273535 85.62685895358682 8
67.73281459213095 106.5649776632526 7
97.81745816050113 81.72270618045685 1
110.70947883168604 48.9728169073166 1
66.09601279640268 139.92962325943935 4
131.77110385895762 127.96797272631915 8
67.2573254854482 141.399405296832 7
73.68748713997107 91.84245760806417 8
76.30024868948746 91.86851966334437 1
59.502589946253686 45.78748028483418 8
98.54533808648972 130.98354399585756 8
141.07228347621418 141.3832724429494 1
85.06766185897207 96.76836881781786 6
97.98846893538668 22.39460250673002 3
102.97209017944549 128.53871186716492 2
138.45590852712607 144.96931413451267 3
86.37184411201626 36.925292515853485 4
100.48985433092362 34.33988767763445 1
69.61572864940489 114.94800720557953 4
64.65746819792031 128.00657327571471 8
99.41733641457805 128.33027096148246 7
85.71407625447719 73.12773283070284 4
99.48112072763833 132.3918449424958 2
140.3548462703858 129.60635472800413 4
99.79332905188282 71.90537194596286 5
105.70289347242235 34.76212763997231 8
73.5382406904617 143.14407471212812 7
109.4535375572459 50.729950024001774 5
91.21508543636031 38.82401238171006 1
130.83238526744444 51.589087124595935 6
90.3654727793344 40.93050161291869 8
66.24063373223775 124.06758634939438 4
111.41715832469443 123.38689197455334 5
113.63841222941713 35.36415820400602 4
70.55997708083433 114.2201049841284 4
110.07681487683602 119.78179169145473 4
68.30023009758827 143.45923902519996 2
50.01230418102618 41.57751947236077 6
122.57295276691137 127.54071374540179 1
90.2704859325515 87.48211774322176 8
96.9816345124955 105.30303789472994 1
75.8857432746674 122.34429279488066 5
64.06763400211709 123.45488274583819 1
61.52976889862809 124.61940371013061 8
121.27416034210476 62.52087169763481 6
111.24217118325876 122.99873573391973 7
120.33675317752446 65.1622966883147 1
139.14875316596033 144.2418203215898 4
112.40072986792366 121.39522601662127 8
105.08056271444023 20.08774138127042 8
64.20510406016854 122.87947416066314 2
67.22910450237224 123.33148442861 2
103.35141941412115 26.46387410898141 7
108.43171345845163 46.52121552475615 4
61.406524991062504 122.25511363014138 1
68.62837977293849 129.67038070291505 2
106.63587348372454 22.94648435476625 6
63.06754102818004 128.41404983321505 8
126.16097194326214 69.10082174085072 1
118.76000310991007 147.9652063974078 6
62.922982253654325 21.36446738774212 6
106.97239462408068 119.10429990590872 8
101.32484088932834 29.792489603101693 1
105.0987282382719 22.592430777793655 3
106.10743718632689 44.0104064900665 7
85.08523861565136 125.5602498875332 3
66.24806369039688 137.52938833622633 5
104.68351515669387 26.997844586626044 4
112.41466886714788 122.1558398737739 1
102.23422382498259 131.47427177978093 7
64.6074018742162 134.42198166806867 4
113.76201861515055 88.9542955695662 8
57.83265169484609 71.31006572772945 1
81.82587179817408 26.822270218206377 6
120.9380706001948 58.85098120025183 6
66.72071009336489 139.53190724757616 2
65.80390114493274 118.54094006113252 2
70.62298462692945 140.49755107567847 5
113.98508772082859 122.25256229622488 6
113.49606410113074 122.38373481995694 1
106.72261106460435 138.92057519200952 6
102.6858293562524 126.56845535978445 8
59.56066211481128 18.244897306296096 7
110.48389060449583 22.88436429430346 1
56.205235816247665 28.14948979509297 8
85.25540923182427 89.53948806133849 6
84.6978513677555 82.04400585469004 2
116.62299183008567 141.8328062365167 7
62.61778082858197 134.0196787476451 8
85.98183682672034 83.58418446353973 4
102.76334471217379 32.104877201088314 1
95.39114139879983 34.911615199800806 8
102.46454799606384 29.7519768085878 4
108.71704539095853 124.49591327821094 7
108.66972617668209 123.41470712446075 1
65.06391786379164 28.200387366548206 7
103.48780574565555 28.25091582360292 6
117.94122580621313 66.05847999078881 3
100.1116028704851 132.90137519232445 2
104.83374000510224 70.81548487451725 6
139.97174985041832 142.9899659311402 5
86.69670680335616 120.86936330372794 2
138.04004803649678 147.5756189664234 5
96.4015813778172 31.02104662309109 5
95.20890848048484 120.16214353173983 8
70.58242679938675 136.21998867391335 4
54.543143330703344 81.80842133888474 2
72.51527299197978 92.38813657072525 7
105.70884915390555 57.23039942836691 6
103.80288290555578 128.92014447442094 3
140.30520309142736 139.9572458848257 2
68.41518589335419 136.3532861814699 4
61.012962137810156 27.636602847913167 3
136.81532006050398 140.39742187595976 5
69.6864152047222 124.67770606415344 5
91.64105167167139 26.989439750427106 8
111.81662102372387 145.35396461749255 7
97.19010447816126 135.56892881660883 3
125.88211848088557 69.24468851632946 1
102.64714328752528 139.87681801317075 8
103.34656156885839 129.39062713639845 7
98.58223947145007 22.017693458144933 5
68.98066957990275 96.5946014864432 8
73.54021121949238 108.89302212233189 2
141.03833276638287 146.68892256683853 1
101.07897577843535 31.434683589914243 2
102.81997557487632 22.595477916889635 1
133.0655104522316 137.77750614952362 6
77.28377433639913 17.301370623262994 4
54.827183062838614 27.43373168418092 4
105.30666147262917 129.45722524505882 5
68.71799557764018 143.0988858535768 6
45.5133757776136 25.63412602773348 5
136.98085697757423 153.01923740917363 8
104.57544901699406 94.51516498636492 5
63.84251787271302 145.5003705533805 1
65.82997064676421 133.18396394463977 6
66.23815151803106 106.7322634488925 1
142.10158545662387 144.01077237040687 4
76.52824953696205 99.89460187350195 8
103.95499632188827 124.64360975127425 4
134.35490033566816 142.72073850629877 4
65.11345827773738 133.03926809142547 6
65.33444977432802 126.47723093365543 5
106.04653142373985 75.10461379233487 8
61.43469044460868 117.3433105737767 1
105.29000823108399 23.3871915783509 1
65.46050545129555 139.38744280774614 4
65.63936469670688 113.15060138268227 1
77.16046904931548 61.98064579526718 8
98.70820569778196 136.32347229556996 5
101.04080518570208 129.35118172508396 4
121.86492467290476 137.64345467447356 1
70.17130808891922 142.7320170541633 1
101.33982379661985 24.717950630182916 3
127.59854056961241 134.09360554640404 8
66.46967938093754 122.75473371043269 3
101.3411607448248 49.136785392527074 6
66.28781686633268 125.90722731848592 2
141.60935855458308 142.93825353514447 1
65.17043430769003 134.20396276097836 2
77.14161355300698 26.59124699121525 1
73.79421363796664 96.41548207247615 4
94.78949623381435 25.457119354091933 1
109.56475540063877 145.54162458541398 2
107.99426352353208 146.1576779777406 1
91.56617224187521 129.6326506446043 8
104.15644284789178 122.10920384780121 2
113.70215581479421 122.81336699163228 5
94.89633597994151 92.19346391697763 3
101.94087134901089 30.68750071234356 1
71.39249942531681 103.42532519406758 2
106.47866491087899 133.6640273599737 8
84.39180468288933 78.4084370280512 4
115.8595845925536 123.24655164618534 1
112.54003537333844 123.333679106191 1
112.53214263760205 125.10223128293555 8
60.95235936588065 21.571421364213275 4
65.3303802083195 133.09273693355502 4
67.00016256167365 141.4791245519257 3
52.498504692049785 123.45101819573924 3
117.34402643803598 50.235567571975004 5
122.38292602385067 59.418766121174095 3
68.48383162420826 136.2755342801477 1
108.45250951235332 144.42973164679233 1
96.50465156044096 92.51809052205076 5
105.34649074766749 18.489470586435264 1
107.8623256994767 144.5979663768117 8
120.61208633845054 51.71260760937823 2
132.1818041393896 139.27333170218606 2
114.71182496008495 77.83754307290904 1
104.74953735982074 21.058155581215466 2
119.42423969194539 59.11151469944495 7
81.54850742898212 128.5542580439838 8
69.13848448563367 132.998035469238 3
68.29132445534918 89.28488107563686 3
124.37042675493906 140.00471590014962 6
73.82043170462254 144.99496765718268 8
75.74543410189743 140.13236853564533 5
140.89563969069812 148.39634045354694 4
114.42751059523938 122.2873126734951 8
129.22013757716684 62.56995957845739 1
108.12033518471043 129.36758645555705 7
67.28660541195828 128.22491357064553 4
118.23530094385892 63.58947258527468 8
110.8676383519909 31.169960944488757 7
80.74272969511813 72.15907613315898 8
138.89670229251323 140.18996444355219 1
90.9438443419842 93.21407324951963 2
107.23824614046968 28.38874434915334 1
116.81005207958978 114.93712219961213 7
98.867304316914 29.25162239740779 3
103.67855618141094 125.02925033119392 7
97.38426875085767 101.40669654283589 5
141.86139741908698 142.45371835294776 2
111.69735886378407 121.06678899968291 3
135.44043139740694 144.69031822616847 6
102.76693102787279 127.89620261446404 5
109.96712597445034 83.6171053764832 4
114.88958001446598 134.63284514665 6
107.4818809032445 142.3350990602514 5
121.93856198464938 134.97221328698063 5
50.508578281875735 27.36128783521848 2
109.86060930003083 21.57239077844939 5
72.03669924645857 50.336463107576975 6
116.87450522754428 137.71027129838464 1
118.94504365695173 57.83083295421152 5
115.09111373847189 51.54882242792541 1
102.36797024183788 75.09053526368143 3
51.01465756653377 84.47493239707951 6
91.37882069540707 143.36347097134347 8
64.40000409280961 127.22756140240864 1
106.89950452954669 42.26457695773639 5
141.47494049801014 143.3650218649439 4
110.13894216540047 143.14091681139976 7
111.67894671398422 25.436339699793262 3
104.030109134261 123.44689648800468 2
78.60538769197342 40.73093848602657 6
139.68741620707112 132.99210482261466 4
65.65791371897721 105.73484932774223 4
108.00672297456674 123.49472755334858 1
80.92086932986948 91.32583238452791 6
51.73694228000856 51.64809366594962 4
69.22301282250847 84.56056055132849 6
129.98263867259038 139.5497382325405 4
57.49845449818309 31.277274796649724 1
113.06253146681654 122.60370888084573 4
122.0757906002438 132.60646449143005 5
111.56371542605184 125.62488234933748 8
102.4701267854528 74.56136002441833 6
101.38526660959741 136.13796375410817 6
108.51062583866364 57.73011631206063 1
105.42613921365219 70.66588328720337 1
111.33011082585361 122.27894569542279 4
141.56599978198906 133.8945169835162 6
63.4069181306654 122.16887959837436 2
58.126530045824055 29.279313399200998 7
115.82213936334178 92.71322501089404 7
62.1001978399333 30.738799117635615 2
114.63156375075587 86.40593701475466 7
63.070928492564555 58.26969333088575 7
84.40966020711119 73.27973716202992 2
113.23400325502953 122.46130003957664 4
74.1979709127344 33.20784299609125 1
110.04506241652712 143.54933666383994 2
68.45915114769535 106.14248246676544 2
62.25627331278479 26.353028939400442 4
123.16150121381112 54.5828224931512 7
109.5248313956578 125.815092750969 8
112.08548099106353 120.15074748050351 7
67.17718551003158 137.54647254177604 7
121.93299315967822 57.18051041198338 1
109.12936116200949 23.5760724202324 2
67.40641136982143 92.61044502277025 6
116.88062831565436 124.82410890548167 3
116.66572802669563 104.3979300363382 3
98.80051115430432 119.3118682939403 3
62.78828068143216 122.08524338350009 2
102.76417027829656 137.90649589245524 7
100.41206572889506 74.74460525136622 3
62.76056910055574 27.037790685565206 5
68.35293945815589 123.28244220595364 6
121.10360626169198 149.55192950111058 8
100.55722942521776 29.461191098222642 1
91.39598025719673 27.076411608384653 1
97.08201918630289 138.449443882937 6
106.5991141013032 74.86470635647187 5
127.91539990324041 136.49062134427444 7
100.84404529902689 133.83379596453622 4
116.90376594528959 112.40441624682306 2
54.97533090926051 122.03243857196925 7
72.69454885441185 66.83988090010057 7
113.26241611404961 123.49382345360645 6
99.80779571080507 29.841160635873223 5
98.02225476451237 37.40576860240196 5
92.27698484518334 86.5280500369925 1
137.83708276107913 145.66554717967028 6
135.58017180629886 143.36313518631457 1
105.95499469670781 36.71614369086329 1
67.7536069990776 101.11577866607459 6
102.93113926609323 132.48575541279453 3
67.33734410210288 20.018067293558858 7
59.668776984240154 21.91670547597031 2
133.59528126009184 52.9839906565539 7
100.2967438587972 136.6405496787053 5
67.08084443731717 23.57565551758383 8
110.85041873681412 122.038628056975 2
105.28076700893646 80.42936739843503 2
81.15321737056723 140.67985392127986 2
64.11623151494298 139.05193720939246 4
132.28151594454272 143.90497052233212 3
69.24701990976978 142.3388396929227 5
90.58605693915267 20.64662651678458 6
99.75398520364061 130.5907271389948 6
100.86782625965026 131.51981983632422 6
51.54678257696828 24.761232210872596 4
89.67840384359525 124.46915787179545 1
96.30788533317488 53.509333352979404 3
99.11098976623938 128.16970965150918 6
128.09420851844672 128.66158210630078 6
104.61206694111907 24.013508429065887 1
112.67614094253287 72.70330140658861 6
63.62434330612308 132.27052447688754 8
122.35449555554318 120.23353692448418 5
99.4761611979968 126.04980702551491 3
125.18039359579289 127.77906910190106 7
111.49194208250212 89.05540710435217 7
104.45382724192403 135.8211824694231 1
69.12258266683295 83.43341229989 4
140.42977522028235 145.178053104803 4
99.74112678142679 29.51413041743713 4
92.81054807674425 27.534761876874867 6
66.33555418305197 128.18687936659973 2
140.8394987635284 137.24786563893852 3
110.45801698170744 146.58464640766186 5
73.95182721655313 99.39364738145939 6
107.1140965280502 87.15582423857576 1
103.77364756771783 125.86205095533795 8
73.64773485623851 26.042769473358533 5
108.71784538215789 20.67653799861419 4
58.176505385937155 29.438927062601135 8
115.43900615298085 94.56209085944913 2
69.72681215162544 139.13531305164457 2
122.1558892867027 125.45631273578182 6
100.87344539181356 133.52890023306145 6
118.85650319579874 118.33207292775145 3
88.54140210748311 21.448013114855797 7
65.75279071943194 123.6897760892702 8
63.103324786393756 138.6080351843083 5
99.72578436880224 27.543288024644024 7
66.12818901962807 132.8306788090047 1
108.26872876079364 21.623527812706982 8
101.19505496324504 29.01954833316617 4
112.4270047073918 122.99215358314602 8
139.09974682009252 140.68756972315387 3
89.63531858643411 83.3807812192309 5
68.14963004026856 137.21869845148518 4
67.54218015907261 123.83804140288598 6
102.4713673418849 24.804310646521618 2
87.92065009528774 78.70632448619958 1
63.120442443102164 18.334569828271285 5
64.68385264722565 97.48807756816836 3
110.00565346249546 120.7142691263309 2
106.95055315556326 21.785846744002825 3
129.92863777685295 135.52658285951492 7
117.83403700510274 52.675986812553745 1
114.94525044343233 30.47708073728508 6
78.27527180954473 18.50066945327042 8
109.57730169338787 136.67990203431583 6
67.14791489687924 132.49845898644043 4
107.17270368449512 72.45139542925241 4
111.33748090976223 121.46961559798966 7
116.30874237672948 59.876324236637885 7
101.93380707914464 126.94426514573415 3
113.37147351793988 123.50524367313265 6
113.52131154332909 56.4074605800141 7
63.39069637425711 123.77806894583472 4
124.89522879183357 57.77060774348798 5
62.17905029625215 125.015960880717 6
67.76128739541313 94.70281329469597 7
94.99623810252852 85.84278159025291 2
104.39474109638233 138.58070365833248 2
59.64330999056669 128.14740078151047 4
93.95107824603451 85.8701625893102 7
65.96006421306447 130.247323446801 8
69.44208387868129 133.50102343907443 1
139.76871947474328 141.4376558223106 6
68.27439229058865 119.65942271833107 1
80.37372856530224 148.18211853652625 2
128.2899923799675 55.6925034856444 3
77.40139892460175 51.629530960329916 7
114.53876411536964 123.19212733250228 3
106.5423657384875 75.02697172198828 7
101.43396190507609 128.84601289822368 8
107.49702663149787 144.18097966809822 8
112.97529855987379 122.4661832873094 8
65.98290599486266 136.5716328453764 3
104.35373420588596 130.14150312399755 6
76.11584159274982 119.9500260042206 7
99.3660541401354 79.09104764027052 7
71.29794421481307 91.87380663465429 4
96.17308709265164 128.69831737518373 4
65.29160136797233 125.19050495842515 7
137.43448328903568 142.09346740895066 8
69.12773838696924 93.31319842278239 3
104.3142893330295 21.43558497049106 1
65.89987787329471 134.91811787800293 2
95.64516019722377 134.0822032904834 2
104.92566021180019 125.59283470492326 2
125.98151841561089 58.038687355287124 7
118.21405546985424 155.7509565858207 6
68.65551157063113 109.9395122829605 3
103.8198547604637 21.753442099160633 6
71.24903852814128 152.33976759226343 7
102.80972912727778 24.182832236444423 5
86.64642765288569 74.8238837010816 6
66.18045390046949 138.0050115548212 8
81.51644479341753 85.55284508357751 5
71.62976836364734 28.405107513080964 6
122.98160699361881 129.96404244912947 8
66.47081064210604 137.2095604554506 4
75.93220048837287 67.093608815222 5
93.98980688340045 84.86721778316165 4
79.18513713519356 139.0563917096045 1
55.999351264945446 26.904022588574644 6
114.05878519611409 89.71753307008575 3
100.90087170957653 37.43774342175817 4
109.19037451975521 126.45263254027115 3
87.6531898687384 23.03024117833122 5
104.09237861247662 131.335781548072 7
96.90983898951184 21.337893053257854 5
120.38892048495039 132.23024778872863 7
76.31934165934075 30.103923058897678 1
57.64066828127342 30.238912568251465 2
101.79243897133445 130.2484416246191 4
114.75949328524214 69.09228101839568 6
61.37101061390445 132.45251199986544 4
71.47564814497547 95.24488272762271 8
61.75085455736122 126.82495091495679 6
113.60743110755475 123.41750380428546 1
143.14254385945677 145.68936543579113 4
152.1584958868607 123.42217763369203 4
65.36128679737207 133.2622816109896 6
80.24140617044888 98.55894505047716 1
65.7181302470373 132.34344716841125 6
89.3409199441407 143.2391140342386 1
91.79089223417986 43.79402279119286 6
65.80698948681611 141.8201545376411 3
65.31224047871895 23.154768855161674 6
65.7149063947399 126.22264720612242 7
119.72607542432233 125.91975909030306 2
92.7097681724624 26.933948229330884 3
86.13118678975636 143.7127933076974 5
59.92733338332109 121.59276127997519 6
97.36943416740861 133.70031863942683 8
109.71264054356254 89.00969179190494 7
105.75064923137559 125.3407537094231 2
104.67856913463632 35.07776782069189 5
106.70977813262998 77.96111138386942 1
101.8121445420413 127.05166034249332 1
122.65430654071668 58.57415792224773 1
66.32839160989316 144.9351081486827 8
111.36368450908505 121.57411643612791 5
135.97744455792454 146.13097991763473 6
122.96442319045177 59.84956891455874 3
73.04188973737058 90.3881895367102 7
114.09821655796932 124.2339524882087 2
79.07654585709109 135.7781560120788 7
126.86732206961975 138.8313458304003 1
140.64973203025173 147.25172178548766 6
101.59498719414835 35.233868358063404 8
62.153612380499126 23.876445883217976 2
101.33141275122365 36.691365833635274 2
110.10274840594697 23.389794794260485 4
57.83562829803555 54.45628347658702 4
101.40673385732543 130.19050552685334 3
105.8684854479253 85.50441165867339 8
60.19276982399792 106.17100423138812 1
101.36532091730729 109.05009063350639 6
65.85521771042492 96.08894841411575 4
63.19402469379666 134.46168012128624 2
139.93691219276468 143.00073813053245 6
70.18035054722877 97.4974921479658 1
67.95043253447295 140.37416717734365 2
139.84536207709422 143.08911412095134 3
72.56740988410078 19.27565835063246 5
95.59280471857369 37.162056209633974 8
97.02917679415727 28.017161682881223 8
108.73524518025759 69.54512961744729 1
59.10953191904835 69.26172397024648 2
116.93822042895431 118.52969508172427 5
100.74911667691312 127.22505187659988 5
100.73995691852733 24.911018555196673 4
138.84923906460654 146.2239225682622 3
137.85477027838772 131.4948841232573 5
101.07438846279277 19.078920071384484 4
78.0232388000039 121.02256429114816 2
95.40302604945128 125.20453870178248 1
113.8450964933126 121.88485826330357 4
86.38835141973557 21.050549002087074 2
125.82219011708213 145.3317669261378 4
109.07490487464023 141.2931486629623 4
109.71608924039688 136.22758419307925 2
115.25273601449355 74.25500041815802 1
70.34718594945677 143.84874735806508 5
99.27358863380837 76.00679464584394 3
65.14721653435635 132.19025765161552 6
62.14375620507227 25.839342691652206 2
125.35144978743934 56.166514810663564 7
114.35459477170399 40.939312975161755 8
107.87232524904451 122.47999277681754 8
101.33487320367489 28.74348712510131 5
96.34766444368897 105.00106838251115 6
111.10588843397177 144.06629706602004 1
96.02136748665004 72.62906890946856 6
63.95608487276786 138.02383502360576 1
104.9390245478187 128.90867130621254 7
68.11125262826523 140.6644243391193 5
60.75518100790632 129.12475716582642 6
141.44827746039087 144.6566975169493 3
68.14796924459372 119.85146708363837 6
60.03758796410097 22.927572171092226 2
66.3518900663398 142.60189894951068 4
120.68911926988163 51.8049685192804 2
100.45600065347831 129.9543947540237 8
59.78959135422803 89.34641549739244 6
102.41164184574805 124.94511486725423 1
57.02435004492154 26.49036736710611 1
80.38596581512161 23.763872742728687 6
68.58974169238164 125.23810080819584 7
105.97414370272848 81.40550650892446 4
106.60167393401161 23.295391973112384 8
111.3997083295686 122.46285044506277 8
60.83206602304671 29.090693341479103 4
139.82141361237288 148.69638491816127 3
80.07999184175317 83.4839243959873 5
83.85025626448623 64.82537413468698 6
68.4392599267459 143.58529526885337 5
70.54739668823349 76.36685996488607 3
111.64579413550864 121.45791267985156 2
76.65439474767317 28.9965762864769 7
99.9784665355899 32.29131400650779 2
110.03837920156235 22.210330566628024 2
106.01448336594787 127.17632662551557 7
135.27919949502535 132.50588761711893 2
60.93570262196682 25.12533575232824 4
65.58893607460483 125.30311409769533 2
108.6046329298329 78.24422058655004 1
60.699690339754774 109.95748408656776 1
64.61476544700432 135.66160827500693 5
62.87814398168177 28.963719948338486 2
97.42948145534228 36.93368488951637 4
92.60397085534186 131.27744033803617 3
106.6587023188166 116.55091393864647 1
114.89819474067694 123.3256731096136 7
113.91440438674694 100.35074422398161 5
58.12148926885077 84.71693691026796 6
113.1328122083013 122.11324163668442 7
55.17604091712405 27.48982899252767 6
107.35885539743789 116.30305113483462 5
69.47535047671657 33.99755735668572 6
105.15961481344429 22.917682507883725 6
100.22902243372734 30.22106100120934 3
113.55565476192528 141.5419868721308 3
108.86131552469413 27.7589445802344 1
68.25683416075108 15.404283162782045 1
67.40198665894984 128.72317752828454 7
108.98979600259312 127.04462550163645 6
106.81090576264522 136.53659461260716 5
103.47184750693968 70.83795049881267 5
109.67106033812051 136.30214005763509 2
131.28825283640452 112.38419588054096 8
97.26204703235668 84.30633096394006 1
114.00158183516311 57.06322961432256 4
60.892445056547565 115.06885411191894 5
58.13356148138932 23.306542973398457 3
138.32547203346604 143.4666869474849 1
110.3368480764015 119.93357868906993 1
73.86458841051115 147.54050415919656 3
109.87391404999788 77.17883632280963 1
103.22621449119885 41.929386931102435 8
114.28447189608927 139.05304696491737 8
113.19305688612606 122.75736576969885 3
101.07919749695218 71.47126252547379 3
70.20305230282875 79.21484814396297 7
65.27755060835851 112.14765651790387 4
64.73855257205325 87.07345555855657 5
95.64407434072746 139.73205802543805 3
63.336738303173576 20.10408954440335 6
98.10886680603792 139.86717200237499 8
102.57251563934241 21.179026055027318 1
105.85532017211683 23.842951171260015 5
103.16430362246211 129.50361099766576 6
115.04760567762621 122.8558217386919 6
64.38732399598518 34.58040199348355 1
60.93145717474189 30.01955656701883 4
75.1875380630059 134.83254483434692 8
114.44531421062919 122.17483547281569 1
115.60901177713382 93.72350589347609 7
97.41473385361742 32.7561702335569 5
110.23628350209816 42.7548313109301 5
127.27211607518092 129.87884720449918 6
78.45288220075234 14.530699519667177 7
98.13754057932633 84.4123284101858 5
108.20704743895801 24.866264136462473 5
116.27125499789553 118.5492302328077 6
66.51746147127226 141.33703992692259 1
105.4374943636088 29.11158994476785 4
68.87783843016656 139.62306886873688 3
129.07682033673046 131.1026569596625 2
104.57761989292752 31.60523738454863 3
64.11493921166712 22.56015363787058 3
102.42798294909903 29.987567364694435 8
64.69074746353328 135.4989464547937 6
110.79286088328641 32.153204215272694 4
97.905546102807 24.04809158333277 6
105.42663020293165 135.18105789118187 2
101.59130363567498 139.04123851521786 2
61.07757648143198 19.306162814411874 1
143.17617875440618 146.31476525602716 3
124.49415347166403 125.43013680312215 5
113.19779137309338 131.42168889021067 1
64.38089666375038 100.93584794963259 2
86.81961178683333 133.65418486752654 6
65.19675543665318 55.827423651290175 4
70.10086081276638 142.70931039278477 6
116.01546527918674 57.1061730757695 8
85.14105118681263 22.98617835099563 1
108.83651276843653 121.87687198880026 2
80.42749268438429 156.09450262240037 8
61.110457248989505 130.48661231502277 7
132.4170201281622 140.7547798824354 8
74.7687842421381 39.150831178741406 7
68.31002440499142 140.62466854830183 1
71.46442339858788 31.985257098849768 8
109.2010185872384 130.97913844432128 3
101.3202950957044 40.321180559536714 3
42.84988709418778 58.87364101796922 2
82.70982492181538 36.34244637974449 7
121.58653376960453 64.90516835582514 3
134.76395373518926 143.04112906819424 6
104.58487678421531 134.13169399672918 8
62.53610965147677 25.398420788419234 4
102.83167383390634 115.21481011493957 3
66.21862923006978 110.05368991846136 8
54.7703700716267 46.38693831477801 8
109.52414085208022 132.19511148498992 2
65.90834619326021 138.84046533352182 6
59.2206501150594 108.0571704854574 8
114.57816836031293 122.91377369782957 3
59.57318603058548 111.8560696321986 2
122.74850541264529 119.83348452954607 1
101.63610062495339 30.630431306644816 4
65.90129737778669 133.0627663890182 6
136.0324050620442 136.85835791087592 8
93.640187632932 131.51277520549132 6
63.61638099663496 124.07356700083587 8
126.83739617669397 127.92624119685193 4
105.1303700709758 79.82241167202942 1
57.675299547934216 31.29562815793769 6
63.8832879737832 125.5108146310645 4
103.84987690460231 136.20359389310485 8
68.2050053597467 141.60275206089355 2
113.60528731873762 121.80001648643983 2
111.78752094261631 122.43177212807652 7
71.35600228956145 148.66158713577482 1
98.10644669008065 38.41071766042701 4
65.90939338047775 140.57371193166472 1
55.41198283627728 27.67857356951727 6
65.5336551290464 134.9097095345561 3
106.76017382760575 72.52733394153974 5
65.55782818316408 124.05182758243272 3
102.66180599320357 127.07997498378825 8
95.5641718112187 36.053617783322665 8
136.89489511485294 135.1897261403177 6
71.44920620215738 91.14947615294535 8
107.97358553767275 26.372004230933264 5
66.82095704672169 133.74567837927742 4
65.1138029165805 115.08299153931256 5
115.43544344143933 34.907592247174954 8
58.40385807118297 30.282541710340723 8
95.60298963123226 127.88553326545349 5
64.29819302265938 23.771942436429924 2
62.16867215343636 121.83511951690268 6
111.46041161899032 86.53601711342154 8
65.24600763127653 136.92563940487 5
114.10085669760215 122.86074694941932 3
105.70439976333157 124.48699431982764 4
138.42509650403758 143.5552181372367 8
103.31616314333147 122.35662714683322 8
101.25778450835455 36.23546309549097 5
93.09983310166437 68.96865016954112 5
104.82510079448235 130.57862855688305 6
92.29883898996925 34.16035550200802 6
115.82408281944203 123.5063142806324 2
65.33005244535138 136.79794794675783 8
99.53462556731553 128.36203367991618 6
67.97488740797624 144.103253997174 6
111.56199120743432 123.08931536950614 3
106.25525847226803 21.231967180293218 2
118.0110917973802 73.354565010938 8
101.36471141296326 83.86380158045172 6
99.94062575182873 47.33062078544035 3
84.36185683952696 18.73472777254807 7
119.32304615264604 49.684771749470954 3
66.96538660885643 24.94023152908659 4
105.32430742804235 24.52152111019131 4
112.22292045588046 126.35365737021979 7
67.04444957200347 28.951285635436015 8
114.26944982607428 124.3376228859207 6
60.19473608924757 27.632313855728434 3
63.983847349115834 119.23404468079654 2
97.3538480047695 94.3825060802366 1
60.54701320240864 123.58322556172556 8
117.48513714291002 61.974384440814426 3
74.27370928602848 80.47746112115226 3
117.58993857491986 64.37991744039284 4
97.18120713732968 28.91141260803885 8
94.74046061255325 129.77452709432816 5
67.0617731443339 98.55519679980986 6
63.40820679620057 129.25818732578168 6
64.77089800983262 23.30560219934985 6
112.68844426883456 82.83798739802228 8
134.05935546324952 152.10922615243263 1
80.53344860896588 130.67814038669331 5
100.97986203367664 31.377177993741935 2
66.57950837179838 135.75250938297938 8
114.28708114074261 154.45206768686177 5
87.89079708872178 87.43916780170053 6
135.90196128779493 135.07653230307375 2
108.31913248015435 86.49225426948308 7
69.52034207705816 113.77365142504632 4
69.96877115088388 114.62253543347266 7
130.76605257417683 144.93211016751775 5
71.94471127908157 137.61292172596427 4
110.86819943673157 85.09291455488882 6
111.89669938364204 58.81055065274251 5
102.95681558136778 22.510955548812785 7
64.62619090025157 121.64536681041945 8
105.0089663871308 105.27266183729702 6
111.28820570353291 139.737010134926 5
128.73964829203086 139.3968815901327 5
101.6219016101057 83.9097768075668 2
86.32231731603238 146.3459857200927 4
69.34729262432263 27.619772261861982 4
56.36290182022978 28.483787100425207 2
130.77703175830894 142.8832428670675 3
68.8188782751686 92.42166831783791 3
101.2145670296377 74.43779272714032 3
139.73373401987513 143.9031330855647 4
114.45272511372367 98.04937519214879 5
113.67824448271638 90.50727932261479 3
121.40376682743954 48.296017811685736 3
119.94557098938738 58.9814748995622 4
123.37979658535707 56.030367944803615 7
81.47574915437028 34.083646822389255 5
113.67024133712212 38.59474338843832 1
74.64011974132025 86.62892055258723 7
112.0097756927911 121.34403757403301 4
141.50215173251857 139.58701308702152 1
100.6697717044473 30.697865845827724 2
109.07505025179094 72.2051337190362 8
68.05776215122212 90.18308485828474 7
63.08392561075151 20.749040137653388 5
112.7579397478976 62.30143629617684 6
67.20085608663877 142.87275992839417 8
69.08456567618259 139.09489744527986 4
67.06779841895886 137.26113294808673 8
67.12213652890033 22.984122728356162 4
63.09092730717754 22.43173676743066 8
80.13893598374099 80.87030808431484 2
80.28821706411303 94.01258322699853 7
61.19696713435353 112.4576438358272 4
66.131275704667 130.35634700701817 2
108.8602465401474 135.96052911886827 2
66.56591330606705 131.85144478031944 5
32.02460383973368 30.143665056886384 3
112.30383031873346 122.44597647291626 1
106.15842130530109 143.88631357062613 2
111.30230888933295 118.21392869372794 4
60.927004921573385 30.011887062281428 8
112.83856939906673 141.29864486604896 8
84.63420255443518 95.21599631543384 4
90.61547236423405 118.7177683846223 5
66.35873273004637 135.41057090517765 1
110.62626077233334 38.50950490943218 3
137.31731659709814 148.6005924387897 1
83.40912717081943 100.74415600319199 4
65.54926703545559 136.09994837439794 3
111.68146255397 121.96594355444552 2
97.76867294678699 78.70788257887631 2
110.85828242392628 134.7291121161273 2
70.44630512554096 97.6291021649572 5
64.5152940794712 128.97348660801265 7
102.35259536238928 80.29667470942232 4
115.21192250514007 100.75977699499214 6
117.62376816139513 62.66471230550107 5
107.15680721652954 105.41659294883664 1
108.24675030221346 103.90423146853811 4
67.43955764168639 138.2850351416646 3
66.1324594460497 137.28286475812476 5
99.2309012911603 137.08503214511617 4
111.56456625554078 137.48492348123492 6
132.8485493016486 134.5119489052364 1
138.3650257353216 138.96627728120598 2
68.91497747603509 141.04670827565502 4
