95
0 42 0 42
100
31.4565977214018 23.073441350968267 5
32.25568907588755 20.239581118696172 4
13.224732061153485 17.121701050643136 5
23.13422684658701 13.299093582255066 4
26.221044983299596 12.858853624294317 5
20.957947581534405 11.946217645292467 5
31.48272112164651 23.766212802238773 3
28.973579881599466 8.407439568749915 4
18.18131028269708 10.671614834276857 4
32.03156098839795 22.13465674761759 2
8.945104929328743 32.74375636374348 4
27.67718883939983 10.588017973698935 3
31.83653036943567 20.38844464800148 3
4.440959381260541 31.105572919905967 2
29.603097919220936 7.856844837769782 6
30.192044121723967 8.763762929699721 2
26.756805733902222 27.070068604385558 3
18.183550129244775 10.179015858607807 3
15.2455942425356 31.870035737375833 6
23.93448940939194 29.50951772205949 4
27.057196374332435 16.956442634410568 6
18.3134176386786 23.108698069233945 4
27.730474834033735 9.07641164188009 2
26.5512012899882 10.191785080763548 6
7.234558687315309 32.32455098030691 2
8.69675113535273 19.504287212194942 2
15.778672150541674 12.340010711546476 6
30.43993907903532 19.767262484992024 2
32.78201506704924 21.791183332425167 5
10.120607273893574 27.26651102041786 4
21.996206720040234 10.949964453709775 3
30.936162116836122 19.12086051947644 3
10.241449757116518 30.04395769747698 2
30.191105993070728 7.879277937521029 3
14.43035936746638 32.89327471049941 1
26.420814971748452 32.12863740412718 3
13.024753580367856 11.957969707882656 3
30.28661009509298 8.551168139937598 3
30.657482054420434 19.68850397838887 4
21.98856276285602 12.765012663065873 3
30.08258871807657 20.47771034681923 6
5.279553204065782 16.580897099311407 6
28.865303727561155 26.367395942699602 1
23.845821589801993 33.08589654579665 1
32.55052977805386 13.98729962249487 6
15.479899371001725 11.888827062331137 5
20.612634359783332 14.164904493766983 1
26.395658370823327 24.687274523342207 1
7.238712530126783 29.255303870616878 1
26.52319557406681 6.39502562827941 1
25.836490059831675 28.23474072521027 4
32.32097359418942 22.253955973781135 1
12.850399461095398 8.165048769084876 4
29.698974828685845 8.173508814322158 1
23.206157655922798 13.5317956688299 1
27.971981689370892 5.088530626130881 2
13.833624229015198 13.265036711852995 3
30.16309809328012 8.877067149828122 4
19.74854120168451 11.158741890918598 3
31.387160054685356 20.382363262238524 4
30.094854239810658 20.102490267919634 6
27.76491777902691 28.2101097560034 1
27.955595972667084 25.66606784144112 1
10.053899960519152 25.844810429321445 4
7.433457430999676 23.757227281171236 4
29.05317970604104 8.847196597103741 1
30.640564631964082 22.458166291701907 3
32.157431393609656 19.972951058247315 5
12.563986170018936 15.863045264195781 6
29.63419450351441 8.65960252939059 5
28.50794664415016 31.968431762942167 4
27.292206172779892 12.81601551631363 2
33.31687003551154 21.48559232742579 1
31.164493616481078 18.83977041991818 3
19.991325838951028 12.884803833450643 2
10.486534433605845 20.82434530384323 5
24.391887955965007 27.065595182460726 2
11.316558104611193 12.760566060531291 1
11.111342310052233 30.002854323136887 5
16.079146649683473 13.584716173533302 2
30.414269962393764 8.17950386295575 3
17.1873144567242 13.598842189693286 1
7.031154279842816 38.90924232298039 2
28.691613831668718 7.112962018880086 2
15.95321280140699 36.2408231876593 4
31.31554707073319 30.19621998727631 2
33.42225574872885 21.328546564541103 6
20.06021694939232 11.861125280469892 2
29.53509221602883 16.208356000358105 6
28.876611625114545 8.76983878875927 3
32.875942897519295 21.577171525138713 1
3.0 22.509663243723388 6
27.509691369656334 10.64117188289358 5
23.83595830028536 29.247623104273675 2
7.878677528833938 27.3407919190235 2
20.056008696325275 13.443768980928512 1
14.468378734187475 12.686584276559321 4
22.76482693112423 30.52143516671419 2
23.31560156090284 23.89207576916746 3
29.8114852462175 8.510858340072682 1
