6
15
59.0 74.0
121.0 23.0
118.49999999999979 29.5
76.4999999999997 70.49999999999999
103.0 24.0
57.50000000000023 76.5
39.5 75.49999999999977
44.0 81.0
-5.0 39.0
55.0 21.0
28.50000000000125 29.5
80.49999999999929 25.500000000000007
34.500000000000114 82.5
68.50000000000001 26.499999999999993
37.5 27.500000000000114
51.5 29.5
40.50000000000023 33.5
50.0 64.0
74.49999999999999 72.5
44.5 76.49999999999999
65.0 27.0
107.0 25.0
6.500000000000263 35.5
12.0 35.0
41.0 81.0
99.0 25.0
110.5 25.5
63.0 76.0
23.0 29.0
71.50000000000001 26.5
103.0 47.0
18.500000000000266 34.50000000000001
76.49999999999977 18.5
33.500000000000114 30.500000000000455
81.0 19.0
77.49999999999909 60.5
69.0 22.0
86.49999999999741 26.500000000000114
93.49999999999693 49.499999999999986
46.49999999999998 73.5
86.0 22.0
91.0 23.0
44.0 86.0
66.49999999999977 21.499999999999996
82.0 23.0
82.0 28.0
115.50000000000009 27.499999999999993
52.5 83.5
75.49999999999997 71.49999999999999
60.0 30.0
0.5000000000000187 38.50000000000001
63.499999999999886 22.499999999999883
93.49999999999987 23.5
60.0 24.0
90.49999999999724 26.499999999999098
49.5 18.5
86.0 17.0
77.49999999999999 13.500000000000227
49.5 77.5
3.5000000000002873 33.5
49.0 32.0
54.5 67.49999999999999
49.5 70.49999999999999
4.0 24.0
120.50000000000006 41.5
39.0 85.0
67.49999999999977 70.5
6.50000000000003 25.50000000000003
97.0 49.0
25.500000000001286 72.49999999999999
17.0 27.0
45.499999999999986 25.5
41.0 29.0
43.49999999999999 83.49999999999999
108.5 62.499999999999986
51.0 28.0
60.0 20.0
-10.0 33.0
11.0 26.0
77.0 75.0
0.5000000000000204 29.5
81.0 16.0
95.5 26.5
59.5 69.5
51.5 30.500000000000007
68.5 20.5
57.0 66.0
109.0 66.0
56.0 28.0
53.0 27.0
61.0 27.0
54.500000000000355 74.5
86.0 31.0
-4.499999999999956 33.5
94.0 19.0
45.5 30.5
51.0 26.0
-10.0 40.0
77.0 24.0
92.49999999999704 64.5
