140
0 389 0 389
1000
54.34067206638818 161.39317554861572 3
173.67632299531076 108.19105386596922 5
228.4882757903045 157.05562504725992 1
192.194797134503 112.09571817256415 5
77.79158006818196 133.5932400259374 2
200.45103199591864 73.48785996442149 2
261.4391995116374 193.9467746428801 7
45.89845625785269 170.1123220775374 8
290.1188700507373 151.81026017146934 6
67.25276004905494 260.1177302460085 3
212.80228052337273 157.45830217288201 6
160.50729948401099 92.66405257452726 5
97.57923126074883 108.04394646272047 1
140.67843372146382 125.88516094642253 1
55.01498964418699 270.7591208088627 6
291.3934254901145 141.51430395168856 6
91.59269199930263 148.52845315079506 3
54.23155023194075 242.6052986734396 8
119.78519537522958 88.61401872112071 2
57.95297747133195 254.53695981828577 4
232.50298601978557 327.72190138719907 4
43.18860073390467 179.64236813377906 8
53.027201360013265 178.0267210589316 7
316.4327097410212 278.87874075916693 8
47.34492322544692 153.3299559671253 3
105.924742209365 264.95886939808287 2
61.19089809166453 232.4784278807921 1
61.962778373623436 255.22216564350765 3
276.4917977712817 146.7523660341546 8
324.63379337089185 214.95574444201773 3
247.03348715983162 272.8023749370649 4
93.4747636737581 264.1280686030158 8
100.55509156729912 154.5500274345872 1
56.35226025986093 263.7993648418688 8
164.1359507422513 143.01679272445827 2
55.60871408876035 179.06507801024165 4
90.77688222089938 153.04915853786306 7
56.83016018747372 270.86905115941204 1
181.92251269875086 210.86579469304917 4
165.89367973479355 240.9214991112515 3
74.06267408410164 131.69173677130019 4
48.9604871440902 157.70345598170454 4
196.6776498004828 283.9133724471463 6
43.25429858644516 180.62792046167638 6
64.31051136483292 255.40559768415923 3
90.60385266817741 241.9131579065177 6
83.478583499372 139.74285008062012 6
236.30813313704192 228.93062619509175 4
110.11001779597272 256.9299344908175 5
66.6993428243088 272.4100745179771 6
59.83470113464993 251.68031952670938 4
292.67617089673075 273.35075073321065 4
217.55400626513722 116.07636348886489 6
105.39466708607591 252.88584034037288 2
273.63493513699456 164.96597506918715 7
65.94451752463561 119.39202136326547 4
82.97052054454 255.2090754789943 7
108.50881542505034 122.64602285588235 4
70.57436911847314 239.17201152425315 3
268.17130015740804 263.6684663894838 5
146.02801597841363 118.26200340162298 8
289.28550266673835 168.04190894323287 1
59.0121343864935 169.2818285245094 7
107.53528434534397 127.6587587394422 2
54.95095071841764 132.81367671411763 8
58.17341017452425 146.93733277700747 2
129.81893677865054 118.68731939859467 5
286.61124528763446 251.05965909725674 5
51.876110180014656 178.0437682028435 2
124.56077660249274 198.00046089530008 8
51.923996281767806 200.7597444586825 1
60.10375717088214 264.8447031568024 7
102.51044962069722 90.83576812209726 7
171.67701768979572 65.75211569247406 1
66.28600029439342 260.6038654675005 7
67.27288187517242 224.1498770940043 3
293.5221396986676 227.02043175993234 5
296.3306721008906 213.08127077644278 8
50.90854289621732 172.66473854370435 6
189.20824282514636 181.4093511350353 5
50.95260439998816 247.89997719509097 2
237.64370745140695 152.08680221474637 2
60.192943152104874 265.8933152695064 2
276.82663030621376 170.9664298269677 6
181.09271810155144 54.66196969227798 8
118.40240108479097 113.52792912342139 7
172.8926530685684 173.24689200102912 5
92.24748947223827 254.859701636344 3
106.36960930310421 67.58957711007912 7
94.28594215455975 257.50470225408515 5
100.71966869226343 268.5425895700322 6
54.25064365214904 153.89583262478308 6
62.07223350997087 187.63816254808842 3
80.49207469043643 148.22480484554853 2
137.45860448425483 78.41833634111825 1
177.32619799387763 106.18855935229155 6
163.23588157914276 54.349755949653236 7
77.58805651360368 142.59240403661545 7
70.73316269730286 147.75544680364598 4
227.82161141051466 159.3615314453903 4
54.243645000644996 156.51454580963426 8
74.34573937028873 130.1543799237538 6
121.02834889179648 145.80541012153182 2
275.7893459993261 220.87413553728607 3
56.06443155105576 154.8032949775637 5
88.13146284274704 158.80006987337583 7
229.28353899560494 265.9304617248702 8
140.07197034243194 83.39795375987163 8
291.663549413047 177.4932288846054 3
74.83956910504315 135.9411872878779 8
212.46589888057702 277.30971539655815 7
246.53084686767625 141.30313344429598 6
285.83728700432914 247.0635576494797 7
52.32233215265064 258.7759635823701 6
78.83074476458877 242.12518435272284 3
56.53027123270502 186.3018557416091 1
148.7478207496287 283.61058766563315 2
169.0091793711167 121.57053777014656 4
109.11877639149539 264.5567290599409 1
56.04813727614058 179.1003915935013 7
196.27021172130557 147.2858866932765 1
317.46378616875154 198.36800216515613 3
58.31053237322076 278.2796936827401 4
63.19269139432645 276.16840573178973 7
150.60159430903752 284.71690439921497 1
65.42183036241909 186.63856213384662 6
260.88627432722734 278.3010644165869 8
110.39130192313749 253.42770546627256 2
175.4571487749331 77.48120827206145 5
44.48676274264822 157.7891013017942 7
70.43746658601745 133.35741115478774 6
101.66634958204347 246.00163569841936 7
55.53891406001996 227.94391436204077 6
116.17484918367903 255.5071885943581 2
55.48963216648118 124.93640339550056 7
38.67504778785024 190.01179195896262 2
68.53912366423161 258.3087745145187 2
61.35504074492788 166.26968149525322 2
298.01225757464294 178.98392979986392 2
276.6154607896382 286.6592627678788 3
173.2160475572154 56.8532847871983 7
192.40190623494726 146.25708261188663 3
55.31998636107557 283.51336973800574 5
184.8425739934355 147.10714786251418 5
195.58830705791365 279.83317235025385 6
176.10281289884176 120.83582701949453 8
166.69737714008164 60.259416552498976 1
104.58924140290841 121.79261977462366 6
110.11589043088358 226.06425835326544 2
54.107920296869516 179.86877413774678 7
62.30007285172649 138.309483957393 8
264.3571264123481 311.60510466863195 1
78.37600546262091 148.86906071457452 3
290.38878220549583 206.0338602950589 5
53.11796820150455 260.56737820509926 6
60.05670085084774 259.862129554541 2
181.64854218248936 146.83957533073615 1
80.65307091463696 154.01321349870238 5
310.6011716170678 241.6231947749111 6
84.64495764086878 143.56897073782068 7
42.651275722749624 182.43157605173303 5
176.06305021383332 192.30427745738152 2
227.4685085872656 283.94495675389 2
272.0126763070468 228.31002712770257 5
57.362779741467364 274.7690526705119 5
117.74068634234632 260.2210724359079 7
66.40268794318646 258.77017405849415 3
61.21959388503724 231.1882827081984 5
150.52137005218486 88.54068381249306 4
257.6201776013161 172.33963086928983 7
57.65045838453408 243.1570033566571 4
67.58562371390242 271.7855688188011 3
318.2443758724982 215.7958356937834 2
269.92185502082697 159.21746047438043 4
51.704608672709305 171.49962711406374 6
129.530707861357 94.2640586663995 4
266.5767763221397 135.7240845932749 7
112.83819582485289 249.53880197434373 5
104.98287345360673 263.7802230431164 3
144.30442020828195 157.19661155194095 5
52.06513996422427 165.23481369460754 4
63.242656786528904 256.67325975854607 7
74.89487571559383 132.04533606196276 6
92.66154548919268 240.72380352821153 2
278.5603363905467 243.5370627585437 8
35.31535109266924 179.82329164225473 8
85.14914697015136 81.29755695283731 3
85.22513256444135 255.4430827675753 6
293.45548088624247 168.5153582060374 3
190.93090534152222 134.45445573689452 1
283.7226336651123 208.51146962677865 8
83.33767342858235 137.59915984941463 3
80.59542357067542 310.91924488226283 7
64.96025491423907 203.97801945165705 3
107.64104842264257 243.52028088824017 6
125.6187968793072 93.09522084385766 4
113.97796565079483 258.74775007143677 1
74.60876283878584 267.89544859651744 1
76.07329634593792 132.58660597857366 7
100.84652858706062 250.70298796397637 5
46.3724872882174 160.5496938922693 1
142.9922828103429 144.04045854100477 6
149.7427402174095 84.7032935164767 1
89.09780496350167 162.90735691331628 2
92.4661730747026 116.15863149396164 4
231.58756850517585 154.3515029893854 5
66.57755009456312 154.002800987995 6
61.00397631533376 157.8036450218626 4
78.10900453201107 135.3424025267863 6
62.9151247767656 246.41526516603005 7
84.04268700013526 144.3788333123919 5
63.58666486429687 137.86329565501467 4
82.9228737677604 143.20489258169218 3
262.9039249491045 268.2643741566311 5
47.36913945352129 186.98801289551486 5
52.02195605949865 188.70985319450205 8
112.34925170871196 69.18610779640827 6
126.12139439993072 134.81133901071664 7
134.70895179920612 102.5909542784762 2
158.2444307177694 210.67909746405147 5
167.8548243837333 96.91954092698418 1
92.70151625748295 157.74303154303416 4
68.44324935288762 119.35635047954962 8
153.39782097833205 72.35859721740614 7
56.13823522283675 231.73363274625385 2
80.17027163276416 140.61307467262645 1
101.33118986663168 253.8997297158065 4
187.57839686107465 130.03998070267306 5
107.87301145731523 260.4030496397921 4
76.79079751894535 139.65304895707592 5
143.86326268161042 101.80894559389107 3
45.30780779462093 193.4109450214764 5
182.50577497637585 78.54284925202674 2
45.85122280798473 217.14489527692825 1
100.39770412188422 255.20291891097744 8
83.7510784745319 246.82433546857055 7
130.70177400819065 266.55985393864415 6
124.41271624526574 95.35773154166483 4
253.33277002943834 151.69156834314924 8
112.78996611684597 260.6247493484462 4
140.6524017371681 245.18364733424633 3
169.72939632427745 155.72480292153477 6
66.14680838934606 123.04710122744568 2
202.91582619467064 285.9345250780405 1
281.3924209903091 293.9354883268924 4
55.209760602430734 162.5806851596688 4
156.7498008952453 68.5252545927619 4
72.96760553877316 268.6383326513652 4
87.01889359503471 145.36870997674345 1
78.51728106260921 139.8401826280915 5
273.4185780489821 101.80402310888645 7
158.21300566604697 200.84314889836128 1
69.96724198345105 147.11860707265316 8
177.25936164813484 143.02655369938176 4
112.66390630635492 283.7167971842219 3
208.92002345748182 144.54327623222215 1
215.62854837998088 133.50437508437852 7
56.596148591236236 242.11048336193227 2
81.61268289404059 141.81620574321286 1
188.59999397099713 79.20988896047703 6
62.87781332145529 260.34220563090145 1
213.67642904904133 177.96308753943046 4
74.88030884121748 256.17386765006864 6
134.65269020000866 132.77945776289727 1
63.00847986928328 259.3006867904133 4
133.47391103038967 222.82183010050926 6
279.40031009529963 214.5273805849661 3
256.3629176175615 171.39065611750925 7
62.06023227838079 272.28237280920064 4
66.03053735936916 157.9024356270025 6
53.43972251276969 278.2306367625404 4
47.49186369335507 237.82807712439816 2
271.0913013101653 135.20245271726216 4
190.99148138237123 46.22596155795715 6
253.1480053859955 153.16411628584143 4
105.75650471247856 245.65732896450385 2
179.40444788149506 164.92426017167085 6
85.3097515920057 250.6888088642062 2
81.05287399435221 151.32123360990303 2
249.66788757887608 158.11359026540924 6
79.62056215190482 251.45174252962155 3
156.2905859164201 270.3558011733157 8
126.00115336176422 81.92997401185029 4
87.88284107581121 160.47400597249518 4
131.098779961212 130.03592864846752 7
97.97021103610196 90.46874341241691 4
66.5755545287459 124.85016460838254 3
118.24641251132357 190.30669720572604 1
281.7834542882454 141.95139470513266 4
129.60488627088793 105.51926241927134 2
52.66683199733258 271.6636702040939 1
41.24568947600993 188.90050138051566 7
283.58261340700284 170.58924044629276 7
58.74749634247709 239.70538796873964 5
65.64278260864363 155.46520488064812 6
57.64210679055804 211.5081631286143 6
334.1146556812661 232.76679813783545 1
69.78669160512709 259.0925802417174 8
275.0160523650616 126.71626995994654 3
83.5036687023887 135.95617719348962 3
109.79714847233637 234.59085447628772 4
176.71141483713444 155.3195772565193 2
156.4806718961427 263.5907334220556 8
78.57767586341939 145.6763080237483 8
36.73416969295603 210.7788693987283 3
87.6861740521489 254.22996703175963 6
80.00035518824464 136.62125698385088 6
86.08576190034876 165.0963637091919 1
265.9560345579518 288.7738302742544 3
271.54138822932134 226.9338900799021 6
45.82207807493824 178.5822008713229 4
246.72262570430047 147.03357180713536 6
239.65153514263145 273.1118575447067 6
173.24885122851418 124.55645197027441 6
88.84860527439542 141.60144570331084 4
150.72697189097482 77.13004120239108 8
80.10196939364967 146.917582444254 2
220.60204975977564 255.5861628857678 7
282.87125663431505 282.15568668789615 7
93.6218811898447 115.69940217991335 8
178.33976524385938 147.85619423275713 6
63.37028307696797 270.16311909248435 4
78.33453845474632 136.30888561974413 3
222.2757706514411 313.49240436540657 4
98.45166894658801 263.099851073623 3
92.81093488164923 159.635039073846 3
75.90532590133598 128.07287762389433 6
212.79340514864685 163.86913255327974 4
273.2268573219644 135.56897428233057 6
84.16981310682529 251.84106025615068 5
107.90620118200864 264.435087328942 4
60.42752444253786 117.15507431711745 5
108.33032565604526 207.9761810986897 8
309.1506376052605 252.8629907547855 8
90.86686528963344 157.89187573364038 4
164.36937422104882 311.3379446885869 3
59.1432750351075 144.41018299888805 2
61.67207299658763 256.77810119256003 2
100.51483832589396 253.1703330635966 3
57.61234892417924 150.7283977908919 8
286.3388176837666 219.60739451739857 4
92.01349572416972 133.6302523987468 8
282.85240574970845 196.3526681097659 3
69.01391940468058 261.13238192619326 3
76.074232772254 152.0087554327274 7
94.9171390539421 237.70867586434602 5
59.41852035543283 112.61560164334759 4
92.31657683279865 154.6718234752568 3
86.69993375943153 149.415565127773 6
58.0628231190575 282.1555986302341 5
79.98707815481356 120.0689423776787 6
124.01095175027585 82.92743169136527 4
280.3584859104378 293.7366750417139 4
95.26066186454477 154.1191765424727 2
159.7481821345562 298.26522733992226 5
235.18637914352757 154.86345680206816 4
168.1427109964643 181.74404786215942 1
55.694519791129004 236.2367577480581 7
81.39722969954184 129.0046228819525 2
100.63993997358526 245.75512786054696 1
191.73654853589548 63.828532744619565 1
56.243541704469095 176.11545420260225 5
59.59406787418578 111.70201685567505 4
53.662586360344704 186.30278930641683 5
92.0868172867106 251.15497102896433 7
47.929918507987296 116.23299549533041 3
292.20967775661074 221.24364544808577 5
149.20996087525594 94.45365585592333 6
146.93846301155222 206.33998914675885 1
132.98358180908485 91.99302624622408 4
93.12251273294179 113.27249923647622 2
145.17417317950031 265.2146845466249 6
89.76448497216361 152.5039069535251 7
56.72966035510361 149.91964866513496 1
232.9714612915784 173.45984204183833 6
60.45993702901268 225.44830801601455 1
277.7190183844238 137.66888857385072 7
170.90366027072304 106.52312864721236 1
263.8960191698761 230.89923397097076 6
86.43984404717214 141.70761859665552 8
85.18748214499996 135.8516089315102 7
62.44336978243801 283.6849627013911 4
56.46539102093723 229.98773724488586 6
58.54926587276524 283.5591066258981 6
61.91323576700749 256.44198931230994 8
290.51718077206937 160.68925506191988 7
118.6649639381419 137.18448007178145 5
73.7110026585952 257.32142470178854 2
60.05661170867945 255.61932719305642 2
90.22779608702062 251.39848153411288 2
249.03508400913492 290.60326786003816 5
64.55818874026987 258.2850900099244 8
84.94284748933524 254.75235159036046 8
39.41098910711813 236.27174943247417 8
54.37375509733605 144.7931899733589 8
60.46114893066081 202.81122350827573 4
267.27329591187424 190.2846839936684 1
100.49331700746757 256.59557255749934 5
103.14689111705886 252.82421411273833 5
53.4004634426291 114.65106613170012 8
50.473639710755 282.98466806328105 7
131.8970416898456 102.5806028886691 7
49.35125043208732 238.43948009239895 1
54.46276143752822 210.2284855917229 8
110.83278505767541 263.6696750352024 2
68.30448800882901 260.8995806773157 3
276.21409457008747 180.7493700022528 1
56.33884345500569 163.3507162043365 1
143.33420038578384 92.91384625775295 7
108.66280801045001 260.38744900664017 1
122.56886595968625 102.70455238806115 6
214.8535253252355 140.18794632358185 7
268.3618421769677 298.0944333951215 5
52.41147664660114 262.5007290931931 6
87.2225517156078 243.5532350094249 8
278.16424585515637 205.24704114377607 7
98.84894487022639 262.7010832023576 6
69.08045878136116 252.5041474575308 6
92.13220478582018 241.3575210528193 1
194.06649089860102 118.61845725717887 3
55.435500667459834 248.75177967964203 5
193.6626036338023 131.1997703273268 2
157.70853078854975 246.19950384368357 1
88.53829689175613 153.56495037789182 8
143.66070337040134 147.93142164921326 7
187.7109305698564 134.11925541879287 1
32.127439384236666 209.39052064027936 3
274.2536998993989 256.6250182734954 3
41.65598855377368 171.24502647566516 8
108.6500552071302 262.6233171153363 1
69.77010014645478 261.01981939853 8
100.72886394101307 241.60505516579528 1
82.21104890778057 140.92701933130664 3
81.10749484581886 144.31707746164724 8
272.92155752101684 144.88596685017978 3
64.9926360599443 257.98238040734566 1
116.61550401744857 243.1874168992303 2
184.56401260602672 285.174112557893 1
58.548701131568166 242.83565865990695 1
70.23540502457489 119.65288955909428 1
58.016593238077775 172.1728936577781 1
254.48653059366495 235.80546454024145 8
90.6949899081226 102.96112957627197 5
166.5696138302711 71.52589755192939 8
103.53535218789817 266.5210478945819 3
278.82960910201365 145.6664278520881 7
197.88034311698425 141.81859055333817 4
75.70673741039856 139.73469321526346 1
202.2756846927656 247.00158998157806 7
65.42826534933664 152.8658744593589 5
64.31363205421277 265.36082637399915 5
121.87222348397914 119.24791971147025 8
76.63747463504713 133.9968577115523 4
238.36199300544777 145.844799228002 5
52.72171320154729 170.4751881282998 5
322.71630682108326 183.06141283480406 5
280.4958519414693 218.77037782958433 3
103.56582145438483 248.04650181124745 7
97.96077401073484 249.23068773214163 5
100.25396105423788 253.25075566281745 1
55.621175131215814 227.81505371146545 6
226.1498256570026 170.37010233933836 8
52.55996292421071 250.1097930479968 3
47.169810183682245 197.2051389674576 4
142.23315227483465 55.106773832801224 6
33.140982740434424 183.57566716627926 3
286.0400826950034 157.4269411708386 6
63.4307395060859 150.0619550667991 2
77.40182467963946 136.16648773077657 1
75.49874265332147 144.18149563043764 5
57.01748529205824 174.82095535244903 2
180.7297310478555 137.77919749142995 8
281.5506655872494 179.74016075103816 6
77.63174456552025 142.75057861316168 6
271.5504349950945 196.37261394981076 1
76.65855108646441 254.78256525228744 6
219.53226467457023 145.30335081823492 5
94.60566607103037 103.3157399286876 6
177.67363938978045 165.57144178355497 3
78.09654694924352 132.53234984856817 3
46.918913393070895 200.94708134222506 1
95.13239063295585 241.82942328788224 6
62.40489644679339 256.5744769527466 3
174.11095293864656 112.75424386366781 7
267.2065484175849 303.1356736872827 2
286.66669320611794 144.4919187195126 2
114.34669565324361 106.11368009651531 6
90.42716229551982 152.92039866514202 4
281.3995551513133 130.81765221421892 3
91.64782336964166 245.83530986481378 6
59.217943937124765 173.12109506248424 8
41.8812498155151 199.6932305717703 3
168.93218941158517 132.55040592449527 2
195.61425395110064 139.93649515011452 1
243.77814245936833 310.22341856708505 4
55.56784768623822 146.8157903875659 8
284.1754425051824 186.95087068483252 8
49.08096414368298 211.4157971111801 2
64.64060812512409 250.21106840290045 4
117.89183648373529 285.45187187794096 8
146.43594993787403 212.83609921457108 5
54.87408795696896 271.82862974580127 8
59.40079857555811 260.1609034743696 5
109.60229830980198 256.27736727693576 6
103.99762086753195 252.11614334689125 1
46.20703768455723 180.07972628009222 8
65.83691550299355 273.05613582085425 2
77.09848467973491 149.9170069964768 5
207.82785972367043 198.12559359288372 5
141.33056209323277 98.44345399360817 8
68.06373796585967 126.66700690587878 1
78.9581828149721 243.30085696464744 7
67.65667114736547 248.04342339698937 8
225.79219237060127 316.8515497742938 6
178.68926106388744 163.94930642173796 5
58.16604141067032 258.7248399266353 5
51.460973649105895 220.12418601563206 8
297.66605266857897 175.44477575640263 7
58.544452241167825 239.03544015184963 4
299.7812015187363 176.65527354047776 6
102.98967153729933 258.5747755062027 2
57.21303712300646 119.80283358140998 2
150.23059794629825 281.98318718499286 3
130.50513346756426 253.55283183086857 2
139.37764278005017 100.4387885165484 7
67.48507280607473 259.2940164470656 6
139.16766852036793 101.22133498681647 8
209.90867418444716 110.83547913032551 4
295.55404886297754 282.44534412514105 5
81.07558877933232 143.68874859596545 8
85.63334319799785 138.96838187314242 7
271.3345452150592 193.24612130390292 8
91.87840002776846 148.77843311748296 5
62.95987577823436 240.74577653424416 8
115.41585736846203 263.0414178577392 8
134.02391123437602 93.59732197680103 4
53.997941807684896 151.81917777348485 3
92.33407995122109 155.311702045149 6
153.19731365344535 70.96197753418184 6
90.8544224594761 150.78999524079907 1
46.26069338812305 188.06583526119584 3
285.59853238868595 240.31485768480903 1
176.00515965086484 177.08982990592693 2
120.31945049910831 234.71226448740916 8
56.24627366909876 239.0627819275719 2
52.34310730008483 195.49373543867895 8
189.61578457857823 47.7791629368737 5
298.28732915688755 202.27223996191032 4
256.5829728645167 268.2446290866995 4
75.28921772158087 138.5317411372709 1
110.1096585443587 118.37109505685146 8
76.52910725523815 127.786765302966 5
69.27905019467006 237.9532967535943 2
54.22275180133087 178.1410461237576 5
66.54522257053854 253.2955237033878 6
92.80002595382874 306.53581760763126 8
177.68023756455122 163.775040135846 3
60.01721123817657 115.0226460951798 6
85.6834904838684 144.9516172701058 5
57.24997714928871 261.9651252114795 6
192.951947481643 60.10046874122128 3
167.7010595161579 63.834865975044714 2
294.3858268768361 261.77294630106394 4
91.91625251330942 187.27077667469752 6
119.76703097042586 218.8825625388499 4
130.3559399733012 205.57311491872147 4
130.76901860481416 98.26301887757059 5
122.66844884359004 237.4273404568709 6
308.0345880207943 190.30426637517323 2
176.00862093838654 231.38019422857428 3
282.3531425407817 145.93656414620446 6
212.88262703334706 155.92502916994354 6
82.93609927576537 254.02145034123222 7
55.5435729249617 265.43813380298656 1
171.51634458249305 75.73257981612149 1
61.11351529669825 116.33340088915708 2
54.48029170144379 179.94673493242186 6
181.63937293841477 147.20836236353233 5
68.92227792804267 253.85115854497556 6
276.477292928656 137.096897745621 7
112.97332172127528 124.94059262332536 6
247.0985305473402 193.3042305105778 2
78.57615641041673 110.76256810804418 5
174.1489455061099 56.1489622442561 5
102.13559570319747 126.19902666118746 5
47.66936027553869 180.23654806146044 7
55.7933503170099 150.07586200409045 6
42.648566466755184 196.7222069646224 5
208.69991229708626 77.75004315895336 6
66.25729121297043 246.8396390718436 1
203.85954245378636 140.2371425898994 5
60.74707005278674 199.25390769389307 1
51.76702410060245 185.60862384127722 1
119.7022079700145 93.02946289342714 7
218.48883501109202 276.5916426211787 3
103.87481141009509 247.65439847457458 1
169.72192999468407 190.7366878185252 2
88.11633329509955 133.64799770207944 1
305.74862851266454 197.75554560031796 8
88.41733877742121 135.18306131576622 6
58.349006301456136 125.1292014737221 6
280.55554360581834 267.07170535247195 1
57.13099856329466 155.14357051056655 5
304.5638307358493 247.2860090900778 1
77.47469782939868 140.60801272512145 1
159.80664602778867 146.84508493863692 7
70.64184350959441 254.0532419211525 5
245.83011635461358 194.72372434499468 6
74.4256521067076 259.1717755191061 1
65.04346259839534 260.65879883605515 7
142.6884341189994 253.2191425954996 8
175.63712507057718 141.57450294759772 6
281.8997742453347 197.23468381945474 2
291.36959395232526 269.43427015041436 3
194.2235130582102 152.99312481547557 7
278.9903760542352 152.62052076389787 1
84.56839908320799 139.71297897619195 4
85.92404683923124 248.98956238238964 2
196.6890638085277 159.25769346128249 5
263.1834170041815 285.23481314581875 3
99.01914626294321 155.54424161705663 7
77.24426281726836 250.2815747867965 1
105.76801872188551 263.6113886424018 1
79.26968927043151 120.67762700810641 3
239.95095405890498 286.09916122390285 4
151.54928538083485 37.42194101500721 7
107.74923958543438 152.16296739363554 2
83.61381659464233 251.7933062194062 5
91.10885327798545 156.82695475087297 2
58.120056692724674 161.4102895474688 7
60.90986257870869 221.24817952102333 6
103.31353431158607 153.88372334529595 7
101.67767743485102 267.4680342466655 7
99.1467851173195 261.92587476433494 6
79.22691585546107 253.5464033681116 7
62.80928272907067 134.4356748713168 6
266.48032083017904 146.64728845755673 4
54.376118207826806 232.94834259268 1
300.9122823436685 222.6845434338503 6
246.72687630339615 349.48322122084335 8
70.00168875108028 124.19950755719518 8
66.31479500384468 134.78539426727204 5
236.31539289025758 295.9701495188258 2
228.66742708015542 282.32252083371947 8
106.03449323654716 213.54467787700528 2
248.30688517303977 237.23593855358877 8
88.95120756650516 235.4240838377697 5
49.43749320159647 200.3691524799565 7
106.03238185729494 132.503485729715 6
255.9851257629582 237.87425428301782 8
108.39494930425762 250.17197721883173 4
171.4245013706464 116.60358974204614 5
93.11855789401609 256.93882647783784 2
182.11423121906705 168.17080510704946 1
83.72107714590246 249.5944736403972 3
237.622717640089 313.21699938495317 5
64.44883696243338 243.709392823108 1
205.11745260480956 124.94555185786955 7
58.72501765375597 218.47509698078167 4
96.56535794606334 281.5700705697967 8
283.7632511636912 228.65715611738472 2
107.82820555397244 253.36201925896822 4
54.33885306928682 174.6325715713204 8
291.70228978096424 207.54600894044336 2
114.23652052215937 92.2575443485973 8
199.14501391018177 183.7968457635456 7
76.46735573440205 138.60508635748803 1
279.8951730434604 188.36448791234417 7
109.5345671119527 250.2252889916088 2
75.49951555731528 136.56099688013353 2
52.02819650167555 251.11063820339075 2
78.22901889272438 138.86311520954757 4
272.48021003276205 196.59134612470012 2
90.10302529896768 254.4805820595881 8
79.33671077873753 254.68188248619717 1
50.90606295768353 247.68600796414395 5
306.6684497847264 254.42666312362033 2
38.040505042966416 175.14610719122146 5
93.32306852192414 161.91534658415551 4
52.51439335978835 225.48565994402557 4
188.25176831612086 173.3491280118962 1
87.64181699775921 241.5122061544398 7
121.56176894993138 258.20373272210236 2
64.94109617914191 254.8900661256964 1
292.3901774733726 198.8798056753952 8
50.351360487462124 233.840556048641 3
153.81985515647466 217.76664599306145 6
273.8451620437986 273.3367261531546 1
56.45364582356066 193.34764385446184 5
293.0740658220756 175.54917586778134 1
65.81901941236328 270.75214231452674 2
190.07073597482335 60.53381285503009 6
145.10477133736595 252.98964806741466 8
179.39346733644658 128.11041362259553 8
63.43772106945231 249.08115145496657 8
62.59516932658413 260.935714845426 7
72.31278535347549 146.88885492290123 7
63.29011531241662 162.43387489451737 3
78.46516827934279 147.23017036052613 8
64.5337571323181 182.36938208821837 6
282.25984328804384 331.80818761002814 3
54.235636016885486 174.605845175112 5
244.37833191633493 138.60372354213848 8
181.56017783766438 200.4233068089636 6
55.57822590911467 164.4047727693301 2
218.6368571030765 158.19000509559996 1
236.41138480216898 295.29435048094183 3
97.48586948545082 112.39456624214075 6
129.3864381591951 110.27097877615469 4
172.09056435069985 166.17135964957615 5
283.27649988088024 146.3647769556588 2
72.24790933747028 252.97219757867651 3
313.80961763075925 192.74056722956652 4
82.51515152559038 139.6847547372716 7
240.42983179762723 149.58564831018063 5
125.570158966449 261.60563751563666 8
59.370535278784615 241.93917351791927 1
47.39270233292625 193.08293786965692 2
266.9832019324821 302.16556522588024 1
78.29070630350608 152.70837960472764 2
49.0511723938918 210.23131049568116 3
76.83198955426164 253.28220412648918 1
229.65067886699842 238.07059626382312 8
75.86929109353603 142.03689531458656 5
164.51114210543273 180.26356383917758 4
48.98066132141885 179.3654642638748 7
54.23824551515406 125.836105159976 8
61.36748028526086 178.91683765139095 6
58.7434112345866 188.7422497766415 4
179.86590452823683 155.73598137320553 1
66.15181879369446 191.90555522892916 3
58.64408638044056 284.60284107258894 4
220.42640232733396 317.8762415058474 8
98.1091891039564 243.9566613407513 5
62.10466992746052 256.5482070642009 5
75.16363789335625 148.09418823799365 4
196.12033613712822 133.97036567307185 7
62.61408492042383 157.5449279558133 5
85.37321864473526 246.48902736189228 6
77.26752741253227 126.33749810317714 7
120.98108256587571 104.99844557413054 1
276.5773456561618 133.40192641089513 3
91.30613388159082 252.94582807047922 8
258.08198632321506 171.55748336737022 1
84.63768042866377 162.34899678708106 1
254.32186080392444 206.25534986010862 4
260.7375143260556 235.80393904643282 3
286.90291641225014 160.8432276413899 7
117.82567378353619 125.86716868572265 4
130.3182741706603 225.6879480237906 4
58.104104156035056 153.12261977703574 1
79.31917405302852 146.8858584276911 4
78.635286113515 137.9521291060423 1
59.95285309187326 164.1592680037464 3
77.724915726945 144.0850060309084 3
54.13163653108843 281.09589766443554 1
160.01298041926077 278.42300259540195 5
65.14734784901415 219.35196802185607 1
290.2617444442012 214.1326635644491 6
51.2153035309301 232.83032407438546 4
93.91681817212206 260.8110681098596 2
57.487497734754974 228.72717407477953 6
238.8106295719026 184.8413309428201 8
301.73051089002644 225.3474012748813 2
129.47081709481495 95.88333749573101 8
107.56027476805042 229.16883133678832 6
107.5620841851999 184.22137531789105 7
179.64183526755795 260.8439139404495 6
302.06497787800953 211.51441009081572 5
106.43257919349709 263.91848576380244 1
152.80628162981665 221.56282827206553 5
66.74811273065177 262.08217972936944 4
81.16495143269344 156.54170843334782 7
184.8428498432868 294.1809576577712 4
92.19586654091877 160.8902220057447 6
178.69463741602004 142.42732511425436 6
79.0135257004857 253.91489741327075 7
39.37202772993418 211.36975088960688 2
259.4396102051691 281.0234439595472 7
67.60111031287579 256.4415873900286 6
126.10642526148217 220.3582584577374 6
54.19885172407093 230.85074393511175 1
82.65530861219621 250.76827842106874 6
69.59717019259973 121.36550252564192 3
134.37309563329634 91.59391498428279 3
183.3812122905113 151.70074275533455 7
191.2732619650963 53.656328749472486 7
66.27902723080095 111.10245724289663 8
52.84310999742823 156.95827083195195 1
146.2859895587264 81.6334638603972 7
148.57081359753514 191.06321409522644 6
57.2811708774069 261.43939858791555 1
57.234964331383665 254.96514041061346 7
93.44469571266526 157.7866094410679 4
142.31001924269668 235.34663048302602 3
124.95741485838221 242.09222162694834 8
156.51105268528084 267.6874305320756 6
318.7999154518819 180.74726014463442 8
78.12072689935343 129.37513339833134 2
50.30961961027033 243.95861213709426 3
89.70955387883473 253.09987922630174 3
291.0757756439951 143.98036954637067 5
73.91496358638548 134.8484375352106 8
48.1123135990023 236.2078374419221 4
79.13370067114708 139.86218690202702 3
196.96813843728336 313.42277725381234 6
238.16161704963218 294.4543940164006 7
55.94062200772858 159.77966323572542 5
57.97984303906236 263.76139062697314 3
64.80462779815372 163.47790329121725 6
262.7375834973974 316.521293156772 7
72.4587214704169 142.38928186656887 4
66.78893660419679 145.07609238426383 6
273.4768017788344 182.8848072370914 2
54.568480267481874 163.0579058014354 2
86.08530616218354 251.02768617598036 6
228.60128558265146 160.19462360451868 6
75.03024941322283 261.4040418789489 8
67.29842628579216 155.72407107158605 6
112.1553654346539 277.9712876830161 3
51.78568994976256 156.19870260235749 1
203.24857902985764 140.40326020945423 8
69.74895288602247 131.57017515900526 6
93.02131776070279 135.53904995753152 7
203.48685917767367 110.44242018656857 6
120.16354824542506 85.5165913045844 6
66.37196664034111 248.4656727874422 1
78.8028289866696 132.5377253910762 8
56.44470183729748 157.59038516716114 8
60.018831674973434 278.7729559877077 4
103.39396159506417 70.08834004406596 5
96.631125823419 253.85836566536753 4
255.57263208772608 310.56330590741493 4
160.61490704799962 218.6904910578921 3
54.7927306381874 190.0204611221079 5
256.21342062154304 291.17531671802334 1
173.51056030087076 86.206005770601 3
145.59044949194728 182.97396484141362 5
220.68239166311767 129.27210303575 3
284.6307622624686 218.6186124480053 4
222.4581671167427 154.0780085132729 5
56.88989680415841 180.20061932656088 2
40.09652743028865 178.78624521691313 1
57.92895233461447 145.9233238783012 6
54.9790577877088 275.29960998405534 2
63.28640627579568 264.4965848023417 6
132.40664421164112 107.66687954760582 7
51.505002621237914 174.69560140418054 8
57.254805118977444 283.10813675985884 6
194.0828310835026 145.01258444835193 8
122.7862856218495 100.42912543129695 1
111.96739140951277 225.7720832889548 8
134.84706911787737 99.6175366452241 6
71.61958707115826 153.4863216715487 4
118.66373928167643 92.69591312612587 2
191.3999754814466 229.3187053574455 8
103.85751363267588 122.1251664346862 2
58.87417291539572 157.94025386135786 4
43.16810649510429 244.73510500247775 2
251.1623105704456 291.70204721538033 2
176.83895391555782 136.710414976662 8
69.71120551235299 106.236551385504 4
282.3931740421551 283.142814330988 5
243.25727224574308 130.8401144320934 8
68.88269466156193 144.17934291142552 5
52.35838448770116 243.24254187330826 6
66.73542199154949 143.07025861926968 7
289.5470819050532 246.06927089766563 7
100.22910509867737 104.03550081146582 4
86.68926642199395 248.04970300596574 3
51.5242941590286 183.96617555305315 7
65.98120558289835 116.7989157661702 8
159.5980850279492 203.1433137507154 7
75.2568612303979 141.9909242053737 6
57.85390359906982 271.9933977341913 6
67.78859156737846 150.63770786868804 5
69.07665638924051 147.16920347267896 8
197.34461986342507 158.88692068694834 3
204.54967296231106 131.54889983312265 8
82.93869670467832 140.53885453959435 4
279.01971602863466 337.7436976096728 6
79.66290878817178 154.90128104780467 3
60.39191869770505 255.96549438125055 1
172.5097381284233 204.35442877774355 8
253.13581045064848 237.18628432055854 1
91.2340793058968 246.45169676089972 7
55.24702159314849 231.73587730536917 5
57.33767288399082 230.51945775238457 1
262.7286840694875 147.38041853722697 1
61.841272893159456 267.28310027445553 5
87.39998056859068 131.69019269827072 4
71.53192933365959 151.76966821840358 7
51.009054510885406 229.0061041043681 6
51.99467083394839 165.39460926035636 8
82.42057035157002 152.28975452796996 6
59.206918879572264 175.48268862838768 2
111.12726615578741 275.9691219631591 7
44.75846418058526 192.6025167899406 5
178.20402946577562 162.87200780656667 7
149.64505882496636 81.82946702894299 5
256.4146188428958 159.15927151661614 2
71.34999477981776 261.4724257054659 5
31.80197086936237 213.11995214637435 4
166.62019373123988 129.38965484571006 2
90.11451596256508 243.08720042856356 8
266.8021568042204 327.248382005526 7
55.31600565854412 116.87080511507276 8
93.6334195853302 122.81717989297896 1
104.21269535182216 251.41658690569184 3
57.6670225959047 151.12929998064783 7
53.37053504631629 154.91036090374465 2
113.89990762657895 96.99905475293647 5
67.15952019523884 127.7043384369249 3
182.465917237219 276.9803370904671 5
66.98632645695588 150.05441521756404 4
182.05012423967133 56.16102967062306 4
180.86142004603465 131.71393564512567 1
83.51611805520473 130.14201023574972 7
285.4759556611722 184.53738015827338 5
104.68722262960462 255.37975948840628 5
127.44920844438042 88.25036351930426 7
107.77250223007626 100.15976879307944 4
108.55257589784149 108.56857619114409 4
34.839023863961685 179.92335129713462 5
100.68726841714331 256.998806272443 6
109.69150969323172 264.09221599575153 3
44.716956670545585 183.25777333625683 8
250.31571920797757 323.99878211867696 5
111.21850543477832 110.36494784947975 4
71.76689616387962 254.56798693186744 7
213.09898915716067 345.1652154093064 7
174.93131709116167 153.87130059425155 3
167.30945179508143 65.32380718704881 8
67.81515025030112 252.53784394677572 2
124.60302617012508 65.0971148498683 6
63.112571100260126 250.35670101265023 4
53.27718894184516 152.14286369694392 5
111.33706655780065 230.8387080304934 3
38.411961655465056 226.12820370660958 7
60.370559425014555 263.4941052183096 7
79.05722012113756 260.9573891262255 2
173.87027965072176 95.0694915978525 2
133.46553583969398 241.52097248131807 1
42.66947820769586 168.4822710212886 2
57.916499246113894 159.0255933226352 7
115.38995554595243 79.09494005682896 8
55.571495942324944 281.5263508206601 3
165.973861555222 66.40828495766885 1
206.99179327224607 169.050184957423 7
71.31494104689179 117.90574215813437 1
49.757398498388426 163.4609620046978 2
75.48175894522292 142.21418281098536 1
46.409297924509474 192.027514348479 1
78.7129789989398 245.04571527743946 8
161.7733435664741 179.2344744399109 1
38.59523764604092 186.78809693254095 1
133.717452292326 89.26886261341143 6
56.617300542240514 152.2871368521623 1
110.79080183495269 135.5801444726676 8
54.662875722711696 158.53501209489474 2
68.5519094534545 146.07290585656676 1
50.01687286606254 242.90278250706893 4
63.748821831082616 248.02061451434247 8
95.14359810591483 116.41639999346738 1
133.25814986336462 54.47441686213294 3
35.829307283349436 173.8564814555944 4
85.38645878693424 144.9191414860569 3
75.40907384827243 124.20500056594301 1
133.84435579256447 91.84648129858171 7
284.67238523319196 196.8276671648312 7
299.9843879826778 163.25166749591256 7
145.49460930188508 226.42749170949682 4
85.82584447873381 138.0597867557035 5
185.8450599643639 307.01179106202767 6
141.57671820573168 98.74317105711295 5
221.5794431620184 112.12842394605507 1
42.90220359946579 190.665415477988 7
116.0939875914088 98.71818055534614 4
48.419689106697405 215.90874807612394 2
55.731645354432146 278.860955286859 1
53.16901757409877 234.23652856095794 2
92.75899644206034 158.5080917916966 2
70.46513952066032 123.62850989387849 7
250.5031478031531 296.4022839511414 6
63.502977833281705 260.4944177202544 5
237.35779789417757 273.8443712045786 4
59.15788931584454 178.648146342342 6
45.55564370678092 176.73778098103745 4
166.95679344380252 143.04436616935723 6
64.68620942259547 118.82915619334632 7
263.43349996601086 263.8200753999502 5
58.09243621953663 200.99247071011 3
296.67345440264603 221.6888224163651 2
93.11474273348584 162.74369530522702 7
85.81822352992323 240.30427039525875 4
73.22759277750035 107.75367025863336 6
223.60305242811378 142.93890470859526 1
188.68134916517684 38.885738405534184 1
60.329913822900245 163.5465840378818 2
92.17884407135472 254.35106233162213 6
