180
0 344 0 344
1000
177.77864902896133 257.33942091112226 2
65.55522151727 212.91498564212654 8
259.4917983830903 102.49020820338836 5
82.40998915495241 109.78130463803974 3
254.5700034846377 132.63833435038757 8
307.1631025294331 161.2133672315993 3
171.75723594792157 259.99967328311106 8
301.37299193417044 190.3314139337313 4
202.3730902558001 105.70290965438654 6
105.22763766698182 55.32021773398674 8
311.6448061584868 196.6906848330962 1
291.508190821914 35.43174309527642 7
103.7551110903647 63.76516825901135 7
231.51580803246057 284.32942260418713 3
229.46143449592697 310.4796886609202 7
227.27784726707029 113.33650381927521 7
168.85647188734302 295.76128349656017 1
294.86317858562006 229.5040558178872 3
50.2229028682997 220.0444105765944 5
309.5546453069192 197.2800157059429 1
147.35647644086552 149.34017778982047 4
245.40373488264228 38.24519986471477 4
256.26837001954755 105.6339437550222 2
96.8120152613863 87.65276555956159 8
269.7285134250563 135.9296221157942 7
100.24898882318622 98.18762728076022 3
94.62069775481659 130.25010207987063 5
78.55747115423992 95.52975248639002 1
47.84393245534282 100.45204788688434 1
96.93038995966985 88.22617282510502 6
86.95994489452048 98.89502748843691 7
248.95642283821243 111.11496817198274 1
309.1219493340792 148.01473513608224 8
263.7291766400065 312.75104780245 1
252.68671713685097 109.60755076938617 8
55.26894527123799 240.42838017868897 7
168.91290258075034 274.9996140101048 1
183.84843127309972 293.3311401176888 3
181.9944482578333 220.15396557869914 6
77.32314528079787 215.14647872553698 2
170.43072195878207 242.2861789583189 8
94.17395624645279 104.99846337880166 1
182.52864179692494 292.44801998976436 8
170.68465805909244 282.9378461431463 2
188.5702036173292 287.7027525143776 5
256.4479530758579 53.10964741274823 5
59.159613128388294 245.68096797622383 2
289.35718616421724 43.23608185430981 1
78.98015281444924 120.02997284989257 3
278.28934723449606 35.56236211484419 6
237.2456148831511 187.46030483189338 2
215.32194424402527 107.37504197099005 6
313.60883917512587 236.06098138567583 6
136.50842942613968 237.85317227169276 3
127.80177141379686 54.94630687789294 7
90.12795263096038 123.54012405046673 2
153.15114678337002 162.9896160362512 2
47.23719256700345 99.73521725174824 4
217.19365447230803 270.7628771422115 1
291.1922105561587 156.17589231115863 1
136.05811216712374 167.20417655888306 2
286.46863577022896 155.21538918460627 4
174.76335390801043 134.29595796209742 5
258.99817791890155 91.67149914847184 2
315.35401189371237 163.90467851765607 7
300.26474857110065 218.1967279761943 3
244.67840377511357 320.39838145085747 2
250.56956382469232 108.26367655280816 4
93.60804882841343 99.92079938431579 7
77.0183686028054 106.64312392038272 5
175.04923962432142 184.6764464806082 4
218.49033298180848 89.82014212889936 6
304.89083932281125 167.69310400448427 5
221.18822120978734 227.38417601120506 8
178.2094130304212 276.18632585608304 3
242.85932291475788 67.69307892381464 5
279.464764021091 46.59311525301031 4
299.28249449690696 176.07291841867988 4
85.24442102082486 96.75367587587522 2
224.9800075984031 266.6154469151156 2
221.24169859693154 220.74499715627445 8
50.52831065005592 101.75458788200524 8
53.358361263341806 237.58852717261664 8
185.50936918052122 142.90308576889626 3
205.24984608956026 221.9199639090386 3
128.41706905023406 157.64020595172013 4
178.41428635000437 238.10762623218977 4
290.9764096869198 142.02164897669363 4
260.52888749009935 131.13333485368358 3
168.9829114964505 256.0535068549657 1
245.7147716315352 218.74958222845964 1
279.95068007020734 62.776056694056074 4
239.86314986366952 113.5093902523602 1
309.3869401156822 198.76313200348025 3
107.78202605555398 198.2296692954851 4
98.28827720713556 208.56147193373928 3
98.41048622600647 259.2980411087878 8
305.0218339048213 208.69155389960764 7
186.65756453401605 81.01260446739666 2
298.3044244118914 123.6702734903886 5
81.01844730828687 113.86227132912443 3
48.90915779881116 100.7826491422158 4
306.204938474164 229.78922264281604 1
134.82330371004255 204.79603526506375 6
61.935368981502364 101.39128833179436 3
69.36662423076919 105.74603988147717 7
161.0097946134524 110.54205742970628 7
179.00969358317784 264.364770563855 8
170.20657178364388 278.82104963844114 4
139.13024293351268 220.6425046092375 4
153.29337090045271 177.34546328884718 7
50.63534621043388 101.44843522949799 5
302.2218643501412 194.86951691426964 3
231.32657957548173 116.57180940521589 6
273.03675291253603 96.93518094920829 3
122.48267580592993 99.73806146624753 8
308.79426404775825 232.93631239733656 2
217.0223090231896 204.4295467616729 8
138.3017972805049 136.86903882808178 3
100.46697881311479 45.89906760253518 8
51.01780814938699 209.82578014391694 3
75.09486284873405 108.31336958829313 7
75.82314435579072 232.7597846027538 8
69.33821200386404 234.79497311449367 2
48.22414302053466 102.24486262200725 7
68.17337675909829 115.95951187041891 8
172.3988211612616 255.31994133049622 7
224.765771728362 218.15676706550747 6
291.0106577830793 150.81194238450246 4
103.10893638475201 122.13663972326394 7
209.73309320793527 240.6071804942356 1
270.8791047849844 215.75282656094348 2
243.69984723546474 199.9000783317069 1
283.59121982559736 142.03856228429143 2
164.69189629866153 224.6352429024016 1
39.551809982469535 225.2337331148622 5
290.2757079158811 74.59566146664069 6
310.83324870288163 183.17335442247432 4
88.86974102188248 119.91169373829817 2
86.52191555992917 113.41078541667017 5
58.15733318549754 244.6489583225536 7
155.42480412325568 269.41005795416106 7
39.66362052212905 251.54849058333556 5
295.0998707860297 153.67116583710194 2
154.60909532300582 259.66330395689806 4
126.86988283142927 57.30798043360777 2
125.79373575679172 150.88695544039277 4
189.64692541020588 248.25976299409334 8
262.82021500688415 104.09767735433212 3
258.11963975360374 109.2150084704436 3
220.3292888917093 112.80072795514647 7
47.75166883833164 213.72845463692292 5
104.05266292005274 79.12920444616124 3
67.09417736209919 117.95772907285124 8
238.44986895425683 273.4226485091633 8
227.06973452203596 218.77315265667696 8
302.81175604968223 186.90136316939464 2
90.75916122429399 207.30654897652136 1
97.51663800338724 122.67200664951355 1
266.74238527001677 27.0001087807642 1
88.72761625325968 116.95261136726437 8
311.38631131119865 190.31333985969954 2
254.8978224525181 99.0149438836638 6
174.18765234624357 300.3271745299396 4
298.8406606946843 177.89760161346504 1
289.51932970550047 123.7770678769614 5
44.63124119211948 98.66316871830418 8
268.1577961201244 39.51674077378972 8
296.01727692530426 213.95353441302473 6
170.92094975926878 290.8470061748072 5
106.28632171500908 111.58495120467182 4
39.50894668099371 228.14089265235037 4
112.51253992666142 164.90648279008127 4
48.326457512741065 101.47284599685824 6
289.155248721307 182.94060908634594 5
207.3357070065881 202.79591729612088 2
222.09984671638364 269.1432791418787 4
192.41345132606733 178.8640208244321 2
107.51962358537754 33.043331693877796 3
105.95737908578506 62.192759789576186 5
289.4629448300119 147.38935477262714 3
88.35691532823981 205.34653015998725 2
146.2936556204814 173.22725925936257 7
41.63303504161019 101.67227672903695 8
71.48374812820671 210.6457469600694 4
261.6432950735913 199.76312815383977 5
292.29054641539466 205.44851047619053 3
169.7376186917126 108.58744352646913 8
103.00982818144124 196.2956491775701 3
308.0233026689063 206.26177546639548 8
286.51779128169807 317.75846038989056 8
102.10947033113841 78.5021593843457 5
168.52358313159314 127.5649688147949 4
80.1982789591345 231.05101713807414 5
196.13412208062667 267.78834965641556 8
151.1378608279388 172.22770819959777 4
111.39307466478994 62.59435496903396 7
121.1614350577345 19.102243054771545 1
50.74950810428884 102.0463642796966 6
172.30660707994585 266.439095060961 2
162.44552550018926 268.413119658918 4
54.35446493513671 107.05371182107768 4
110.35915314968015 99.45385839963002 2
111.39265626708513 187.8011051496401 4
113.42838525274703 176.89224075488195 8
121.5010483532316 136.73149598351944 5
259.8527845300782 237.1838174022971 8
122.14500412096572 182.20241304668784 1
99.71432977198094 107.87452723723905 6
176.95351514771838 126.84468044890316 4
220.65593041756213 107.9668768497913 1
71.81550307255054 140.17512686289987 3
77.87013343340892 209.86523387890233 6
186.88008719672263 288.8617963955311 7
84.88520399888938 199.1797601436196 5
99.35312928618913 56.85749735454337 3
251.4235978272013 106.16965719609578 6
246.84696073901878 185.28607845536226 6
217.18223432711534 306.2429914062941 4
165.86272144247832 261.6862300730749 5
104.67649989280423 89.65427454891973 6
292.3425569486948 180.4035358242399 2
253.38413665453555 126.74358280354801 4
289.9322622220693 33.29525916101098 5
280.4316171159706 225.84223889813035 3
230.285165117925 109.38814667468898 5
90.80465598701075 120.45540467160055 3
48.12467069583849 97.17267508216179 4
202.90104573521603 275.77697486531923 1
262.07212432234326 58.85661936712165 7
253.26513300863033 113.03979536691385 1
183.91104337188062 273.64038077928933 2
68.51152416140619 38.06409277385969 8
314.57318363576456 249.72487214324133 4
61.314308682002775 100.9237657025284 7
275.5646493192503 124.60651389378953 8
286.1067454463196 145.35685333361383 4
69.1230562187139 242.83946689490284 1
237.89410085188376 228.05351216630933 4
162.57143381895506 233.28864458634746 8
67.5005423789235 102.52539436236378 4
163.80954880128277 263.7846425244675 6
254.12857077085397 52.54775738025302 7
155.86700024722856 260.7412552272185 7
59.529804337547176 204.20547246831097 4
213.89370012964852 109.03861779498989 2
256.485934451346 59.152613863415944 1
127.62062334233791 192.04199720892478 7
186.086094080083 138.929458290676 3
327.06701366911693 196.38938965536823 5
119.84900295966125 165.22636458242778 6
49.340498188792616 100.06739090472628 5
81.44253408448458 76.78630328071706 4
51.89788442448448 102.2667590263375 5
227.07382370633692 104.21930929464 7
72.9321808956574 221.84005309811212 8
270.6707983782269 143.54329681022503 6
176.77489808445515 94.21747586839582 2
239.65338803601193 130.12896179550617 1
285.43828355136696 312.5715548866052 3
278.68880506720893 260.68530437460606 7
67.58631621553285 196.87337317129285 4
132.680692356486 53.67242316560194 8
87.98033532014384 113.12120614296659 5
213.02399139653417 306.40103212295156 4
76.94359113112546 201.50067254928936 1
86.01257681494855 102.61620886167023 3
42.64205401231476 101.23021521380352 1
296.35169889849107 255.92660283357728 6
259.435495532539 188.4251319568272 4
90.79209771105421 90.96203478951675 5
67.10517832849433 207.2252697564601 6
181.96476655130044 292.01158682595576 8
273.5349080340525 144.33628278450064 5
297.62195463119383 164.39073385036124 4
159.80619399918086 255.5833907094605 6
284.2181448119385 76.44415452523441 1
50.55589982077029 99.56673950707072 3
279.5771023053335 87.32562132506446 4
54.966272281496884 255.4313215302154 3
120.81968213770955 176.3771647742797 2
189.87317446652588 268.0187879318848 1
264.0142126661609 77.57559581763915 2
93.20951196405778 112.49537496963681 1
195.933493847635 264.19318051714885 7
169.7820017036242 108.73196783045513 6
113.34756069451488 88.5642659375628 3
294.19247212773683 144.47071522812226 8
296.96273902319547 308.41201458739476 1
123.5507707090007 157.86023256190754 7
103.00988164356117 173.84664148208302 6
91.01194584305175 84.65987346245967 7
113.0718701775362 160.99942218918025 3
223.93970996541276 113.65757180190747 1
306.388143962831 176.3704370003827 5
318.651144735895 176.72862362459094 3
310.4061925115077 190.21620409249886 2
130.6638841250996 175.80733018040635 4
251.8900371203298 107.67073254738807 7
179.71687207745669 286.68347986811216 2
194.21726731167152 131.21429893915789 4
325.3882608824645 228.82105511618204 1
106.36663006370856 66.61022132134086 7
224.1995452718156 108.45843222391161 8
155.26839322644523 49.083785274642025 4
128.1093736372463 194.52539057236845 6
92.27482882627031 82.5732425309264 1
106.9303943847167 49.8247204328835 4
73.64564873289241 229.00692071371293 2
166.27831173461217 284.3922590681265 5
250.86490887522257 94.71172068410034 1
215.8370760587864 231.52042837424105 4
231.4018139503614 107.31786536123657 1
229.34227796378462 109.22814870534722 5
220.86045194600132 109.39315006582402 3
72.53437084020521 110.15148694740141 5
44.15447396067225 99.47511297000139 7
204.19148544143897 243.06820312759214 7
279.95392380064897 115.98768512827743 3
244.70042324335535 297.71761079564135 6
121.37747886957847 248.67384299484596 7
188.73235115728409 113.48282181351325 4
264.85089537230016 37.678832072476965 8
127.09514926731008 152.01788747789203 5
275.08461884765524 231.5362070972017 6
85.38837452624881 97.85310532033041 8
115.00678791525091 152.69878166452875 6
184.42450485867423 287.70305230868735 8
242.42672544340084 184.73590299159358 7
293.5442313570742 196.35409361115853 5
72.57352707957534 237.53697339227548 5
227.57508247307186 113.84741199152185 2
253.5624321197862 274.74547810072335 7
296.73480788757024 201.03051020810398 5
225.89447558676352 200.28041816755905 8
168.125860906045 144.63943075965324 4
168.28389538453558 136.09367384581932 5
135.6712354656471 31.69258849407788 3
195.85715468899548 299.0851116979152 3
295.6678303737813 173.84999748973982 7
114.98570088209105 171.82354233266713 8
293.1852612762353 188.62285573476072 2
259.4557931453535 100.05753703582472 5
46.42007966606814 99.74549091596232 7
249.5906351598282 104.67324470739429 7
177.5779755289884 98.62127485012476 6
131.1839198623426 91.7409373412753 4
135.69072393674898 7.451669722303485 4
226.57696226177868 112.40203316437365 4
257.733158821935 205.99557670528364 6
240.55904797752203 105.77598961404709 8
66.43766588499635 235.45024200440716 3
245.7720203757593 118.08338801538862 7
113.87733344374107 130.48628230139883 7
243.876992752708 89.73440242186686 1
289.80261393282785 274.1891226903989 6
156.60810478111094 185.88328069779058 5
131.14780810958135 214.74016435851448 2
122.69683462373725 170.63155666422557 6
240.09390133140388 106.65222269835536 5
298.90510217019414 188.71110079654315 5
302.7929149753607 163.03399785282826 8
284.27035707963245 111.70410965503754 2
185.82897572367497 289.9977064955713 2
90.88729325415586 209.91526460429623 6
102.41919644418267 129.82479660483958 2
200.12246516733936 134.14823357569182 7
66.86997183893651 229.55667152219831 2
260.72662979711635 203.7222947123889 2
50.581815997848594 218.36196179831046 5
220.64519696211744 233.75653857551364 7
285.01167049946014 157.84491048790213 1
141.10179607671787 153.1869041471223 8
291.89572034337914 161.1255208384192 5
267.25572332788454 265.25500801480337 6
90.13041292659997 115.00147881521684 3
252.08411830444186 80.9775193395401 4
279.48638090030295 282.21383889287944 6
283.2697072592542 50.72918315353819 7
309.0513198328626 189.4332239213007 4
94.13032210501545 121.61961534961182 5
85.24377823337176 238.21091142467526 5
71.41783216309601 255.52562972750678 7
174.01153066401974 255.5444622016123 2
222.29672515373744 113.2185948210331 5
99.71608627686012 180.49365682809596 8
251.44894419952033 116.55045479408776 8
54.68951244441781 93.66940967613151 8
292.5852071909012 37.96537114693312 5
178.22493722297514 271.779310092077 1
136.47818955499784 233.49277408111195 5
51.992148951458006 101.17404683054058 4
96.04884153636215 108.1015472283363 4
91.43253082371508 105.94303666630509 2
77.3160071703483 220.6201013572538 1
173.8719619910363 276.1304845273541 8
44.84825229604655 97.85020238101583 3
203.43367309971643 118.69421286788038 6
81.1246089541575 223.69851389909763 1
269.69113259749025 272.2873073038041 1
88.45062134543917 108.58081295398678 8
153.92522975152596 141.08522258779024 8
143.7128297564125 240.98368650874053 3
178.41440730798942 140.55769628619822 4
99.98649436486978 128.33312740092438 7
186.92273594042362 271.22892858192984 5
259.24767847855145 185.32649924286912 7
51.79847343120544 101.8065760768964 6
130.85707723072514 88.41845374508112 4
249.47035937900765 82.60127235371061 7
63.62409764056863 199.379358542927 8
288.5268490117637 42.64707112858149 1
86.05726216427054 187.03052206149363 6
262.84935762049986 269.8849125587029 3
246.53258876420583 103.92805368518049 7
241.34347347127652 269.8605629084387 4
226.06804458786124 100.97083680916863 2
147.3347633848219 142.09622462567708 4
102.38669283494235 44.08018241532226 8
156.175520806964 87.73875510725549 3
151.01787878834298 200.70351991600253 4
146.22946214817088 172.5761081855522 6
62.69038266374405 219.0875237448669 3
262.98431054998855 273.5326812342301 7
114.87251780986928 88.11620553603325 2
201.76913104876064 260.31866536298804 4
70.64265485005824 188.80947899950797 3
218.22478776743037 202.17017715757729 4
82.13567340877685 100.14865927442996 7
291.9289903169162 261.8778474028783 8
195.63695449400797 268.96727495712923 4
277.0863758081957 177.2920022735415 4
175.48310301784278 80.23154176841166 2
300.2264223962108 210.28259969616033 7
212.47841521573494 96.9758873059026 8
182.9062491103 118.57009870043304 5
143.6860676315128 160.90939323925969 2
238.47827776558933 87.74083666988642 7
260.9346024966893 224.27853317892982 8
167.7518471218866 116.6730451148942 4
103.22415813327065 113.50466867193094 6
244.59252146944792 220.73184757302514 8
318.03271652202807 256.42328820650687 1
94.43782516254798 109.18369283886021 8
110.35263791758518 102.66138552305465 2
286.1176016286223 166.42233381204835 8
166.71653091701822 285.977892899427 2
245.62731662739225 242.6294060027784 1
302.9842779490658 161.22205667653546 3
275.9422894710351 69.71785416444888 7
111.72408976936127 176.82414916921851 4
50.352053414923915 99.0104942967916 1
147.85010244371088 256.72903845667133 8
244.32885257448652 96.8507359623715 7
148.87736517850473 166.2211674609284 8
114.13156944624721 162.6367720934411 8
272.375227232526 300.5228617841448 3
144.94174871977268 167.2427640628748 3
166.03699490661484 260.24795152261385 3
304.9047819792719 241.91322043082715 4
113.67016140595327 171.66979998462625 1
55.90098990259264 234.59408511962553 8
141.39324055963047 228.3156190676759 8
165.43504038475623 183.97874160405257 6
165.5973925539494 155.33609288634108 3
327.40356886921563 253.69345086237556 6
92.20904865595186 113.12454428192342 3
200.8308367526263 302.40354616913856 3
66.8366767076066 249.14172522972834 3
274.9773065289972 179.5200739068751 7
195.7152780538154 276.11046162665207 3
126.08719663894402 172.77734183981798 4
102.85086917617404 41.485675734583346 7
311.26680590760634 225.60814594031578 2
108.57215925333698 27.946072336677126 8
53.44604465424354 107.86433855184565 6
137.0335903367103 64.23645641943196 2
212.42596843723004 134.21579812337592 1
271.767470302654 137.35575440949114 4
77.16806002116316 184.9784338765238 8
109.49981341697757 189.4888324360425 1
132.89970138041465 155.04736505633795 3
138.26159555669892 68.38876217710089 7
222.87095932102687 116.53745412986731 6
241.7197352346056 104.64060909012716 1
99.4109263022016 71.7479805828093 1
60.593438880564435 108.77287122862484 3
160.60843454310503 142.38388926653062 2
168.27173392420465 265.3907648330426 5
286.9361696538169 204.03169954645927 4
155.57446309361939 266.7242479545895 2
319.28533008992133 306.82315633906745 7
80.45814367556225 104.36827090425257 1
48.520533612684005 102.33057913003148 8
217.75755344793396 215.26863659331448 4
49.52305865538351 99.82338091330367 4
221.3208055217495 99.56677255497196 5
128.6244864546764 53.84095291986161 3
286.8125972303668 199.5245909514174 1
120.0314195591215 100.81539275299806 5
51.35668091783593 101.49243420736362 1
66.33537618718645 229.4184914571462 5
239.45656603441603 300.8197262837008 1
49.36843081689538 100.68762244467136 7
157.68912069413693 233.08767917123447 6
236.718003585889 95.95469054640893 2
77.31642093606891 233.09797542221997 6
42.60508317534004 99.39540312640227 7
198.68894086487512 85.04831505745673 2
58.06488843815007 238.3006559947347 4
76.80222112900643 126.69678507702427 8
312.1787200287404 195.08946503559784 4
285.1124026428783 167.9019439914921 7
263.30678628431633 88.21037217427951 6
264.77159175510764 112.6683532865051 3
117.01265127095414 198.20651363585566 4
276.5467826358191 268.1459840054043 1
134.28064169355943 98.8466315637902 2
48.90726397814082 99.44025625786591 3
192.23403732294275 305.1671392817978 4
156.19057602150093 60.997700343354595 1
245.59534866323133 95.30788785497602 1
123.02459365046627 70.42685806939284 1
159.39635945514684 256.78682787534973 2
324.2662779950326 219.35553522549284 7
230.41620800932745 324.7064862567325 8
72.28931297016547 118.62614223338308 3
270.28735683713967 161.54786818442577 7
308.1129679285022 205.17793365137953 2
253.53202731087657 94.09827914993225 7
161.03260625660488 147.21921431509332 4
152.96727732320068 181.29346576387243 6
88.16643234233342 116.35585804898723 7
206.38061498098148 231.00758790908122 6
120.57263202556189 159.64924023861042 2
157.38647050564853 34.44513922911209 3
51.280233855545575 102.8599765613159 4
156.10025444043256 207.59171153149492 7
271.96134974104154 258.8047679412602 2
246.15602788080096 113.24058352759297 6
219.6637659643585 101.50555041461921 1
155.56566340639847 146.16863731202832 7
45.95403223625454 102.01990020106878 8
318.26133987666066 167.87048381995928 7
301.2893751033275 41.30832740170065 1
302.2078629564199 178.01954700767592 7
256.63259627634767 192.94077016608944 8
113.38617412839247 180.00290747777896 8
174.64998713641694 292.88097279339286 4
115.39084473659821 173.8350085713445 5
86.77531995779478 110.5340683189077 5
248.58040137663187 185.8195776787143 7
130.73797165149412 166.79817027434783 2
249.57937695141976 172.07243264083309 8
145.55588202675685 210.6900724180841 7
238.71982601015324 102.35034059113234 1
118.93939511802112 172.13483751394745 6
238.3931643135792 97.70186901718056 8
180.3702314607578 286.6016759842552 1
210.36854797268143 108.48159312411111 1
272.1080059188305 75.92716308340871 6
44.406597690309034 98.81623058287178 4
249.3742636998253 106.65115499462851 6
106.20389542815401 105.86592997436938 5
267.8230330294073 208.1926493107378 2
151.8548898257296 260.81536695360387 2
145.53967726998192 224.43158470014617 1
317.9770773195203 201.2912298656405 7
93.89463127093391 134.93375331301533 7
153.33122356195977 281.68182675788705 4
157.76006878714963 248.15545491392032 8
282.39281949352596 162.91972498485626 1
219.8033614633351 292.9957398896025 3
271.52009559447777 124.09933817726295 4
84.93417782234766 115.05758945580413 5
251.1380324000749 201.67185908452964 5
228.13623069368663 120.28406603350683 3
121.50011503496604 48.66886249018846 6
201.584924086911 261.50150657561824 8
143.1206550545969 263.9368504722191 7
180.9511616300483 275.71210692290083 8
60.098556988044486 190.36165050869988 4
214.54880019414847 274.08106147792444 2
174.1073411454238 274.49453850106784 4
305.067961636519 191.22368502482226 2
98.42875325527461 68.61899159234308 6
204.5418117579084 146.68864459945348 6
251.10065216897104 88.32457025024598 5
267.37539225779017 117.08365587179462 2
50.428990957554966 100.24040534511904 2
132.96906749288712 60.97373284548755 6
94.49576694992744 65.04680559426738 8
70.13657209665475 249.1741417273151 8
275.0662000484989 223.9913424498308 2
129.59177446278065 191.80749644177305 7
76.89649243768208 108.41609480968589 1
281.26811815484905 231.5192441173959 8
223.73592346404504 94.61632940158796 7
221.14234300903288 234.277009132922 7
80.80363297097134 127.36622584269556 3
156.69985181512996 33.12027198717351 2
99.23518654577863 76.17805718843219 1
135.83752851574974 187.73762626412793 4
234.76946978645495 210.6305561618277 3
142.3144064493885 214.37734658185565 1
100.87771770659593 157.36305602246523 5
290.57743668392766 120.67586459547651 8
187.94409680367423 281.98231222315604 2
180.30743382638974 293.15936125637853 4
90.57360755289156 84.17455479766713 3
43.73307207361592 99.24064814538269 2
117.29225710469528 157.53992186577685 8
168.2239481279479 66.19441910569063 5
96.86233783966115 131.25499556173403 5
279.3276850434202 202.25645756600932 3
98.56098849102784 123.80326793438448 2
310.9417384796064 199.68479099929309 1
46.724735958919716 103.37752758940442 1
96.51967204770025 190.72495894502234 6
164.2781778801925 113.56328069806676 6
48.27003987443443 101.31169211124876 5
151.18756510916853 224.1509084549727 4
143.86522309472147 151.5114988419492 4
85.85492837547001 115.70624537335084 7
61.835258775995285 197.24145528106845 8
144.11121075645437 85.84288502281284 8
144.6380696614464 151.9110381346895 8
172.4615882050426 299.556905669729 4
258.80027013182956 112.32186301463042 1
290.15039212470873 215.11446015675222 7
238.46250729924304 216.37992829281632 6
68.10270630194881 179.33590136602578 1
297.15425683435257 193.05675128848355 6
44.725656959159274 100.98322065088436 4
283.68384011829266 209.49968470867935 5
304.0109775310147 174.0770046733668 8
215.68215372005793 193.724006643316 3
88.85360969825729 125.12866748603005 8
73.50149021608522 85.16782036474908 5
87.17851764995251 58.87682818584396 7
295.0587723847419 207.76554871683015 4
258.64723896137343 107.79898722086816 1
182.96593541110278 72.64812248248276 3
178.52615603316295 296.19512451114343 3
75.20901043524275 203.5836717994916 8
315.26205110180996 215.12550544444775 1
211.06673501996428 207.6632661503345 4
286.4111924551324 124.1535651043165 8
93.19101152083572 77.01575016667816 5
86.64854637023153 91.6002352092246 3
81.43500241274006 214.34897383092576 2
53.75417988903648 232.82665789291144 8
229.83894667169454 111.20856771034461 7
206.70077980792678 122.88163880795295 2
209.77437692464292 57.522398107483276 2
187.5998405820452 227.16034907937467 5
191.41886853964093 284.8339853238437 6
97.31136142648701 106.66133789713456 1
144.44211315068682 184.79470753109945 2
51.443829726858404 100.35850410057738 3
120.98074183543699 201.31637964423172 6
114.86619047096337 90.84650538473502 5
257.8975362607157 217.7343440307353 2
276.6501968242869 91.89085663253167 1
283.2606808971058 224.38581363454196 5
314.3819410720262 185.90350578995435 2
288.92547967364203 106.80696754592847 1
64.26346149397293 221.14367107817776 5
244.8651266878539 110.30080136319245 3
298.95453310447186 142.23870313333458 6
161.37103123603694 86.14417572993628 2
201.57382316034924 87.04482045598026 1
71.51554989439708 102.88970500775876 7
46.707859564205464 97.87205231233452 3
90.33595681520842 110.2954142182218 4
133.53674951206258 148.10880766842234 4
201.8650554690948 263.53024801770863 7
320.2571934775473 201.4690878471213 5
233.3495038137845 169.81343327094584 5
251.7713642517245 88.40488873548995 2
226.73560077713393 99.16189912260293 6
180.54293679586755 208.0750198887587 7
72.67724172275697 103.05727767146904 7
304.4843162119499 223.02560965821144 4
75.52109963702638 120.17566186158017 1
242.72107537257912 110.64233081577461 6
167.55883857357014 179.04909170091597 3
339.4101966249684 212.89797046209628 3
144.07821799726042 169.12857831188623 7
263.6617291868356 106.14798873926608 7
239.74975813931334 191.57121618919132 6
304.6074743379572 181.76850840396273 2
271.99323010326117 36.7369969482017 4
161.81821422651947 239.51285543355883 6
304.6584658254123 305.35976213044563 7
186.42767636758393 90.72654735560272 4
124.96089833166172 185.88316992767082 5
280.3117050366569 136.92280600294583 6
47.07756382842375 101.22597545246124 6
75.40687007250185 228.76388381309792 8
258.70116096232255 118.42057224505471 4
219.38192000840698 256.96971354973374 8
283.39314134227936 155.52013223431877 7
47.64257418038004 98.42439133146264 8
295.26427847442267 299.519173066211 4
48.31701209772473 107.4154811884854 2
204.5921798200134 256.91417780618497 2
102.6524147898127 126.6972242479934 5
246.40354654261546 274.2219119079047 2
277.8865502199635 85.48084617257729 7
145.31291490683256 146.1784448643492 6
185.83089339884955 284.62830528366635 1
297.45235355789606 149.00734781586883 2
118.56874639764656 143.57671990250935 5
285.8788696953843 131.94932395897354 1
258.4801073580184 96.42027297011255 4
252.66295600863486 117.11925879779058 5
306.411561022418 189.35925228977695 5
219.47019870773627 297.31241434578277 1
42.41130867485311 100.03376855778403 5
178.5811404394836 264.90339337191335 6
77.20838532692883 83.97242388311429 4
294.6055926426695 144.35949936351906 1
71.98637456860914 102.5506546560299 4
82.18052588099418 169.67249424250082 7
102.23446131648434 106.06892113045875 6
48.97923781751147 101.46292640253625 7
58.91294450582789 252.0065376688738 2
190.95313282956218 102.6113937376789 8
259.6971800024766 104.33706655633026 3
120.76216920738707 157.1931334069542 8
82.85841994986683 212.0532057365599 2
253.92290910308972 98.78139520621508 3
171.50181194342463 289.82611153930605 2
66.07292271802599 211.43948068036357 7
76.86575314175533 105.30061237137338 4
250.76363341972848 293.11815598483514 3
239.146219807571 104.74597660011577 1
61.843143897270934 194.8447209575826 1
209.25175194987688 236.94541557158126 3
216.30899461668355 211.02945455021603 7
299.87837095954546 244.23809143308634 5
49.37689286065019 109.04865239712957 6
167.70084919425034 277.90665567987224 2
204.94415148467507 121.27771760754094 4
260.66770362102375 86.85124745771184 4
215.9000059180304 204.9717201495183 6
179.13460603004438 291.4224261094175 3
283.43828185454566 229.54012832782817 5
130.54234875002737 86.9567864988464 6
270.4911059575257 217.56662321780374 5
157.30183572255646 250.28487290742564 2
132.335190059906 200.3730861190886 1
60.538889020886124 105.17926499170338 8
132.0500671687302 244.94428282589257 7
114.50675538606409 186.9791979987348 3
248.56138351498882 55.72556362383658 4
87.9464689322585 40.07279278194829 7
249.14253987276138 289.1468607484627 7
290.18977337843256 318.51532029763746 2
169.0662141818878 60.30347719147498 2
42.21995121727098 99.89994647043825 8
88.33789179395023 123.63396456262186 1
110.02314301085198 78.41959598017674 3
103.25662188377906 67.65425420782218 6
128.81563647278665 157.80580203707598 7
94.2818791279957 85.17770536699639 6
141.92807936548033 177.02282529755323 8
82.3177981886673 95.44308126962872 2
80.95624367864356 122.92202767703718 2
205.52051395633117 269.3724873024191 7
298.5794440033127 163.70970566300306 1
147.3127618202319 161.48696123296338 1
209.98590000314496 239.5731716553027 3
113.52982379190053 188.19972928058175 3
252.21486235273494 58.52546160309247 2
314.95959494551084 195.48608810888643 2
251.39938910794365 97.29674149568741 1
48.47791575082333 209.9140156549654 3
143.96935397091832 168.49987119534492 3
97.09826493344656 85.0129592211942 1
83.06202921002719 121.80377150615004 8
311.5982002808341 223.31971415046712 4
107.10375344994742 122.22911786621769 8
123.05897326822654 173.67482892576726 1
105.57906821551151 41.51723729965946 4
95.51402925645739 189.68071722795432 6
248.66966125104 307.0754697069686 5
133.13210167658173 170.00875796481813 4
212.8597695719784 93.15122965389067 8
283.92348836547484 198.43943159489044 7
214.49456358749126 271.65596017269144 4
94.58793394117832 106.72877160401406 7
51.16624828665046 100.53010048802645 4
143.23520525485938 163.54197943068576 8
92.68818026718516 82.58413191207437 8
98.24716743337048 104.77245642039419 3
230.0971305336525 231.0655311104588 8
222.442599947585 253.68639472002758 5
247.09418135030356 99.26971707519371 4
180.23486307225448 111.31810518670873 8
170.56223922914995 281.06094866172435 7
44.70463894103953 98.77437891381508 4
327.4710499423215 200.2719465887933 4
159.5555511856524 241.75829710100297 4
167.34571623192778 266.2032885195927 5
60.99073431878785 232.70173867819426 2
42.33485350507854 102.72433379560366 8
160.884988665304 286.7331882401877 3
257.1866932181153 315.8611004363335 2
230.57528437494014 287.3651524745805 8
306.8339307269173 214.4583685888683 3
164.64755830146368 243.26890648059774 2
172.36824169160008 240.96080392755115 7
284.2951588212795 168.3565746991547 1
312.3128264775098 198.4856184923527 7
218.96201164695037 206.4844154182099 2
254.65406117652648 86.73283779258097 3
253.7360956713593 91.41667647160804 7
233.71365806639585 84.47668516954896 3
137.8869915496323 174.8823642708065 1
184.0065662341599 304.9578245277138 8
239.47083967070955 105.50234070546297 6
244.92736349265817 267.7141919037123 2
181.48244444351815 128.5802506934383 3
162.14592298552446 138.5220267244404 7
285.6128635543354 37.22940721555297 3
244.4854074207743 214.06049859981147 2
263.7573700960967 91.61790519458198 6
82.87005443456191 202.26407708187676 7
80.40416806079679 134.30928521244118 6
302.15529714043134 291.1566535668387 2
83.16617286273733 94.93523422259128 8
257.3148836070542 100.97225610428927 2
48.01799141490201 101.43156667863036 5
227.85256954225588 111.07220512966043 2
189.86338739374884 265.7751792217413 5
83.62266449004262 108.69751894351107 7
164.7609320293638 91.08265289978772 8
207.2415334397371 208.7280950129093 4
89.93388136522078 138.1850576066952 5
165.5384076577808 213.39837048677498 4
276.4378701910442 132.25794057902627 5
66.13798820768773 125.65520050947865 7
240.29831898941907 111.6771136541717 5
89.95819267285361 109.75257561900321 1
110.23866580336507 48.25362473806183 8
121.34225987803798 170.6195202504805 7
83.87573777875652 80.43874685478865 8
126.14259986268141 163.12454133964508 3
51.39962444639927 102.30199462735372 7
268.4981922468421 77.77092971175908 3
237.44533693243437 95.92063470251676 1
216.15533742438834 260.1099074129377 3
262.27217220454827 103.45002724075607 4
73.80627708999506 225.1896849314257 5
228.83642720395517 97.17416701939655 3
212.16616512082214 111.79808505129597 2
194.83199240692255 249.27770026725148 6
116.97788827810938 181.30809051764788 7
71.2934734344988 107.21722070392887 8
152.55187739988793 259.3520174780383 8
206.1397127945864 240.3998270016027 7
273.46684650756066 68.44542682028066 4
221.64019738771194 227.7242337745702 2
129.10838635552426 197.40700561300247 3
210.2699131523219 99.95932724724256 7
168.7543070766531 270.76131595223376 2
78.27836205739275 202.28646244124138 2
257.0815221213928 114.4209043581942 1
76.11744165844246 236.91046091229364 6
59.27942534818236 186.22111024271828 1
271.04098244500716 136.14833798440173 3
107.24804771129678 50.086225382530564 3
126.47905401822857 157.2008891112806 5
274.9644857749381 187.98617402291904 3
307.9750701017982 284.45894230146354 4
152.78954958776524 264.63615528425316 3
225.4056815551342 226.56327994252183 1
291.98082797657065 121.02086929959528 6
269.1831864693154 216.30332557887223 6
155.16416632510087 196.9518624801854 4
309.2320359622881 254.9530993335712 7
290.64888136607976 266.1515354339718 7
128.33728988486067 118.90381470549755 2
305.1791207070021 198.08642526143976 5
192.97203967296957 241.9046790195051 5
42.76773041376128 102.46645409167782 1
274.72203787043344 86.62958216931622 7
167.4901670374691 281.14435337577225 8
94.41919484079529 112.91748862433083 2
259.46581570766836 90.10600727685097 1
172.39042894513756 267.7205061943767 2
288.2989399604464 159.5073779421268 7
296.4440776197115 241.62110861917105 5
245.58862001410435 108.98401195074344 6
251.83683279187335 100.15576399605409 6
282.0605038998458 33.72348388828211 7
149.2104339891242 118.7591572896178 4
227.4737916540877 218.95767505698242 8
114.45975931337405 87.37527781473771 8
184.81082662946582 249.50359525695015 2
293.1855088117275 305.42545106448813 1
296.1640715935155 241.652000734552 5
109.31331655329083 33.02706017825296 2
245.53248510500964 330.53136273069435 7
321.3760783246669 231.78457819436926 7
227.7431098395646 107.91366564795158 6
176.91451480976244 297.9606049479877 2
280.9775504253073 246.49863112917498 7
49.55577439878842 100.13896163594214 6
48.68267666477699 95.9397979577233 6
142.83861305196308 190.43911184494422 4
267.422621263693 53.36684996173271 6
145.8380249338733 155.85978455460588 5
88.90545043298343 104.35190703088443 6
52.12300058683436 100.5019826518478 1
143.90734083296613 150.7708277884278 7
244.10943700756815 93.2931934023672 5
50.44851461575524 104.7518548842845 1
116.19968790629736 89.78265170230873 8
104.3882770968775 182.14279374937738 2
124.99201474770366 197.69545004051213 4
259.932749500728 107.72958728321925 3
260.54818232193406 117.84336470862091 5
87.36979509915244 119.80156879092728 4
111.29738709466511 178.5545611630564 3
201.36091730608672 215.1426458088656 7
305.64047851931883 202.86185342579708 4
163.04436420104867 187.57886701937556 3
69.4388709928453 195.96671676840612 1
178.2820682435168 144.71635238703425 4
97.89810931340843 130.0384847307581 7
161.1801908818023 291.43976242838846 2
275.2745892306498 115.21093409256012 5
83.88518601019074 126.189846741758 1
175.58656179688245 283.00942166324194 2
265.7388348395257 219.28103823213073 2
271.87768856740075 137.80341913550208 3
164.9709525446273 262.0705456489104 6
50.7453033322763 103.54969158261876 7
288.0141417490867 256.26853193629955 8
130.467850548971 165.9743227947246 2
163.914184102508 116.3473742072479 6
157.28620552046425 261.5449751141684 6
102.2336577719484 68.99089057887913 3
291.9868949521305 146.81181894381595 2
256.06942816068903 54.72615002473936 1
60.064772911566635 239.7692198675093 7
183.35651176218946 207.9378955066095 4
280.102247239329 131.69943092055578 1
233.08741441633524 138.27150926413157 7
269.4110522385332 329.8543971734101 2
111.72240297385177 47.47972893203388 2
214.08251102956666 273.8589927993413 4
306.11897879745015 192.3637385507951 7
226.99547783202718 109.08854014606722 2
110.137212823933 192.6370213889527 3
273.23094686635875 199.1656567066375 3
65.97633747500527 197.94007867631376 4
115.80900145125011 159.68881732504008 1
148.16527492888005 157.7090947015282 7
145.1443819000001 57.45759972126009 6
160.8086338919374 275.4773594749678 7
216.66121714367435 118.92163267944035 1
208.33226521849434 82.45890828966151 6
216.87664260186767 212.5894775562822 8
172.42213046881773 289.4454543760595 3
263.5602517570547 87.10215902931772 7
103.27389297196159 123.8300949580357 8
164.71406375392422 293.4018059002232 8
256.2335565816203 83.9393254400622 8
236.87849276648654 110.08089234972006 4
339.4101966249684 198.93722753009266 8
148.05390719522222 188.0475009723238 7
96.11552125190582 104.74358059894766 8
108.99241915988388 124.54939000042131 4
179.40797362867062 141.52329859951743 8
235.68567098318394 222.1468958113085 8
125.1323036577614 168.99074441026926 7
281.72334881418124 110.51721302724229 3
72.89307481311265 114.54536664003567 2
194.50081981200367 295.4794442150265 5
174.6769431312727 123.48322424640773 3
192.16706100576994 286.4468928269294 7
335.0190623664645 245.0097673168881 4
78.34178252570675 46.74198116450909 3
113.49705688951798 72.86717038677848 4
203.75421568681676 291.318414364532 2
262.52730325162344 75.71902703717093 3
108.258481499852 204.705350410226 7
226.53875625385814 151.65936630394452 1
139.8193882120627 95.89840995039235 7
51.275552421918164 97.59824794620806 8
121.4086756520359 139.60230043764557 7
262.16878408492516 73.27552386892444 4
155.31512236195573 178.81410290467159 6
284.3302992827007 56.226686942449 5
109.33905457549318 129.2660022592975 6
46.04037324357416 99.36009029606768 3
