2
0 22 0 22
10
5.001802369659455 5.51017057334311 3
4.952230757030722 6.443566591915904 2
5.7798268553878245 5.646195832753007 1
5.859934036436947 8.294820999773506 4
11.919254453808957 17.5885191747563 3
7.896903990882194 5.266308926336669 4
11.523037411930009 16.686046349018678 3
11.711839277889249 6.659801535828393 3
10.728345697641563 15.550474819823814 3
5.023001315605111 9.598147372765805 1
