290
0 273 0 273
1000
101.10526806384904 230.35792505413514 3
80.29012831803549 56.84891663405648 8
101.06796121526959 182.94667804800102 7
104.26171750217803 44.19198507795937 6
187.8094570277056 149.9804244702302 4
107.50272611950206 111.94690061309832 2
103.28704851448165 237.51867118741637 3
84.6367849300384 46.285453934546204 2
143.0948171617141 115.50029009592322 8
102.1301452781968 122.96149221657306 1
104.17753104687951 49.7363047666739 3
105.88399848976212 46.48251668160412 6
95.04537722142842 46.283692163119994 5
186.90555913418999 149.55602798736766 6
105.66760478049343 166.49888480566005 7
194.93384533092782 150.43301599932232 8
144.33037139760464 109.7374401742024 1
182.4533344334804 109.57771239184923 2
60.53269309439841 168.68770093346362 2
44.629710343473796 81.56095972855003 1
202.61296979806696 158.7439010296635 3
91.60596206218075 156.51734169122193 6
207.72442212256323 163.65359315184458 5
94.35477222925074 156.05210554284872 6
166.31461921326982 161.40238622993044 5
48.497106615158174 101.56654901348863 5
78.73092179733953 42.966207551617046 7
138.85821622853553 96.63916562593526 3
41.94691427450822 73.1585168686482 5
32.141297423135995 170.27670055985635 6
193.97416347937917 153.28987969448272 2
29.760488415615974 168.17846585105795 6
209.75839800672978 163.80680704487688 1
96.16302081512585 159.73676081991923 4
41.48660181158584 73.90997945363323 3
191.88215526807923 148.26676701744105 4
118.79825124935543 207.07615148667682 7
45.13025861879869 115.96697603746277 2
135.2300222448752 99.63260288140458 8
91.2887302895066 160.45132267146482 7
54.576152137712555 83.38798035086423 1
165.32766333917644 159.75749369156506 7
107.05339159087958 222.0005146265807 6
47.080986688885375 106.46592097542997 8
95.75798562733476 180.37098865310634 8
106.36430047022805 165.6817274672546 5
67.92009870592491 54.529173434121695 2
151.2709867949894 100.77649123429242 5
34.37206032496451 189.33511924639922 5
68.89768201429806 59.47652389206063 2
165.84058878655227 157.6724677095729 1
115.39031201501501 57.791408480611096 5
45.23500346091169 87.89731195841277 6
64.37626201924465 194.66881239925902 1
80.2729011135041 53.72098936389531 2
189.63966487153982 140.7856114413913 6
201.8810202687664 155.64504837017427 8
60.29419817820754 172.96754254863265 7
94.6974307115886 44.64975710273002 6
103.5376115177004 180.63794845342935 5
207.0510519838054 148.6788078826707 4
37.98320200760212 151.47631713846528 3
199.29856552982486 158.50964441132734 6
173.66862297752158 129.2383440292649 7
116.86406819909674 70.98250897037043 8
43.176036932037476 146.04414718576953 2
42.961316852260374 167.8295709890387 1
166.8467036152922 109.67399924135235 3
69.28894410220869 52.94517443429385 6
93.43772243345481 117.93223668338679 1
209.41712195570594 164.37650225307905 8
96.67289160019344 156.27428938779204 8
75.95068868121271 45.828119603530624 4
118.86772686273274 86.14591338449479 2
181.09360467779695 156.6345427727679 4
100.4840746204465 163.4421652160755 3
202.567747853729 155.04033017344108 3
154.91071867462193 107.84661112215707 2
84.68308078614128 43.16454510768117 7
106.418202846598 179.4231625144539 7
60.291647993413164 170.68745846267072 7
96.00859186320082 43.562471248662746 6
122.63043986516605 110.2196235407893 5
107.84182146311366 159.88341492364881 5
109.08326377961268 185.87734788460205 6
40.19994486452078 186.85422518942434 3
131.13705470556738 101.76475263869065 1
142.23251164047227 96.56527463163258 7
31.39580367211544 119.98989874413444 3
23.4766970938984 149.50843290060172 6
142.3074023036778 168.5021393256549 8
183.93890735641008 130.5682061224068 4
153.61654059590094 169.05039205422136 8
27.21618832128983 138.53351535630347 8
194.2764300311505 155.52094944677467 5
106.50620400178965 55.20246817570932 4
76.92979074181436 52.78540163881929 5
118.79263303849275 52.154007864681944 4
126.07611473402272 74.99745164998934 5
154.4921871405051 154.86330688621595 7
24.27341201818892 156.90762722836982 3
106.14967196733622 51.939863674387745 2
40.72767460707749 111.92759312558056 1
204.20859461682628 165.61662817167436 6
203.4745411268319 152.84601468829618 8
188.01392881698737 122.87365119011623 3
192.5124271457972 148.42681888015863 6
106.60977867396677 153.78099289946408 1
92.73102257430801 51.83839969258223 2
198.6360806525328 149.87872066029607 4
199.05544656476877 151.44343501003385 7
48.7762609997446 76.97187748079286 6
60.34078964774173 147.44270743170108 1
106.01013486298412 125.32955679476736 1
155.70230942842383 99.68059877072606 1
75.8680103395399 149.30511018158597 2
127.03800541631577 54.391515033993144 7
75.87265914781571 58.62763648800561 4
39.17431833079142 101.19691339995832 5
203.39799018642464 155.66509576101248 7
90.22220151509966 154.65881152685913 8
54.75732944877407 123.22273679368853 2
134.7197011929232 92.13167329878685 3
151.90965648799977 165.77772504552036 3
97.05958661321694 161.3979520979861 6
67.96657978686923 68.9596210863336 8
95.60997220080714 155.4481857087323 4
136.12308752573662 152.12451504959776 6
111.41516170928384 195.42441737459853 1
44.610560468873224 83.17919205162748 7
91.86005415968097 233.47689309532515 3
200.78228279039567 156.6573300684729 1
176.27743918763463 143.17225935965558 8
58.39237758083802 70.17893892938065 5
50.17132015623908 113.8501096020562 4
40.31026890006443 109.00330930161819 8
147.33064175532527 103.48057033423625 7
32.76675884457476 95.61080702348144 7
181.63036970272245 156.3660207340206 3
107.06707424450885 167.40524500119724 2
89.71621148079228 143.4290113857864 4
205.44786977942863 161.872569632604 5
42.476073531827566 76.27724433662627 7
94.79620087050296 194.30656799160343 5
93.61636462509453 159.6079505536515 6
192.52140785503644 153.58650051071265 1
74.28093733544182 65.20736877925906 5
95.08313534458856 188.4848613296412 1
187.47782373715972 122.04543128633576 1
197.56897989351762 155.3483973186144 1
45.01896366642721 79.89432605623611 5
202.72988592741055 155.84253708135614 2
85.22861723412034 161.11646835724903 4
34.10193315903959 100.49713214627644 3
171.53630854708607 152.48997195996117 4
39.646914198335466 107.88625216341626 3
180.8127525914707 104.84701988178749 3
97.94533592755651 172.37257134042545 5
204.22952182985046 160.5715072363755 3
101.09161669158806 159.6563567776795 4
74.4837761893881 60.90137818850544 8
113.52581710374722 200.5236597783981 3
107.7970405757489 176.98125891450104 4
86.12606555076425 237.91011492373136 1
110.72744830183343 75.17559274885075 1
111.30019828762758 52.16133545168475 3
104.40930487188149 148.93636893349608 6
12.042118409454044 150.1572599067252 3
131.05345243072628 73.79342945352056 3
150.38183608289694 160.45623604592203 2
197.41469964785537 152.35048140667962 8
117.92117566556978 97.41710525030662 3
203.14430847004135 158.5612949334999 1
57.59416211041544 61.5393472766467 4
44.45788240110405 140.08319712500378 1
112.98414122771258 71.93606084127775 5
209.0912387379281 163.34676783780895 7
180.14242555738772 120.98097164735842 4
100.07286892938912 50.20847440042768 5
191.26600706075354 154.70363286745763 2
28.224857354885955 139.32587410748104 7
106.64546539652024 113.91299678918568 4
74.23487882536773 55.81159237511103 2
103.16193837385777 171.72974859464662 4
182.21221766979232 117.14317629399484 5
79.02407497107541 60.07903194488887 7
61.975102634441356 126.58122074670615 4
102.62066637953546 135.47267255195857 7
51.81663059731341 151.24959990082243 7
195.08541845061134 155.16364645410292 2
119.3102443267633 54.02583136708784 6
87.23642634044019 46.31471504935783 7
142.48318910439357 176.43260163404923 1
43.27535448438954 146.07101047686976 2
190.99717592226358 130.6831808461667 1
145.93332020597109 65.01244459046836 1
111.99114774459704 46.50301771758155 1
48.66136193092448 127.88106936003942 1
103.33971153154128 58.867978268676296 7
43.84149237793812 92.22229611961778 2
76.1590279456178 58.921947602280895 6
131.1238737822312 58.26214201636894 1
196.08153720385585 150.6514719103113 6
33.84461642654116 77.46467516632592 3
85.65549321103487 199.82696565634396 5
112.84867764732459 115.96024536311977 1
196.98023282458695 139.96110872338002 4
62.40343266673476 67.18494180812385 7
93.82821016865552 115.57655781495761 4
20.482841137794434 165.47550388690172 1
84.229773919087 26.162194124669693 5
125.14064474361336 103.76233454496916 4
140.1209881776296 158.96932129946282 2
95.15381538520677 220.73365862510252 8
102.98274464169843 120.83879691319157 1
117.92656996244828 168.78053333406885 8
50.579700701256954 67.74916219261567 2
57.75839446155794 66.48855088053612 2
101.49625038676976 93.74811808641749 3
103.44769100048478 45.91353226261289 4
196.21701876742554 113.48772468138917 4
105.17432301548436 171.10794418079306 6
36.69859105301259 106.18382254554142 4
201.51421801820072 163.64671306678713 7
181.8696324002797 109.49665088359427 3
173.37516792054856 158.33325357959154 5
180.56152341263638 91.57862503339462 8
108.09751623515724 111.22649151333341 8
44.18984017006558 150.11705398463013 5
159.01712619666642 163.16211625720973 2
59.847870127281865 186.93970984140046 5
188.09912604656932 150.3555677831049 8
87.48993158302908 54.052792599647745 4
181.02342635734206 97.933061710499 1
89.90463714752399 145.00596078872033 2
104.99994674086578 157.39697389659253 7
148.31192280465623 168.5983935374553 3
194.20135288884157 161.19790561748985 1
140.7373458520409 76.80770755206305 1
84.6423388293771 55.669573216777906 4
112.90246773915662 51.00152349212408 3
69.01371324828139 55.743717099585496 1
105.63853929895852 165.5414943923432 8
114.60896359409591 49.18721770228968 5
94.2276955018477 186.20345019884456 2
153.50653526132015 159.6420435895018 4
202.44604373940743 159.5986687884215 7
178.80643334379886 108.96993412329054 5
179.83224249936669 93.15857361690458 8
54.37747396080205 56.177129020494235 7
98.67826409257779 190.29221119326513 4
110.42063299024679 187.54786606833557 4
184.44674440967378 154.49727641615175 1
97.94514002746179 147.38937638358607 5
35.796268935058805 115.50685618588476 2
119.63803148216128 123.29431397351934 4
75.17586920225757 49.97707954119489 6
94.42264751129069 109.76757916257002 6
99.08888311449833 153.87803820359113 8
174.5087336706588 125.60888646398396 6
155.0664153469587 164.95944613034368 2
116.27312533368735 185.41210051320618 7
95.45061609188501 186.82614985251075 8
37.62499826455208 79.1464062717749 2
111.95730426509631 40.85511242030649 6
70.9114605117567 63.57824147594298 4
206.52153277229132 162.57593990837032 8
182.87467918666286 129.1707460252505 4
39.43146357344584 135.50684007382668 8
93.27927299864879 126.973327367654 5
100.92670395403498 155.60836554004763 8
178.84649138702562 128.1430669226108 2
199.9779439245266 134.0342727327727 7
198.01913449840896 124.08886883058025 1
185.949335283915 112.06440321351167 6
110.62410604507788 104.98643796809067 3
59.46908188115667 61.87412472513109 2
75.25848801212695 44.96114628685116 1
40.916706908482396 78.0765733211302 1
109.72790882639828 179.6573022783862 8
42.697016214621 170.803448485196 7
112.62706805330376 149.7391342839219 1
63.843564365593856 56.30458772020185 8
114.98683344617517 177.43066589039623 6
204.0660133334721 152.59644050663167 2
46.30313863050601 138.44312744175627 2
81.4782765941999 162.5614542251994 4
205.60810164674174 157.50458682298517 6
196.16565289499255 146.96187883180949 7
46.69145009444473 91.06554407172983 4
89.7432318002855 54.82221989318876 8
101.20445985026697 141.00375617703762 7
154.8764058117755 165.457469612145 7
114.76267988621305 73.35001188072575 7
98.60074286898346 202.71976041638362 4
93.06286380504262 216.65981913310418 3
57.831128465187135 155.55703177743058 4
40.838897865348734 74.04946282268361 6
165.34645772917557 113.1314719605085 4
126.7429063325308 107.07947131769531 4
76.25061446708935 55.04100206671123 1
206.39574894409066 164.2225782115837 6
179.15719143132688 124.67383402580583 7
33.405113178406225 142.4065705912805 6
76.88501203565923 220.24780497071922 6
146.2180514353695 160.0832434751787 7
182.6161872966167 136.0690708615892 7
125.62078238868722 170.34823812663797 1
203.22457164888752 152.75023210655203 7
35.40863534958865 128.3875060879653 6
67.42593973980264 52.550206200896675 3
81.77101101088925 170.55504714013313 8
36.88694323129756 167.0926526551691 4
32.598277894737954 143.47614119803984 5
183.56819125662844 161.03947808432454 4
115.34548305645231 170.86772156180314 3
96.97959715039835 151.65463173224273 2
201.6384668367437 158.50501406629266 7
86.85471871017191 51.07677453447459 6
157.2064860219257 168.01257901873174 6
87.28152808148018 174.2860331887314 2
146.84791899056867 95.96841359591215 2
175.73493876084376 161.3804104216446 5
108.12566471293808 51.57444121302894 8
100.00286469271654 180.51498803603351 8
193.97313133755122 151.65768776401254 6
122.70175187961323 191.76982045839935 3
85.28881003927636 54.7784931779532 4
104.00619283855191 177.60526598190336 1
187.21962187581798 130.2120306162355 7
177.77260490767497 126.20492731254579 5
130.81403514745818 174.5829873545361 4
38.44749856104934 95.93381948350326 4
57.45165529299172 63.636872422552635 1
196.9584440356525 122.3376447835494 1
177.8582308344954 96.55183801748288 4
117.20994260918977 128.67500241129633 1
171.51745489075748 157.23909072869714 6
161.65109669299164 166.3305053087615 7
86.45177956140427 51.61386254630722 6
108.07833948311749 181.82978969512473 8
4.0 151.24885772373744 8
195.4123511701771 116.90257419463705 2
135.8442045713557 171.88498968005453 3
204.15015995263394 167.18549603584077 4
39.83998057094489 106.79189920063517 6
192.11871371174504 148.3715763177404 6
49.46133211274761 115.1620444638636 7
153.82539892971857 165.28867153974895 8
89.57515841515216 42.0840958592887 6
148.55103876261194 97.34398454199771 2
205.1792566284173 160.63671867102582 7
100.72720066437387 140.2737303044651 1
203.81679509956408 164.3374944614953 5
46.8544892131723 60.69697581942748 8
97.57281979205902 42.74615696554568 8
138.9149547156113 102.09131302991135 1
93.93831752167318 52.046095029760465 2
88.32543629483308 117.59865876758153 4
92.80482473674458 45.31084716235616 6
157.05685059975406 147.10086853411406 2
116.23529002243862 186.0564536508191 7
93.15183822430627 46.546561820790764 1
119.1923705484316 40.83234869800302 8
144.37016491790797 64.30466757865422 7
123.74529808617865 169.29868727141502 5
144.4992371130182 152.92470100114326 1
114.83655306026964 47.46910686276161 6
92.58223764204405 54.623917982662746 6
63.019806246269894 142.92704272528903 4
192.96408114743335 156.66930890290573 4
46.09949258038209 68.00999168689005 1
182.8283587358287 151.5382520243035 4
203.39207126762022 153.53732702915664 2
208.19380936787934 165.87674128659762 4
91.05372275672305 114.83524299499297 6
106.78142392294633 164.9304300150225 2
195.07004564895115 133.12923255647922 6
80.47198625694514 47.990233701177125 1
174.35739288727007 162.42571066543516 1
92.98638433648966 161.3458452356813 2
171.74503365530728 161.58140566749353 1
160.65706118772954 146.16337368694025 1
52.23691447257985 79.12064188136314 7
102.24999751803155 124.7084888741678 6
77.43997501369128 47.41515661237841 8
118.94802803090705 95.04066173549185 8
202.51078670312515 162.57441143251765 8
84.92147446011779 43.69851386004073 6
109.86655311544776 209.23246333036795 1
179.9884545424374 157.08915888139398 1
94.57580353135901 110.20544528839974 8
95.23254347588569 141.87874668698228 4
104.35852793007373 167.69873571659033 7
149.96920140497267 169.42172174694056 8
93.94308351203347 146.6583117314369 7
109.28967686027008 54.550333386649015 6
111.06219355557997 49.71264208039711 1
124.6902222027218 91.0952710242732 4
108.5272798862912 151.81421730700677 3
67.3992042674905 56.097076743758215 1
109.75372070843463 176.65993540117026 6
148.48656623601946 101.58113801229646 8
44.28618304875207 98.49139377641845 6
41.52420238138181 61.67030898742664 2
71.93004594733432 52.778449231492644 1
70.66061896389134 64.6174468363696 1
94.8699581873564 155.96850703224138 2
149.90229983518304 151.2626750214842 3
43.864364784146076 95.32268440320706 1
83.05727361551429 55.44811844505126 7
105.40944740827159 180.1227165527589 7
61.42653896246491 56.1078859976002 8
163.3804753075989 139.9611565482428 1
145.84076998467978 101.80343304969337 5
124.55848101646595 97.06948905070328 6
98.26908535890097 120.48331327716129 1
96.41851511802602 242.62410191874392 4
88.2179238067826 204.7756579277916 3
141.46020276656458 192.9952647037365 7
43.17848133212872 152.91969269437462 4
82.53319746149148 47.87775031415607 1
207.76887948599446 163.18704694243826 2
111.98556185070464 46.122350625357825 2
24.200096196976034 165.17184842851245 1
100.61386699247848 50.023055253047644 7
84.08785136567947 50.3801204222216 5
97.38869690498785 164.12159151518915 2
41.520198726568395 110.10671452055668 1
92.08524523959395 172.6672436414007 4
172.09045725927945 102.62741224465263 2
20.127602075700675 154.14036666752662 3
110.92239259457982 211.68329031519357 6
141.13948141981052 185.77656340482093 4
126.96001660530061 77.05692199657008 7
163.49293495885968 107.1425025570397 7
36.470365824213225 84.2441037649313 6
106.90549808732581 100.15813433936813 6
51.591982742741315 124.73238986311269 5
24.029353109062605 152.468263220337 7
200.7906565014307 157.34499218833702 7
69.65541965171839 63.04989671460173 4
145.55326441982047 100.45380866731999 7
40.88868732412899 98.7345570584107 5
102.5492996244928 141.4584640954468 1
185.86101963430576 153.13496067717543 6
136.8873705988725 167.00115088253995 4
185.16861566816888 101.60726066772095 8
113.03573876732182 169.55893303151333 6
125.90458224184694 103.9448054457352 7
137.5555852691001 179.12922036604022 1
98.6434474619041 155.40290076156487 1
207.65994842216122 162.23075814324656 5
205.33828385091115 158.23977441705287 4
132.37542642161785 157.2962235679165 8
192.83044551610303 131.23990245896857 8
125.03467620925022 162.33156821403992 5
187.24438479024852 166.75084959341171 4
94.61899298959281 177.89840229271218 5
39.307254207133056 86.96019033518105 4
138.63923403726403 166.48454426304718 5
99.99540164611425 130.0580115090944 5
49.32674613151092 109.54440866185926 4
87.78512802622127 50.57308170899424 6
119.35436030197718 78.75222286922038 7
96.35939292497505 155.09695877915235 4
197.52198157984762 156.40252442505744 7
128.08380970899964 168.1522834038249 4
68.97547240703074 58.62311400247754 6
98.57192147946442 164.80244358106134 2
184.44831343221594 143.0002874627543 4
64.4186120203434 53.2092595262956 1
88.62554028406025 50.86203276707074 3
84.07963315303394 51.2814794785415 3
68.20848400909348 59.06785103944195 5
112.83351539212482 54.371745835837295 1
99.01633334520037 118.89451862505986 4
52.63022222543576 76.1205280275569 6
122.02549708033419 59.175508852385676 5
141.37500515358832 83.93491865533159 4
95.49650073009514 188.95285273695634 2
204.44059658144235 158.58255442153055 6
179.23438512757048 109.20090210089185 1
105.62234763009008 111.59453134455683 7
102.43173607966902 184.16741851039927 4
118.97706484425173 148.885482727988 1
36.74235324132691 139.36277958466886 2
31.606227593627782 167.9317253326261 6
197.3033091543098 152.64651150549068 4
143.58029556197133 97.20575640467719 5
196.65237778688112 145.64030329576164 3
135.68011001787664 170.5284687353345 4
132.4313145381877 94.22690251068529 4
144.1397899916598 93.91549203386019 4
192.12032912741788 147.85715649000983 1
112.61000999728248 193.9469567804236 4
204.10770797220445 159.5962229781207 2
202.22380497299096 156.25601246064625 3
206.64816071808102 164.54756947744326 7
95.81955708858298 167.72743348682462 8
123.46800903357337 182.50650910440348 2
204.20271971508015 158.21240051495948 8
102.05236085107664 171.98685271794383 4
201.06143748643402 159.78154213099802 7
68.8115621495149 189.5814928276663 5
78.47817441646319 178.79144186490458 4
193.37878132375556 149.55612639063983 5
119.86101987876249 91.12420066893486 6
153.75035313978196 158.92802524176344 6
192.25533992294 151.4410792201987 2
60.603605129224746 58.792273935193094 8
181.733271266452 146.68468791310767 6
179.70389312993169 112.6963514232904 6
106.16167053058346 179.19072515982046 8
100.37171246590003 165.35107598629173 2
69.30406907153306 58.699436186026716 5
37.56411738092528 113.61216228154719 6
37.289778020049816 118.23093099431395 6
54.699742411461344 107.72745889021097 2
135.57594956260903 100.54802250293329 3
53.952028293531 57.869467444947595 2
205.76030514341116 158.8869214529481 6
54.20570211922431 171.84194572059292 4
111.07270724396918 123.11469902319854 4
67.0402772579764 145.19502613952736 2
191.65539200891126 149.62927362962998 4
136.3253143527783 94.53413002285549 5
85.68402665934204 167.84556958784358 7
211.0444895162467 161.73990126508508 5
78.22819358398975 237.48950409677968 2
203.92301695455555 153.3779980503532 8
208.92524281198462 158.66513202407108 8
94.2376462248472 153.60551316174605 7
208.12184548784364 160.900506349843 1
79.33493644301912 49.163958472336866 4
41.84525267944449 142.1693606883417 8
205.2373493144083 161.03317560586825 4
207.85639525505925 161.55473817485543 3
184.55324623697445 117.98013748692145 3
99.47957128539281 201.98551235918256 1
107.13874811084622 164.0446643426632 2
151.51977428492305 150.69581843181535 1
63.50310586925725 72.77497489073959 6
72.5750881327085 52.37767761882466 1
50.562643576205474 106.81588518376162 3
79.05058444512262 56.04621942417205 2
204.1022606073164 155.89500110596188 1
79.24520775947774 127.45263888666085 6
87.05012042940089 236.4509273391187 4
186.2149352106023 125.50621966797179 8
143.22100204086328 85.1810435093841 1
88.8308147999762 58.86346435708961 4
94.92173403287174 113.54904669138585 2
156.76129207232685 147.0997151973069 2
100.4571158261911 125.56906833003121 8
97.18953416333557 224.53884186790452 6
55.8258675156567 99.51868725037316 7
94.46793659445603 210.439046006549 3
193.24962422597824 146.4244884343276 1
99.76892046366494 117.45455382771044 8
84.6084853652622 228.11752833723165 6
132.67051086834454 100.4432828636904 1
103.26168770791004 130.24323126200494 5
190.10302592409872 133.40761224545165 3
98.9003774944477 162.74794392707446 4
77.56853777829565 47.86805318353465 1
202.1465784384773 153.6878097378658 6
127.31348397708403 79.11536300341592 3
43.17688124129232 99.47979910558536 1
89.97303934003952 203.07005395533605 8
97.20625495200032 107.98545745140528 7
203.56451112925214 152.7910010562143 1
45.85112652995488 98.1362697736129 3
92.72820939746829 39.288021124159414 3
78.4950028080523 51.2768400853862 8
140.54916854098263 93.37866097260056 4
116.48020632371453 242.79506652160416 4
82.61421719148463 45.558639510593615 5
85.40329273965742 138.85588841936124 5
158.36364443872597 145.68225738353152 7
185.8254509333081 111.16492799328553 1
202.02853303641214 155.8513367687951 4
203.09507239931582 158.15859854765478 2
44.15318628932819 85.55530757496754 4
204.50614462342475 153.9486231431254 6
131.78872139669306 71.92490814143717 8
196.613221972505 153.4860824603004 3
44.88870599430654 160.46135820063685 2
125.87850848622784 99.68006669250023 1
36.21468633373775 175.01950304584764 4
23.571386383456073 161.14426692183557 7
118.232558729724 115.77958337697274 1
37.85307888386697 137.3706212010366 8
176.5112466745132 150.65451876373854 5
102.19818043474837 180.54141559232494 4
60.42355766323576 61.530775822324166 8
53.75117591088052 55.3777850278626 2
66.64975383531437 55.705236270103555 5
201.7911014497554 153.62495152153332 6
71.81097980944303 180.29414076621057 2
52.66202893621167 109.50176273011279 3
182.82666520972157 147.31318205875436 5
194.23003311222232 150.46239351225347 4
113.00524739201353 155.50549490732334 6
78.76030531933118 55.29514129512038 2
164.70131048895536 160.08444239345764 7
176.56442568011337 123.76838273281422 4
47.82100009537071 111.32464751708339 2
108.60492630444519 178.10465879338562 7
115.8998576825967 37.09581494743478 7
109.51596823037552 45.361413232395826 3
101.05569860136895 214.74968298666062 3
71.54427113403591 64.00968371280096 7
111.05137294981891 115.00412919062735 2
103.0523402172646 229.40767131350754 4
80.50728489942513 53.58706290036038 6
104.30347309134106 133.70376719181277 8
203.42833959474447 156.55579068878288 6
200.38720136098948 154.99713062845393 7
52.682835285135646 182.40709326489755 8
109.10622259469325 165.96695487122335 8
107.63626473810214 151.40549972382527 2
80.84530222342033 47.153732464426156 4
122.48180181122655 95.8655374162627 4
207.42152815246249 160.84773461514186 2
114.63257103105792 144.4012638918493 4
132.53982708718365 187.92701413370426 1
76.36653214434443 52.77405476033044 8
95.32890593819646 110.96223261725788 2
113.530589615302 241.17331211191413 6
99.76225270198535 233.5332170442566 2
42.295641202546484 73.52444740502271 8
160.2829758451598 166.83861796170825 3
171.5966722129954 103.72684022752338 4
38.20868620997463 175.17110970216962 3
109.38269743346987 167.38780867496172 7
40.21781748104212 82.75476545149706 7
42.27856703913746 89.56989440711554 4
39.06484244458409 103.76915620591849 4
94.89132403873957 163.58012101867092 6
78.59519587944571 53.84519153412905 8
135.7170488874289 146.4867225483004 6
108.31120682481205 175.43974182671332 1
120.33797744294182 76.05357638229988 7
55.00437303835207 135.54914164196632 2
158.7573101683182 170.2048783428414 6
56.11193764457725 59.72312730878662 3
148.94411080656894 100.86569151869733 8
141.52720106064504 91.20506818642343 2
83.89926912413927 154.55168223572477 5
191.24749232713066 154.25117926506866 2
35.51043997293962 84.11012437625777 5
202.8675578148225 157.1033196353472 3
41.01189854080422 148.32559360392844 4
107.05576669484155 193.2466978901579 2
40.283982766333814 173.77217622295356 1
170.79290574066343 165.25802316323066 8
39.072229586249875 149.89693887927783 3
170.12801639356712 111.17662045569976 3
99.4208824936591 225.89782376947096 2
53.863419333320564 85.70487385454626 2
110.00285823984476 222.7634114851535 2
191.38718845671426 156.38690941381532 1
194.46657660751512 151.4078633100267 2
104.96517074724541 181.57948007116144 5
47.086561864789964 86.31152378648741 6
173.1503232185046 109.04132516635677 8
185.46008860410726 154.2484510472612 8
192.81962644198344 130.23580055872574 1
147.32418562743706 99.00120053636667 5
75.15791615183846 55.480910037768496 1
108.42103180862361 176.26869845869703 4
88.0559426153102 151.0918138940104 2
38.40090975558232 65.70531928403561 6
75.63526996676929 60.18207676442644 8
193.05883506060005 150.87982454602334 2
191.81247666618515 150.0420701113502 6
179.27977052837818 145.9934214726765 5
203.02695405412499 152.20096320052227 6
97.33307069208178 148.61328984092322 2
44.97053734012641 116.77140029880829 7
107.63504220337353 180.18348752389872 3
39.08297515245476 70.95673371553413 7
112.48074852042225 194.66147503446092 5
202.9471654877758 154.90600013000005 8
191.5882234402006 152.5128286271522 7
98.32088890080574 209.02921768028094 5
48.69281665624811 167.93294164763586 8
170.98596500043956 154.55442388646264 4
123.06971971440228 91.5141336404822 7
158.7565195995377 160.44209811192357 8
75.4180690615881 62.21648787531769 4
201.15182866470204 123.9238562396612 3
98.4218447118317 164.62386654842192 6
168.76620383482987 167.19376152479558 3
34.71702896281521 86.47781035674564 2
176.20885188197687 112.11868647829601 3
114.26354141065829 99.0456779619404 6
61.08955338989959 61.43191427797405 6
55.818691628095145 65.14777959914913 4
208.62678767917353 161.75590637752475 3
41.451513688868765 161.50407681552863 3
192.6062812601684 150.51118261428988 8
198.07559741996548 153.0176595704385 1
184.1127634028162 148.20801530227502 1
100.05646831236524 117.57434234943234 1
39.973974105503856 104.61466448728484 3
70.4697215190726 71.20977999260957 2
37.98929117557164 173.52823281759623 3
112.6960128030682 190.2340380043127 1
111.07231349423 176.10654132564238 4
72.56404177717671 62.13120790949665 7
125.92053393704813 79.81596447238431 4
191.77413835779035 162.44577538739293 2
190.0859444959245 144.88581958183812 5
21.972721438296915 161.7058482476452 1
75.05417308938854 52.40983969833228 1
155.99082714885031 102.13807135269192 3
99.93790635287748 51.86411505145316 3
81.33333584065578 56.14703464074505 7
100.44418925187676 184.55381453411826 8
46.33499614647069 141.4375768429488 5
50.46044955468396 84.82256315388379 8
113.3081508962102 48.72222567907101 1
103.9694317470319 184.93563972544374 3
189.24551116378737 99.61727322627102 6
119.9065168510723 170.05391307653363 4
180.4193931616026 129.29402719130135 7
104.05997695099796 177.60404634665636 1
105.81665039145678 174.0900129203343 3
69.13806013630256 62.731194034101556 8
49.06663980811149 112.91813161722693 2
81.24705225230979 51.44867912365487 5
112.77840377163076 220.00540977637317 6
90.49620548535466 233.4612997139527 7
84.75756982218117 49.8649342505149 4
105.60950377037503 112.89435999436326 7
101.65081736688221 177.86032281250198 3
33.86005142383035 98.1731117069413 7
51.570968889686654 106.86745377971424 6
199.91597164154493 156.39960433484865 3
107.47036733632828 61.19434432359908 4
170.12911948471046 155.26539438915015 7
130.46218590457312 174.95980488607725 4
161.24789402258963 90.7516308865422 8
26.70038765733922 100.76070222146303 7
89.97837518842107 194.97012967876432 4
56.40238406678003 68.83239279109155 6
118.70831176794836 111.04685945573985 2
114.64826124211282 193.0837494271607 2
170.75784823477125 162.59391318537695 5
50.098641551412555 63.86946787178686 7
166.48604487438558 151.89622160667642 6
196.73067777144857 149.68703606748448 6
137.6351253697986 94.08907521679942 4
114.1335240632114 38.60080088128002 1
81.13436690530695 52.27181628531181 5
194.63534745852022 152.00021865495594 3
206.33328807578528 159.51423455851946 5
38.88138100343289 78.07023091677617 8
126.41590303633726 183.1629640680143 8
36.80063546653692 170.74532193409956 2
33.14292755953424 121.0629843992129 4
109.59463370459663 137.8843208563488 6
142.11217237407857 79.99983264824169 8
141.25316830416833 112.65951366691512 7
172.97393022239854 154.04357881454976 1
114.29542022694223 173.38577087726534 8
174.47615737571493 156.934826299909 7
112.16481585614537 110.73400821490263 7
195.17723242446996 137.88322466914371 1
64.53601704179384 58.616152022374216 2
39.922593829582354 124.31829077728757 1
175.04425237418238 114.65208858231968 7
135.82082189849476 142.48889416475626 2
63.86572779652251 73.72507510902346 3
205.18037164388852 154.5075143713978 8
102.13737919914317 173.90396584123118 6
139.88917513532692 95.30065106639074 2
110.20623248074267 97.76337271370036 6
42.25136477427279 145.87957384128111 8
94.41275322711715 130.80088348650392 8
205.51210290966657 160.06110597984036 4
118.63905749954958 40.37261955563246 6
113.42696473352729 198.69984994704478 5
176.98800534540993 131.80010853695185 6
115.18619397930193 43.77742658300805 1
30.726501968226252 104.71004800771112 1
146.82048705428113 96.04091018114792 4
44.68471597127234 82.88875048350835 6
33.9405807580225 89.63987308689087 6
77.82784813692759 42.13034238422534 5
49.474509431106966 93.19038622975108 1
102.49510960307337 55.337657443679994 1
44.723739290156445 141.61384776951635 2
92.47518050250119 131.58978766907143 6
192.64675902980812 149.1201332140607 8
110.15051263642528 178.88185990033463 3
98.49752091296997 151.86826527336447 5
80.28386307426486 47.81218630173152 6
99.13259764482277 146.11203024118873 6
37.20766832284977 98.52043552209626 3
81.25809742546286 51.62087523495122 5
99.9360322865963 120.15658430084521 8
177.33111211188503 156.43192639161106 8
133.0788100776886 51.59634145402004 6
41.140564878988656 96.63397924672309 8
106.78097788645528 46.96905901338433 4
80.15495689223893 49.231470474348036 3
201.60896667544893 157.63548746612176 6
199.41761015146952 161.66866751195113 8
111.02474939768933 162.30240762382496 3
187.68201372844615 128.08229700488545 6
98.80748111467655 218.75024884625617 4
38.09541477269583 85.84413865623912 5
85.59635596611153 58.443402745738496 7
139.29774955301835 94.89947634778052 6
102.40215649373025 94.65862911106987 6
86.40814779976796 142.5295470933625 7
126.89244822741114 88.54137902386553 2
196.25180652604024 151.4290573665226 2
43.925085207462054 72.46860239321902 5
116.7435860177437 90.03233448579672 7
72.80041249877212 154.49571819877104 8
104.85019472413971 176.21378821110483 1
125.39410587661017 81.30410555573316 8
202.40825831788396 154.65259506499044 4
124.7844938925519 176.5779748255454 3
123.29065289072116 113.67844120481304 3
49.472543078355855 76.28110311992407 5
128.41847465256257 105.57940868919074 5
202.25021524762954 150.59962072212346 4
204.9542854467469 156.59671324927876 7
118.89517570192032 179.7470261613972 2
42.197110403320636 85.15551889514114 8
185.64614645039774 159.6867768289829 5
198.6552724289843 142.45588904637282 4
147.7597631212434 168.53234123321025 8
150.75061351496558 69.23487982802499 1
112.76339046306855 183.78974629206587 2
41.904399856460124 110.5450400305789 8
190.39394240635252 151.3560588567171 1
117.21353842281293 232.50443354458613 7
193.93023267331634 149.95261040581917 4
131.17070948446005 187.08677000905587 7
193.91611320255066 155.06713631967204 8
103.72554181657232 169.54627175626348 7
142.4599873375769 96.21000912035993 6
114.55973165244633 95.18849583675988 3
85.83302956879784 147.4434685977854 4
195.61974532929023 152.73730918447868 7
103.95273399678392 175.62385668507116 3
94.75674570595717 43.86182510767531 7
203.19187985137904 156.0675418053636 6
110.97644920257667 121.06345325287019 4
56.16884447796417 110.18503791671613 2
190.47597141340836 151.416490126237 3
43.19826251092727 110.13679524227949 7
98.60469951734557 43.4998932245297 8
94.40997478727505 151.194615704855 1
84.8455535858607 48.75467759727729 2
152.41268461376507 104.30851120704241 4
209.28921561933612 160.23444116366534 4
107.94633503772901 179.21100158708987 4
162.92274761559506 90.31410023510155 2
183.83305497457718 106.56146317198554 4
206.40993621101188 160.98128328638717 3
44.89331484796814 71.52106363814583 2
104.26093383627153 150.03772675520872 7
130.54032969656623 162.1438751737418 8
160.40544394687313 163.85450585521875 2
198.57312298138592 154.18221159473066 6
83.84377327958428 168.6788818507196 5
55.59134834868832 151.8543141437112 3
56.2596580609038 92.09520416057308 7
102.36441765113454 138.24728682818147 1
97.30758587445325 195.2660811038181 7
198.72077660779738 139.76527483370987 1
99.53146895901087 134.4946493683524 7
138.82712145926254 90.82788713544669 1
101.78745507499995 175.10208951409513 8
37.16573962017862 142.9583456941106 4
110.67916048702024 182.05962275416866 8
196.6089014337695 149.78642038403476 6
62.40608972612056 57.00525933137456 7
51.39743376494612 177.96156054114272 6
102.37935218134062 127.81404449794417 5
108.56009284832943 44.2675446964728 8
207.03425867606114 158.95286342333725 1
50.67745533375769 102.18726201360413 4
201.44338478877816 154.7033032781012 6
54.858388808080534 79.6282282348262 3
58.354607786124824 67.27512239353321 5
111.1224153748301 164.67069148687625 8
105.96093232880214 114.4564562315618 5
54.67059379268763 156.89787702082918 2
107.40395094257448 162.05883528077288 3
70.12458225271602 57.06552576164204 1
42.69560325660657 129.77103319167594 2
122.39004025664183 44.812650097491236 6
99.61284303373985 165.6923774843998 7
36.789493589414704 93.35685848426513 4
96.14858995139542 159.42235464154263 4
139.12730370984823 93.19479963257442 2
136.95060557992355 100.54316887504378 4
37.66083049596345 78.76171084712472 2
187.40618068836864 113.56847406814425 4
190.6002659032351 150.78564833203205 7
111.37473011968027 171.73987279577304 1
170.50657568521692 155.3551910325973 7
108.27242765802151 191.8244439318991 5
31.549713159786464 115.42003086769333 7
162.1240824318777 87.49405730667077 8
187.27030796312883 131.09614790326202 7
115.73779781817186 102.58079647552765 7
89.89641233641609 154.97037486399032 2
171.98679988172842 161.749722354838 4
92.01310508325483 113.91281872196552 8
77.17232409119904 143.4488512013445 1
101.96618398347198 182.06033949154366 1
204.92657667015206 163.87545481739159 4
92.51347032957332 106.58890386593094 4
141.00665567099475 185.5117378241995 7
166.56758748348705 151.29602926426122 6
97.5546189616787 153.52363638352313 5
137.58005480488998 98.56240434541995 4
31.926491570343693 168.54626996738472 1
25.72705961580681 99.49999471186317 8
98.10670425978898 52.27636256180667 6
101.39883570122832 150.04497685297096 4
158.58256556165375 107.54515498892079 4
38.42713674380606 152.82007702002036 5
108.92629499975975 196.71639770460553 2
40.931584774669005 120.95404736329459 5
119.73130189107815 47.95348189874718 5
190.19933498907398 144.9816371694879 1
100.21460851610692 45.178975801649834 8
113.65270472351426 235.5994700674972 7
25.685490762658638 94.15135696240468 8
36.17441240645024 157.2078588873625 5
203.86426463512512 161.7572245995888 8
84.33725070728947 230.97734906103483 6
144.97244719298916 105.37964622918226 3
48.401012504138286 118.46607561994887 3
35.86783127580716 153.1347784033885 1
116.9054141600961 67.57895447057173 2
89.55254576334428 46.405179275238154 1
101.23237085480967 169.1877847438126 4
198.60289452092908 152.09193045703512 3
117.9327577416518 193.82546088445588 8
46.680675905871695 80.8885100897176 4
190.50339085677842 148.84962724815233 5
30.748945881468245 145.8712522603658 8
103.002270842602 104.59009751617079 5
84.17296926090069 146.14470225423128 1
130.1743323281759 176.99731063982583 6
104.27111237595912 123.28695087713793 8
52.85974990473102 168.4751726414734 2
90.3051360557973 153.95574985753188 6
71.8471258599348 58.747247129557 1
194.84652203308175 152.25813571697992 4
84.64595037757884 53.48752282329004 2
187.70510257690057 128.4557941989323 7
106.38270029548285 40.64361838762976 1
41.84704229234562 110.84330857899273 1
64.03536163820405 170.71644164809834 1
184.86346317094876 111.14465021510607 4
115.13529580301376 47.52032074541876 7
136.10170962032552 91.59963172311706 5
88.37554512677701 234.1414043259767 5
105.16966923485815 161.1406556733457 7
188.45112512916398 147.04862691441423 1
103.00816471079595 158.32050899137985 8
110.84950812138028 59.838805515772115 8
126.81009236176381 89.73994240394732 5
196.50927502378985 159.76025884753716 1
32.446378033083334 138.3671195548396 5
169.1702129075237 125.37393713910652 3
114.69394463963299 40.70939179018185 7
173.96534862698735 117.7466537862227 3
103.95152885670217 153.3976014770091 6
139.96070050864535 69.64884701191045 6
46.93672109118376 158.14920694600772 1
105.0150425339913 158.29902365025762 4
50.041598495915025 79.1080877049319 3
94.54120470954307 154.39100674055467 7
109.23794175747167 188.59483900283718 6
192.39816191784723 147.40525601481573 6
53.07039204845576 70.54391994771846 4
105.35527042492647 119.49322204804479 8
146.64006067673037 97.29211145512213 7
71.81247064973057 125.51711276530429 7
102.97423880554406 48.877363069768094 5
168.03563744101467 117.53866178049208 1
110.8639383181953 151.56426603934673 4
188.16311832564105 111.21465544118976 2
138.0321422843174 94.56537386241854 5
192.86120569564076 140.89433705377994 3
39.782463512527855 162.66639782341326 7
168.46190105788156 103.9997275752031 3
