460
0 218 0 218
1000
140.23437884701946 41.95874698572529 5
83.94773970751362 89.30962696794168 4
53.177157216092716 147.2361115835185 7
95.58182083531402 96.94069796609674 8
154.1720672660287 47.93413882097769 7
114.452473745683 49.31781758169997 2
93.01561175099194 106.95086070861105 5
121.42495951081597 171.69937712001388 5
53.55592340529929 48.5691402756135 8
126.67852307338526 178.26433968653035 4
90.84995569168032 39.1616006148828 3
46.192712618422306 60.03242233119404 6
128.89104613908026 25.008259251901062 6
122.2188301959528 31.028285950684143 3
48.616959850286776 67.20657397692943 8
50.76734900254712 57.06547359065251 7
111.47225902146198 55.00267053239907 8
130.28634974435823 33.00797026328638 5
141.41911617632164 31.04913369029198 2
104.39380048916762 181.22362710008088 5
86.68078976137063 133.5103036318046 3
83.73375467576265 30.323826251741515 3
45.80121962924213 167.5625020506953 5
140.11723331695828 66.45234789900886 2
117.2636732841023 29.911956859576215 2
114.52526153713501 57.61192303042464 7
49.26833712874695 182.49558259935162 4
130.26916426871972 27.23448928191858 2
185.13253155766068 90.94636085832079 6
53.158009380149856 61.870917781873395 7
118.40774697381528 65.2854241470013 7
186.85599395338502 152.08507341325245 5
86.90125993462392 135.69776661682127 5
53.754809229849 115.01535914569962 8
54.911480585055614 59.73728003647878 5
80.84004803763924 38.55383128529785 4
37.766461744647906 74.19740843780573 5
152.49054806666416 179.86294347422725 3
69.38518887328871 156.15880598231558 5
86.64075425081667 177.02775796037713 8
109.23826270259075 58.48085731584583 4
81.46243801788762 38.51977198394961 6
123.0470832318803 31.7147248839922 4
95.73147213617055 181.06220474953517 2
54.74642188267413 53.72079287613695 3
156.6213292588267 54.067698028121406 6
73.54291462637974 42.77408077839624 3
120.86393322240502 169.8239730227817 8
135.10595221206788 43.28055819611488 3
151.39148025467247 186.96244204008045 3
74.83969928341257 38.948884508068744 3
157.06748321994235 184.49674057119924 8
174.7375996813023 153.0436269663191 2
161.73993514113317 165.93909004001287 6
160.7671197818159 150.107392907766 5
145.90110947581945 179.39210156687406 6
59.086600475933075 69.52462811545881 4
57.63771854467502 58.85296781551432 8
52.86986995377037 60.9910525584335 6
53.028501151345935 75.84618814201875 8
60.26433998617056 68.63579619035076 7
115.88529463789997 26.41813848054301 4
91.81744670705372 170.31975588250788 2
49.14872328993029 67.11671631187392 4
166.42102314513693 166.28396054053732 7
145.1299346156842 180.719235830368 8
84.32645716849208 102.06227404669855 5
71.89847967797817 36.7048667926062 2
106.79725914654225 44.43161467101977 5
43.16688910768702 60.247812016284236 2
77.47131338396055 39.53589156661399 8
171.27468467720593 167.34464835338312 5
60.64882308779704 69.14562067523379 8
61.00925722142749 60.57038608410585 7
117.92891739752076 28.99721028778418 6
132.5984339885191 33.2041927150762 4
134.49719055191903 35.20295545801312 4
113.29312445282271 55.01475829844911 1
71.00568812678067 41.74403570162522 8
93.87450375824311 102.36362700802407 1
125.67562165540978 30.893933163037396 6
137.14306642985653 39.06653723794614 5
108.88396459569239 33.13976182599328 2
83.27777760679298 36.59034310461911 7
164.33911496826224 154.94947894171733 2
77.32174593238392 36.81420916786755 1
80.04744895344078 165.188635720982 7
55.54937564844521 59.3131727323058 1
162.47838404858123 91.58028982167635 3
145.3342131725469 180.55714085673887 1
90.48953494526185 93.87691860731573 8
117.47337825451444 91.47662619280545 2
76.63346938394149 36.8385890049198 5
152.23330406026218 184.73602639101068 6
78.94986198461345 40.69633500635611 5
169.0064166947808 12.613024798937008 8
55.39973747008172 67.44661076191231 3
152.58102020033198 184.23105933845417 8
124.62157738749542 27.752801837646523 2
154.8095475790218 161.28812482685 7
127.16923249143991 24.206271146355714 1
45.063163883659946 170.8719075264247 6
160.53409557587557 160.28566441227562 4
110.19717642347881 35.567525430677094 8
78.54461012031413 40.049909381552595 1
90.74548657799205 33.264057676271506 8
126.97548996939688 32.85908207764943 6
89.96203980702404 41.67320952068227 4
152.13579298227583 54.868287464283604 3
59.23151052532006 43.92242326825085 2
135.82731761020406 36.07591363818076 1
80.71898716939374 36.5553148380493 7
41.528194292942246 77.30796176902398 6
49.7365094059764 59.25107183872293 1
153.54620630226972 42.80465082856843 5
91.1776273909521 186.63579698463968 1
73.94407814673932 31.78839986188589 8
116.64075388219028 26.84333823273702 3
48.65194150319262 58.87559756318026 6
61.354408957232955 68.82592804299829 6
94.05194999821235 145.1690085129253 7
48.315462870952466 73.6290447795363 6
166.93622962206766 119.90202676344984 1
102.63373768043267 38.65231603356619 8
189.38117329797913 117.86290377407758 4
108.30699283279127 39.89222553653238 7
145.74298647063097 187.70443970813616 8
109.47905236168017 54.107396522456156 3
136.27295326442103 199.8852298337272 3
111.63512726961976 29.278407237484775 7
64.0722803238305 165.3944296325078 5
186.74975589362685 82.86284987774215 1
175.6046522545291 140.79535004920504 8
106.89099350318466 66.58483916928843 1
177.7164247087805 125.33793012392545 5
86.00428385120759 37.33254769403735 3
112.43923545145107 45.52661739558737 3
107.85579006165575 49.242221398195184 1
135.6912796411201 202.27017709408088 6
174.8386955293191 124.96191846480936 6
118.79043965842622 30.75336812618645 8
113.7782314418142 179.1195100100797 4
162.9039425324796 123.02067906885674 6
58.19765352564443 64.96579582075361 4
106.72087008769357 32.61866869841541 3
111.23331290122003 34.57271049251671 8
134.73120826706887 48.59118226387058 1
122.27598312890794 23.20506078769395 6
95.92383070799468 169.89844937558848 6
140.56172042240934 32.86254571150157 4
54.239820077906735 58.88488855551791 8
61.471847520734805 68.49833991317898 1
111.67254542060316 44.978059178092344 8
49.43375411086943 45.30652250954761 3
159.63817876920746 160.47670956054603 7
144.3731197549672 44.63517849984698 8
112.1911962457051 31.16246885755918 5
110.11337722322783 25.53083663242125 1
75.47553122888381 35.19081302939696 7
152.17398075935688 179.52447348342108 5
168.98802846796272 126.73853480643996 3
55.209673994246536 57.20857729842044 2
115.42960119901771 31.314981270807653 6
48.57623814975659 171.8916216324354 4
111.37702266771925 82.8115512744961 1
157.46872115892901 138.21889916733605 3
93.12896145905334 174.2429546540374 5
105.2805783762851 30.578367019562496 8
56.11335403225987 51.5352757923061 2
143.7766003995145 28.15529090234391 7
88.7009632395659 35.43671255863205 1
137.59858689232937 40.45273127794851 4
142.63178225337256 38.5643321557702 4
153.69740881492763 177.89360996183333 1
95.96533712917605 37.15076672607283 1
102.96796024905422 67.28755009475296 8
110.87533367073809 46.89548024347081 3
70.0307739639352 53.304884833888764 6
140.103144610159 38.25634199685078 5
123.66866890725782 63.416789497863306 6
58.08723394321002 68.4881436626515 4
95.72788719479826 37.08748609749052 1
112.99681078151144 40.47238899629312 5
135.67834260633447 37.639526108776735 6
98.85961830372894 34.609841856633004 6
158.15108793940615 159.03254730469448 2
132.40776465803216 20.918596476236736 6
87.00981470785091 92.9687587610994 2
60.323927928878994 56.67169692977986 2
60.110679171755635 40.50120002155956 2
156.85764154586968 166.01084750307265 1
39.617176268540625 150.79428729049928 5
48.72422588680616 162.68322746344396 5
156.12655172282334 172.7512796415982 5
113.87963779099412 32.52700934794801 7
62.796046282889876 67.15016494282922 2
148.9980971496257 185.69556499038507 5
89.22171521865387 194.85354205304318 3
177.89324152847192 135.77110117400852 4
56.777282821394316 68.91612064578939 5
88.27484136257407 191.32232724132382 5
130.06741118925237 29.084376993252363 5
156.00621181055905 132.86071597834854 3
103.85472930814755 37.24113077829389 7
175.7100090167355 120.20233930258745 7
137.58029107240827 177.78444595171368 1
57.24444923900544 61.990039615668344 5
171.85997475004737 79.32750715394855 2
178.85233071206684 97.63623382957347 8
47.47601633023649 50.65622413257289 7
117.1559063179346 30.126727572411294 8
101.53759738654458 65.03156839547952 7
55.17109544141593 58.93159802136547 7
120.2021573864963 30.020886544024872 3
190.99218387718543 104.34941724722427 4
88.19928968430108 102.89357913070666 5
164.47409594104843 166.05844088045066 6
158.51864816856397 168.63769104209078 3
117.91473283117321 26.271585334644083 8
57.17397716020493 117.79470252481583 7
82.69191421277453 36.94255238692946 7
172.32556443467087 138.89151908498286 4
144.95020701979945 31.662815216439768 6
146.21139194495535 42.99901145844088 5
163.85922245347302 164.67242049648013 6
145.8517203262569 179.94457885143203 5
141.41848315901944 35.83451229675457 5
49.59583153910502 169.92282818468883 7
115.82914015319312 34.99571308777601 7
173.58900427595407 133.67067570993143 5
100.74689659985728 77.4190473188357 8
73.12004747499617 150.93981384430066 4
54.23745923111311 55.893773725928945 3
53.85861587753136 172.56205767715238 1
119.7892992991095 48.25643622056191 5
180.23324775601697 99.97288254485366 1
178.3957660010064 73.89154599578166 7
60.65614653475591 68.76621944972622 3
44.40377182416138 139.7451523895724 1
91.93078938694588 172.32682506417933 1
154.5519248099083 177.6913291602067 1
186.8450063189035 89.00859160381363 5
129.6853802836902 30.182699818010896 6
81.56149816539086 39.076244317024326 5
50.18764452937427 57.23330131738689 8
192.33736137547749 74.36271094629484 5
197.4502241795204 87.15466840489235 1
57.269942215500194 59.2064791275038 4
153.28536570363914 28.743987477812745 5
110.75007018792006 34.59257588714461 5
130.2500542634921 28.292439298646105 6
137.2079372202917 72.07314570749575 1
163.95370106763195 154.34876938858807 2
93.66938121786902 26.93099067943428 3
141.04491715797928 83.46825175239155 7
89.45788965994325 34.343851962164635 8
113.18954715992766 31.551201506244936 6
161.7750420309716 132.11410035102946 7
49.96353051008012 55.35626181551989 3
135.74583375427468 30.804957026522644 7
40.44993904114209 60.3467140272524 7
115.50422159796618 62.839626433961215 5
71.97524218089411 188.21889568459923 1
185.37946999327315 72.37689780201741 7
44.848013912603136 59.29898347912736 2
125.11799117306441 29.999634039629118 1
166.5768196140828 165.03865380704696 4
39.30963490890362 58.01305437365054 4
128.66309951534726 41.67018423429592 2
71.66725329379692 32.130166190305424 2
155.7591983813613 160.70854684530914 8
112.57819320776464 36.7417816637355 6
144.21123106203484 35.203878570872455 3
127.70381004163615 29.42329820112463 7
112.10309123778495 200.6435356920317 4
164.510373129585 165.10570891539857 7
47.01661995664966 163.01060634364327 3
83.16532786015084 41.164897396222024 2
139.33716868730664 41.48055054405429 2
161.91976982077395 115.38126191836231 4
132.15816735530802 31.073838559494696 1
44.28814354078372 47.16526632386764 8
109.77378284698908 55.680066975995835 8
25.364734918488463 152.18431661986722 2
97.63115259566725 42.11537453507011 8
84.25051318905838 39.31055744976872 2
90.47967791695291 133.82589244942528 3
143.0090221111823 167.8135983170159 6
90.09246045763214 39.16011558018945 8
106.2043382120085 192.11909735119573 6
154.7697608393121 172.08474128661055 3
116.9071980942887 30.114094558088865 8
181.65773028504086 79.7470551196892 5
74.52695916528006 34.95980597117081 5
177.44184225157923 140.12125776465538 8
94.95292531670066 164.60057193897768 5
55.394495064509044 52.83962216088142 6
54.799837257375 55.96242164940397 8
57.67991647149546 69.36404400040962 5
91.3308367708654 124.93022465505726 2
143.56739556327395 36.64039392391813 7
181.5006944394721 119.75638528946489 8
132.0177802711211 202.0247512571626 1
136.90094802944304 36.72346532519647 5
77.55384197706402 35.413928981385325 6
55.02664022809858 61.48165008852848 3
151.01533526043247 23.2822362808611 6
162.44626667749648 162.8583935372347 3
136.70780814057485 178.64981704416857 1
132.84591250849914 36.852143032198846 8
182.38172367720185 113.75481582176553 5
78.7323281079432 34.997847685472834 1
54.2931851178634 177.19370259362495 3
117.10335528440308 58.370768157407916 6
180.40602153836747 102.28698155554078 4
180.83520466743886 87.5992613357278 7
55.363400664247656 56.0660430263944 2
103.57647306638091 31.840680477580328 6
102.13091227422508 42.43158448308622 8
78.4626524919253 55.81092233438889 5
89.35419587379036 170.8832777806196 3
76.78321462000775 179.571024963734 1
161.79813200072726 143.4924810328874 5
113.57746322549637 27.940163809461474 7
45.4918778761681 61.62602112899254 3
99.34121344130078 171.08626958951623 7
156.8982870178521 51.82050993963422 6
112.05328324863721 62.43108450450799 8
104.42817095339879 40.129348269896475 3
128.19636861797932 38.51585697487944 6
170.52144653363095 123.96881269678262 8
85.57943888868995 32.04892122605428 7
110.59898271517237 54.10489440373112 7
78.0151229131732 34.374252678737854 6
51.6470588365266 67.4988615515723 5
143.6330022190818 61.625883716565745 2
80.28556627443922 32.09893744978303 6
73.8743753441201 125.2913060677727 3
120.5111235919431 24.341965081717042 3
97.66883071290755 170.46400208562684 6
91.72954068849185 169.80657360863958 7
182.79170988649662 89.8857454433334 5
113.6646438793854 57.751593206516425 5
57.83034406190342 57.11539297486892 3
44.11492598224574 67.08232996415555 5
88.59866706591143 185.8533059961894 3
46.33266298106064 44.69179315032903 3
110.37576722209259 47.03753694252934 4
53.89505662131238 60.67000414185048 1
123.7808032069158 184.69877865212294 4
126.26017643269338 29.757296097185503 3
104.0980636635103 53.77373193566645 3
95.44242599771431 184.44437384363758 3
171.41545069152588 129.92075069391262 1
149.22003573661792 52.59663148172599 2
65.70456948459109 152.64697497472392 1
133.2267777183565 24.30549036073956 5
135.07164962414768 32.695346037071886 2
46.963793119189376 49.19670176303575 1
138.74176994108322 181.67524130965703 3
61.413655882487596 47.96795021023202 6
63.685981083102234 50.271797558338704 5
112.6035397421898 34.87444884441101 3
77.8403228205269 33.329719023768945 8
206.7165974592726 86.26564522665313 8
114.7569225731899 24.38029750670033 6
187.5836174371044 86.0780368446924 2
150.79072751760188 149.79904366803976 5
160.7134942968555 116.62460490596001 2
194.42576322192159 65.280528271723 7
171.66615918827588 141.82331647257226 7
87.87689488644921 195.63670300960973 5
163.00408327583324 48.18459879664755 6
92.90199940196719 170.3428014280586 7
172.1594296075423 63.73528673673508 8
143.94172269927788 36.05734887746374 3
181.36472555236392 74.80186288895122 1
65.87414258306575 157.51080803993932 2
60.237915471357425 47.87160244337561 6
103.69290171319227 32.56750644341938 3
81.9233580425388 146.7104405206411 1
40.13677380504048 76.54729474180682 2
85.62419193880403 32.90966240727131 7
134.94431683957998 27.818331918732675 6
75.91727075803405 36.9396310658135 1
59.736607758967956 64.0819845802 1
88.57440436196889 34.34603512097568 6
61.643102812664054 65.02045673304055 7
107.25003111343602 44.50257105743216 5
136.7723433389485 32.901830156556834 1
73.09170838008146 118.1486514435571 7
63.56474975923478 60.99276388749355 8
172.35130095522345 89.04649483407408 7
165.59857509531534 52.7897732756841 7
138.57937213722786 181.2683089239359 8
82.11235334446104 35.97153302161717 5
73.40790489383954 113.3899551039378 3
119.96087629557931 176.06597642832037 2
82.50030765002009 36.16256465947711 5
87.14595840404932 34.03406142628544 3
40.59164642706604 76.16471007109634 1
67.51819589941408 42.547833050948114 1
96.8056792735663 173.10210843783491 8
114.88135578288524 46.05214860761983 8
188.7469187262983 77.8845639395323 1
47.19309404001847 166.7381502687078 1
40.23765376469315 65.60818036216382 3
54.07094722196108 54.546404753451945 3
94.07354756827475 38.12419731046514 1
128.9728058540266 27.137573699463168 7
127.85146317260305 30.948669915026954 6
48.19813404183704 65.56503074497812 1
50.398201101866164 58.378987724268505 2
81.33107059053094 31.434909572458615 8
162.99085114531962 175.87169896103217 7
115.98547735987353 113.47301008022453 6
92.65933863054423 113.1094111755207 5
131.02382464477088 179.87399556940423 4
44.53895860861966 68.24182868152758 1
50.45508486544286 54.37642511770701 3
90.2977435945989 179.31668282980277 1
72.03736799848288 174.46122478940123 3
208.41968746852794 85.26043501269604 8
152.54930314401992 157.69835094451284 4
127.95010358501118 199.7772528022387 7
162.65764610133462 168.84530140530305 2
112.04719408790307 53.52594922776396 6
103.98817012036716 29.541452907619572 8
110.7937834989291 43.121280487300304 6
110.981326288875 51.677770445714415 1
77.5777041472372 88.1136534276608 2
71.80156140728286 37.14458705586816 2
117.0402426516912 168.24194467844055 4
57.71148239007212 61.16818095643259 7
143.60301704095818 44.26683518125461 4
74.17907633745111 38.809049609171474 7
57.17465904742356 68.83949827801278 3
193.88077450123495 126.43946793898962 8
127.8874560404009 28.88455472765267 3
95.3466529237961 166.89561807294078 5
137.29561387701003 30.28909618396148 4
148.3257068185446 186.58183467784957 3
103.14538576230333 189.39350978341332 7
111.90480013480608 56.71513855909647 7
54.33315884177064 163.59111032421998 1
156.4100516168959 122.81471117499285 6
72.5179735776858 181.5391857532726 3
74.89730319334834 122.46703375378233 2
156.27293516722727 157.76745360348585 1
169.5558950778592 147.79558453477947 2
77.93993515556328 40.01148162980353 4
67.44703565281587 47.45552112539929 6
82.13770034440917 37.476256088407595 8
116.18515141090455 27.75910781672628 1
100.93415801691526 99.6963169784221 3
104.93300188651315 38.58574877259012 6
114.88056102993573 33.65970629509607 6
148.1925711446109 30.480453348813967 5
99.00173790421346 177.58177359611005 6
102.62568911788142 97.0341712912578 3
139.22679780302073 36.47265277249412 7
59.013188199069276 67.20623686824501 4
129.37265556545245 29.204996075184894 3
188.5082639209191 116.40632476156325 4
92.71143864385904 189.5275819825465 3
41.93926656397496 69.23367031661617 8
107.01565769029479 31.623788288262897 8
114.86986373428141 26.43988925587861 1
49.94900796394761 151.11819906910765 7
108.28130072146092 32.0864819016811 6
107.57487030117382 59.242740620948005 5
183.88772120056694 92.85200227806116 3
152.52498037764764 175.23068039927784 8
56.22059842064205 63.94370588675447 7
158.44405733530903 166.7277803742994 7
47.64637045128089 61.47034505208262 7
105.66785098979157 36.89684575784572 4
120.3574777495813 26.79804989806242 3
90.80155259035561 102.3456612746391 5
154.24052632606487 161.62595979233987 2
183.650437867744 124.71967061231715 5
146.19269679012842 180.74313855066578 7
101.07865570401577 88.14082213681938 5
108.91443979893118 31.16516068273721 3
77.7942720742838 34.01118093438519 2
172.83919452187584 109.49519341619701 6
174.61054001315009 145.60017483112807 6
54.17172088627374 57.46077503306666 1
109.9490562085868 131.5003804399797 5
168.13912400109595 125.79947647995184 6
170.87610200344156 139.98802586510524 5
128.4826183911808 22.207759336270165 7
96.62908403384239 33.46329916526905 6
142.22148643473463 176.60198689274665 8
119.71584241615774 191.8203820278529 6
159.9082748501516 135.76884352191368 1
138.274385383136 213.81358185407058 4
84.08249424109938 37.489162354909745 4
97.9736267058318 36.78115890049393 3
106.18811354213673 55.104191505399875 6
40.7475827504652 71.58767715451899 2
61.65950916307963 55.256951230354375 3
36.234028212431916 61.49567378741948 2
92.50178467194361 32.32334360369998 5
115.02798836469823 89.57384139101767 2
54.757500578663375 53.992015175322784 6
59.65477530278821 70.32425663633873 1
136.33142632017348 31.16886861031385 7
108.83606559544444 103.80331875499334 2
105.34799368715784 37.06167205231644 1
157.6550881274694 152.56084045596242 1
47.055152532041554 63.09696683888017 4
140.66864760914044 35.720770694721146 6
62.58679075051376 49.5795549175091 2
112.12606130503599 47.488878779506365 1
138.263900056239 50.94854354173232 2
78.83453486269377 45.32226584676455 6
75.2090328813837 36.287671008844946 3
70.12529964062513 47.43036536472067 8
144.16249508643205 174.28205586127072 7
92.64378396130247 171.38236360578307 1
89.17271761903139 36.333191131787274 1
85.80531600590804 96.77589460562845 4
45.962324418388775 69.21763444749874 3
196.12629521034003 62.08945205657332 6
55.077891682636405 57.69695630742014 2
135.12144144557848 31.570149406043267 6
155.65805057874823 156.52699839154113 2
152.0026231470033 164.67244578651238 1
138.34236295420592 31.955502110024543 6
116.50185966454575 32.39284507977906 1
158.21454949014924 68.01827325182113 3
43.35469738781877 66.13201837518707 8
69.71135554392569 127.99363371741104 5
159.5486986337273 66.07953278480194 8
109.17459820761533 52.48346427801294 5
162.69658835215347 130.90633551344135 1
88.75495857299704 34.39982639787156 5
113.41545734654753 30.79712823637537 5
185.98029806020472 80.23064159572242 7
123.95008175526591 28.063130235103685 3
151.0510674616144 183.60473608094023 2
111.48259961155729 31.647634300496097 3
60.1849221943439 118.7217121528318 8
161.8732612790557 162.23722248671618 5
83.66759476633189 165.65250652721483 5
76.14517749547115 119.65125072746334 7
180.41732337787556 97.5437842914373 5
52.955491756306515 135.5521511286458 6
131.02780964758387 183.67431252421335 3
156.12502885693488 154.31730454741154 2
125.60713069287029 24.86668505271585 7
60.08974303323038 153.04401080805033 3
114.62046592877 75.24064818661672 6
200.09701528272174 89.95394076990166 3
47.168869067782424 64.70263518509576 7
152.73361037956326 132.24993954414845 7
118.03391694094611 34.36874844493831 3
53.22964219899461 62.491488681079886 5
81.03275703495723 40.510371156170834 3
45.186284750556005 63.21531813617935 7
128.9438995080573 25.145564659344352 2
39.484502722047935 71.65024781735572 3
115.41422677157463 29.758668847337194 8
173.01171222219466 69.02745377524546 7
149.16954701667132 181.24761154498535 8
94.55433228306094 168.795247920079 4
115.05252120578595 71.93844714140808 5
97.39775977126632 162.7626433210189 1
102.56233568024138 33.20870129999377 7
92.64567231595048 82.35476813137043 8
134.95532089659963 29.766354180888154 8
104.73035800560098 37.79378748466254 2
165.3358618781863 156.1199309365915 3
140.58947285181685 37.729813896257994 4
76.12158029918182 152.94891936100544 1
139.2360724951697 35.05129740480904 1
50.51772434568089 60.07118644263788 2
128.6757968973582 26.976177608564367 6
112.47323525622133 30.24203742226992 5
188.01790775771826 84.64775841230437 5
206.18574890031385 69.59482024213638 2
83.512149077922 171.75989790743625 6
103.3450751317671 37.08460219148114 2
132.1774006523559 61.908863432239 1
64.8481066369564 66.15885293251858 2
70.80573746685823 182.27288370966343 6
67.5184722078714 147.2614020395098 8
66.03586254946526 25.88334906162895 8
75.85551750352425 184.56290882948514 7
77.41328681220203 33.28201013644899 3
118.66202341860861 65.4137774572921 6
86.19868999574409 116.87219596044605 6
113.0452726996202 53.136018262839826 3
57.486728696262574 162.2939467026034 5
120.37241711011147 180.0397110766739 4
86.44312505573829 37.121633879854826 2
176.9619815888454 141.9905486550132 6
70.41323802379299 178.9251193301329 8
126.68378305535632 24.715871695643422 6
82.28509335099076 167.61306406385918 1
85.88100337436259 32.29492618379207 6
213.81358185407058 85.83960813704145 1
166.3557399652451 163.58270415785526 8
103.46986945542568 35.45769286499416 7
50.01530813098217 58.41115161473384 5
73.23401664394693 162.4281599556505 1
81.63640339861995 37.00742913593185 1
134.31247599102838 192.03078025632504 2
152.90141780316435 172.3510256026026 3
188.08927172555983 82.05320581281352 4
54.67962170866753 56.21801145750801 4
46.63066943986981 64.54391844412528 8
59.390828776211514 61.646730167018816 3
147.33208611581082 175.38183316627163 6
46.50392301320344 157.52402725399253 6
135.78868469289677 35.20423672752739 3
55.5126909582844 52.07100818151928 4
82.63382709289421 43.39613877445418 8
195.63466541399777 94.73944490539633 3
187.15251806763874 97.76888959778951 2
120.69429294840818 26.31253341097691 3
53.27693130617515 110.8479330050892 6
127.67530380527624 37.25094449622241 8
125.87171498209227 22.869797541866856 4
109.17822333441867 24.89468171798926 3
102.3230835968554 99.18410883800517 1
75.47525484258192 37.41875608256064 2
109.9091265623621 32.88779779990674 1
78.05794327086193 34.52126886836148 6
61.085314481798704 65.21876324097735 5
127.12621909112238 23.85911404775788 4
66.13136319410611 157.7076926133206 3
54.36185548840294 56.27624173552803 4
109.07665428624932 38.08658153720907 2
183.29445819241784 137.75141591661387 3
159.82194717530467 140.57247311494652 8
137.21134755619244 38.17906990533028 2
36.99991554144768 73.00645024834695 3
128.05540195731746 28.44771484329829 4
137.36968234222235 184.16927291685005 6
56.83094507897435 60.815606215847126 2
40.947217503207916 150.661609161394 7
77.30968603142601 33.86397494555815 4
116.98408248782978 46.03185427626546 5
77.94426725099488 39.67720807278655 4
103.8873456697149 65.82179937525068 6
193.98328779188816 74.32974902062595 8
53.632650055186126 60.528287198511066 1
67.93908264603914 177.34566572907698 7
167.29751107419094 63.07754269171526 3
29.373277449596007 150.58909791553793 4
61.47367432546356 45.904308967207186 6
171.77109568877904 136.2070703930926 7
57.583747001112975 60.80870301531138 8
92.44581029346149 37.034495809846575 6
21.52788024432277 145.33404681836603 8
142.7631983520856 54.335118797046675 7
80.47411125235287 39.64865673945685 6
106.49894234547784 53.29553550006686 7
92.65231668165121 27.444888380996062 2
50.28895487446293 70.41682319001497 8
56.73006182559403 63.97593270250767 8
58.59038927244441 62.89729189369304 5
173.9698164181213 127.7485524412146 6
101.03882743357657 33.150897665338995 6
110.49923667877306 113.70283683143337 3
42.895049527018024 68.87930390231949 5
113.96513335261484 42.07080492615067 6
101.42182480596796 175.05362383721874 2
65.38161373868482 164.92880589609956 1
84.16813153335913 35.89509961607172 8
100.91497853759492 32.24071916307951 6
190.75221872545498 75.8507465195702 1
111.6793039280176 42.986954153060566 8
45.98603490302759 59.00653592058154 6
141.69200058013786 33.21070941728137 1
108.21395649293616 39.7831085962308 7
112.54427077945428 51.471248988729776 1
107.84135739522681 40.30593608473684 4
52.57196192126594 64.06451542920027 7
132.8690891345959 32.98863251839616 4
196.65648440985 81.00311514689598 4
57.18904781282259 161.4150076665457 3
156.02984214584492 139.35614158791108 5
34.619868965601526 68.5219623761147 8
128.63584053740092 23.272162337062472 3
52.958346395508734 55.559814238226856 8
60.11829309127976 64.47574154282442 5
134.50875027006816 40.80682129169775 2
128.90243813334519 20.676684797587424 3
54.87045629457587 72.37365913311137 8
88.58901354208915 34.94225511214998 6
92.3714282651342 104.55979685618387 3
79.7595458750536 36.66827918744048 6
171.55766999090255 109.65353728685606 1
109.97715213143172 47.412195147478116 4
108.64483911498994 29.263442833323527 3
177.49602148887953 95.3257764107297 1
96.18566222028433 32.55713611096046 4
118.53673474534709 58.22861769614501 3
105.63651251495321 185.045758501355 7
109.44635208750309 47.085609635413284 5
53.3264120398789 56.616741687809196 3
90.54115258131061 37.94769160222371 6
134.9630888226876 30.095626427227156 4
89.36576615069413 36.78283791314258 5
107.42096498604923 30.230616166128353 1
119.09828031871582 32.465887466603306 2
57.23264982415228 68.0639820257388 1
171.72406488406287 68.041092119923 3
49.510833862614064 57.259775514481966 3
151.4694992925478 62.89772849261358 6
92.90710920613324 185.6527363077105 2
89.8282944659188 42.443711982165794 4
132.80160575601576 30.07505358678395 8
100.45071019566812 120.72498056257386 3
97.97875728263472 71.95825551062069 2
52.77697339762925 56.05791575968269 8
52.498310825548984 61.07045007423925 8
74.60680358121729 124.6457688285604 2
114.12919009867753 59.50562933187515 2
161.13981059643302 151.26941816190995 2
117.58928401529629 53.39171383438941 7
151.1685651824115 198.97723093213185 4
153.4116773709331 163.7192393215941 8
152.9025346948085 56.7459852150414 5
162.6642754007587 66.54021659882785 4
178.0261417504916 88.66071631154063 1
85.75292703897121 120.09917501348554 7
110.63171628631966 91.67025515220514 8
119.59800489615506 25.912732060528032 7
116.86225915992195 27.61912186375218 2
68.53201548402896 37.1226780517642 6
133.14298110041045 33.290430472094805 4
161.42243791211905 143.9437809941497 8
102.15039495361182 139.28939285260822 2
147.41340237257995 176.97843688699984 4
111.50745034450217 180.41424565052404 6
133.5293555196035 46.705652985902546 3
103.50834884315272 36.685129897907984 3
126.3540381501509 192.21763591012936 8
123.64815836579467 26.378481640907758 2
111.25900129511086 44.05834793680641 6
173.45852882592143 124.94679144997355 7
42.540802070370454 171.91063300566444 6
56.47951338638133 184.6716065311474 6
180.60432305248662 128.75315927392094 4
117.12287273399218 181.87930884772686 7
136.47452495800658 32.59559230950808 5
168.8169471232626 146.25791804406526 8
81.44421545964757 36.37908614087981 3
85.17864859874052 34.759243288581196 1
90.46259758243343 33.50239755247269 8
110.04291449163117 34.97292341489569 2
202.98694593510797 78.22590642902604 8
139.0789120900156 41.18617710293714 2
151.33966927160506 182.04410824993417 7
159.54355597252064 171.83897495408377 8
115.9765246253065 175.9189755558842 3
153.09687277616013 177.71869427834724 4
154.3093931787797 43.83234286002326 1
55.463971223787226 56.87167492525835 4
94.0259162673784 88.92105887394607 3
81.92561599051052 34.970145509551145 7
150.9703950259535 134.98760582873973 1
47.49291501091668 166.27525413464627 4
71.36093781943256 40.72711341541813 5
129.3356314748592 25.833654574197162 5
59.03535173571258 64.22223834819849 1
87.46351391491017 140.08483345906166 6
129.78553626404118 31.826967556623384 5
168.6903429504259 122.3199711420164 3
143.45711492193922 178.6929959199928 4
88.33134545907919 34.61355897018321 8
60.212351292350235 64.92954703593315 4
52.79719367463366 55.777123719080684 4
120.28321049900578 26.547644438062097 4
54.47407623978497 49.012819083862404 7
143.753375915032 28.53834035213453 8
45.97433597103912 167.6070097023546 5
67.26327238843825 148.3624454007371 2
133.1097324470519 33.86426262581029 2
119.02622290548886 28.404423821256014 6
133.33617928487467 30.947976727883507 7
120.21885353519262 28.232036555249316 8
91.94210413491723 174.9049440524798 8
139.96461690113782 30.931916621683058 4
89.6182877557322 190.89052691611894 7
83.35595038092153 38.37640125951308 1
130.71518899124362 29.195071342533904 2
170.79052464089665 60.28403081549477 4
108.08842874747906 47.76500555660553 1
68.41819540984007 56.38150540119381 6
81.56620166670884 34.832809000474086 8
93.7663135899953 34.911045559644755 8
119.4526780834861 29.644410061707482 5
54.773960943980946 154.45516588234034 5
168.5055976177841 133.94172660491722 7
179.4720465247476 117.4532570954544 4
44.553239474659776 159.44570883719464 5
128.4720843668243 29.474068027697417 5
112.93768214198109 32.308997761072355 2
42.492964011414536 73.01975071751117 6
181.07807873676563 77.67764747754163 8
69.36842314808506 169.11253885373387 1
163.48211811971106 35.24917226087271 3
196.9041442345886 120.34758498321239 7
54.97835779740603 167.16820217983945 5
89.87454546138069 164.421758624378 8
63.45199435599031 162.68275525566688 4
171.48535546581945 123.57415966093016 6
55.35755862069731 63.23456277260855 1
66.5469442424897 35.47240420405315 6
141.94915926184336 36.42262668406352 8
177.79697706362384 123.92214440885202 5
51.71716707122804 55.00667496760376 1
51.476200127575154 195.14041246674378 2
104.8195337193844 31.61493817758036 1
141.75856765204685 57.82505946661257 6
60.38143211708592 121.78881886792414 3
42.308997113877595 69.57597307083489 5
55.211102503726224 159.16872058074713 1
66.90202798429499 42.41180626581806 6
79.26226808252753 168.72591898292444 7
154.94595494004233 164.30866480941236 1
166.5318179741589 131.07439194444774 3
157.70125525499515 152.74598995536 4
51.38336758535773 59.24355200737671 8
153.9535831223082 166.73822725309645 5
115.39558557080281 86.1520646528765 6
169.65255102289083 176.97612876599266 2
153.4260774081593 170.87067144827935 8
75.32198794405959 35.597754215489495 7
151.8028520367558 183.65980936288972 5
113.06906350368268 37.64235350572004 7
65.68454531990793 45.09161128933476 4
145.3995537475033 168.3925236567727 1
44.22447540538609 146.07403779042443 8
51.412291124290164 56.96400465410635 5
93.02350453815582 170.4060686291891 8
89.69748653502819 42.576100052252784 2
52.476161090493264 53.37540642781704 6
147.12233327120356 34.65872275015425 1
40.01178465423873 72.59876878441445 8
65.6968890679634 58.802267813095554 5
50.21014698622749 64.97300866990767 4
149.26340871511906 155.17901059055262 2
37.17843619188049 71.97098129569439 4
173.7387171557995 166.99687107281233 6
63.67445801066458 156.54421808531225 7
113.02397116565409 79.13003872202775 7
165.1712327413085 61.46301650489204 1
120.60737277924129 49.97209556346769 6
82.63256933397689 36.97714004146391 3
109.07269670597265 121.79035419511166 5
135.2181366993236 27.84476097191736 6
58.79841034502706 37.105708848953455 7
96.21506128600087 38.75244566112242 1
163.8118584787226 159.93863821974566 5
126.75615304929802 182.95026766594808 3
76.9562644161459 34.58640496809901 8
177.40769717546573 104.34597671589977 3
176.51175306059596 145.69430625099227 4
53.70839370437957 63.5811424398123 1
56.76562003300739 59.036264454229666 1
83.47019515206188 33.05441696060683 8
175.3251370621469 91.87098078046347 3
87.0292389890139 108.95990403373565 5
110.96411167525368 35.569692260933216 1
109.46672427499149 187.33822295094967 7
127.49708186824617 25.44843014657473 8
182.40939386929946 85.19489957177473 3
140.87015785749668 38.05819005107458 4
116.68541790414137 31.07648301812475 5
101.36798961798097 166.40942030918308 3
88.17266363212076 91.44925195742944 4
106.06905697313394 30.179893487263833 6
168.45159600092558 142.38187961848269 4
63.88794397068738 138.89857861951918 1
156.53445656543957 21.44611808375468 2
70.1085196098595 45.68480608153249 3
105.45388886692797 45.387223282133405 5
57.91322014011948 102.21220678959006 1
97.2996268915779 68.46196696750452 6
157.31612583350943 160.62364878690485 4
145.17748428145046 180.77206295332917 7
109.44729265084571 30.779430727796747 8
96.86511108477083 31.140383948533582 8
108.41085268855818 117.59704206874171 8
111.38430106942675 46.911422770793294 6
53.15240323790892 63.81339284089272 6
115.85909376813856 192.2691818626906 8
107.42702454581587 53.34417079358685 1
201.42395413354365 58.962015079447276 7
95.91989040784046 175.35234279438814 3
89.26989735056839 36.362033174068095 3
81.01163604337648 38.146889879373475 4
45.96517405450469 65.19045006623091 8
172.919242311267 165.52689700976543 8
39.374501483856065 155.04061512189156 1
113.23483569149528 67.0051811597955 7
180.06470685411708 99.76736362818596 6
178.79718657756462 96.36275873575708 2
187.41734530260442 48.65998577229453 1
96.40418852831472 200.46897397776507 8
112.44661666586948 28.905984558209973 5
50.78822598087371 54.6080814592505 2
54.82345329968028 59.37810114382159 5
105.61775995937826 53.87751635615214 4
177.4405284054075 124.81747556768852 4
54.140652343095354 61.57225673527923 8
93.14044900756673 181.36269528516746 3
142.99453708974113 173.2082016052286 6
144.9043549601275 74.6264851058614 5
160.86576900343502 122.10641338347155 1
107.80617277558532 24.769748336926614 7
54.387073179798705 57.10130463428703 7
67.9490284064172 128.38766665255704 4
152.71876041769394 170.07728478377194 5
42.48751778871277 68.9881208749731 4
178.8863140590139 111.14057054300535 6
52.129482703897736 43.89941028668649 5
130.03835347405 31.935353015233037 2
69.8917862217433 156.24501154814905 7
56.607744854775746 63.46412652498079 2
110.9575237540039 41.031969177459395 7
114.08507885130439 47.00644772731785 1
165.67496872300222 164.0431420136767 4
56.435360608818804 63.96862742747619 5
159.61922877081898 142.7494436422652 6
166.87673805171016 76.54198500447157 8
110.26621572702769 29.56404539930787 7
138.4467755974755 37.291222593997155 7
120.96464446842954 28.416086575154157 4
81.09433435062037 35.294216763138756 6
118.20971105624402 25.591360593223367 8
61.04239613330145 167.9959445815069 8
37.730957298410914 74.52986072465718 5
135.9886090567874 43.64661251498197 8
58.83550780759489 65.71750147564919 8
141.7263066667931 27.60438052506543 7
69.18508653651165 44.80788442860093 2
127.66679531029301 28.673738035228503 3
133.02086199530737 30.23065289890269 1
174.8478412133568 127.96350937636883 5
108.58050434955682 107.66148243734042 2
131.38796935354276 26.783635855320714 6
50.1543309580762 55.80135314704739 5
144.82797807232942 172.77956341388887 1
77.0148956445496 37.817597330538035 3
137.81865447158057 36.0224107717535 6
151.50881328103344 74.06747494076129 7
111.44516743582987 32.630419694077 4
77.18349439157119 173.0677808624458 5
53.064003701711954 171.81402269548943 3
59.0802835152822 65.79694191459951 5
157.759627048386 51.30584570275673 8
154.30043079381835 164.58839518886194 4
119.10073577401835 26.213857629875744 8
161.9068921728608 141.47785426193283 2
94.3680493152043 170.7417611354309 6
92.22195578180683 161.33298316942373 8
130.1683378770933 27.42881459550011 4
155.1680293814851 157.37059505961142 4
68.31162171247034 58.55055584874779 4
116.61930872825403 39.143519549850645 3
79.62714148811392 32.898254697472936 3
171.27292205600975 159.03392541673034 4
83.7694462662195 36.981210019976956 2
40.02293479108319 65.93420351022567 7
68.17047374568902 157.71866676864667 7
110.78896661165639 55.557467009095035 8
56.71911272553802 60.32350978456556 2
104.57608216078157 42.23300861220964 8
57.48806399879161 126.80313954221558 3
153.07791832693232 158.70174766661904 4
162.58242791551373 91.16479863286334 1
102.78056723094623 81.5386422969326 5
88.38953414421856 38.69782466286216 1
27.789168204642003 156.8195903052336 1
98.01748429275688 177.02575276154306 2
115.98655541171034 24.558947563243752 7
171.70092507353218 131.54182582344308 8
53.937757538895525 55.663523493083844 2
172.29135437546384 85.52729307146491 7
209.6841734710462 96.86983741271435 4
104.95355857301179 26.995681978879325 5
197.84925346429955 124.64365917992696 2
37.2811518422799 70.98425578834225 1
105.59334112155759 34.060978151162345 6
178.59361213371312 133.67446470202378 1
85.90505638682646 35.83139233050566 4
70.29046019926209 101.30497008593105 2
59.163653677842646 65.20846081046528 2
135.65188364856445 30.18039689040066 7
165.03694767255212 155.25413287386374 7
110.97028494779089 29.958641207288082 4
150.3514154587688 18.911051745790974 7
119.29745329281475 34.765739546823454 7
