750
0 173 0 173
1000
113.90546494088518 73.88017934185754 5
145.19720878312913 99.47991158538296 6
132.27865435104263 57.86697709323552 3
86.53654779617494 55.414782278468735 3
76.88118587493194 80.66832480890741 8
114.07390544169441 99.04745831426554 1
109.84703782557189 83.62945087006698 5
84.87851035985628 145.29611547304955 4
50.18408468897701 118.5261839444541 5
137.37246606616048 114.27547678632989 7
63.938820103355994 135.47639179439733 2
143.2392066627077 100.32646516284042 1
82.24162533231447 140.30510056949882 7
44.28349219042697 117.11204995397553 7
69.06522120998733 46.709978414703535 7
106.87693180241118 94.89932927612197 5
57.4549138627042 145.43533679824938 7
71.70296650424515 54.254755677184875 4
131.02032902084738 27.74223622308353 3
105.50761144878054 119.54631466498188 3
101.53464499408119 69.97605409056445 5
108.5753685133775 82.11393469991663 2
65.77069823306066 98.67577676170112 6
132.74863345891654 63.55290540425482 7
67.91868588949293 32.799943917056424 1
46.77647548054809 37.63157258654259 4
64.66753811810045 147.64431708218677 2
47.9326753013748 86.13896966120762 2
86.18005231844857 131.003852352168 6
82.5088170122394 45.483807835893835 6
76.49120435686504 43.42470666627085 1
72.46486530501986 142.28127852435085 2
121.38915447813226 48.96075544155477 6
98.7873479937589 96.14453004885209 5
96.22385012350173 151.972550188171 4
136.77883837338214 122.6131556685627 7
144.79169438278748 140.5234564099171 4
103.97443137877083 94.77539320087347 7
134.3713882193161 105.71762886095254 8
68.79584935997339 143.614527819115 1
138.33788717844035 32.20167208432424 8
40.612352915163505 40.42392437342336 3
59.09057551387415 78.0455192404006 4
76.97993984441958 48.718127321001454 1
142.0254130997571 123.8753127066741 4
73.14443197223517 135.60884348226358 7
99.92349081072133 92.25641159443808 1
125.63595826739635 68.27853131307032 1
55.68192791541634 129.63793588865644 4
147.72455911605522 96.74402140525697 1
151.30456199453792 98.77914156486382 5
38.79023813038133 31.215094098889878 8
116.80159966602494 67.9091259028846 3
81.47053517106755 149.62623453517884 6
44.44107930082873 28.823321464417425 4
99.20390903847823 107.23668272958042 4
75.01065468404437 135.37170170201358 5
136.3673356377637 60.813021136360824 8
83.39703208269911 146.86064452319434 3
129.6433306601476 45.57905825676612 5
101.64048181289832 106.48978161268622 8
105.15191018051343 75.75216351043488 1
61.29297430572219 64.24060796437277 7
111.44508534807963 76.05926018044568 1
52.00387865855189 136.18965828301214 8
54.913684885762265 121.4503746551845 5
149.27384617400082 31.205010590010374 7
137.44294689015314 108.64234842534684 8
98.0442602639666 139.88627345537378 1
111.4586416638018 66.32374328170914 7
131.83795271981018 110.66962246109652 5
76.36722770826479 152.24679338131804 2
82.03809685350306 55.27859134544788 2
112.2136645618442 70.20320858852789 1
114.78680367816537 73.58564892508414 8
111.28284926347878 77.91855309106978 5
102.75163664501298 96.69117903093621 8
48.862948210782505 125.2030327419789 7
48.82727533726308 123.42127214825972 5
121.86849772733522 101.63433981644444 1
61.29627750417325 51.01500242427893 5
127.93923671932033 53.37172989511883 4
64.7864492415321 47.61964069353284 3
103.61205034468594 112.48108273500749 8
119.00452904192308 47.63432570375569 5
57.57979989694403 114.31868340233832 2
64.621832715782 87.30356747348512 5
140.8643386638223 101.77889196986037 2
117.9720300201291 46.88503003412427 4
63.472390340439375 80.10745830289406 3
65.6380222333194 38.10287619794751 5
85.23828184605962 151.74475730047263 7
118.49815096320164 46.91764809181087 5
100.54811356084289 116.68549724434216 1
90.36381487806493 57.73229860787025 5
61.644222512953434 70.66604060763315 2
117.37098126829152 57.02300423743895 5
106.39796978324848 83.28643262118042 8
148.9701744681933 100.16675069256416 2
148.72840976077285 88.2215192640579 8
73.87759744077154 97.1144921857478 6
53.66697335240615 40.78196136180186 1
97.1523092021235 144.21119368933594 5
103.34304353917133 74.62870638994318 1
48.29253253731708 23.429119897872667 5
92.29110927752214 96.54745863926706 7
111.82645110522468 70.75958814074902 5
73.72432878942 49.22039087030973 2
48.351233569874644 126.13681128334716 8
106.30085842433776 62.79098485638857 8
105.860625109873 108.10395955847912 5
147.87026482912108 41.308649309480614 5
139.5869232283254 61.558923882042464 2
128.25464123927458 122.60349026837181 6
77.65607113969601 41.512052071378385 5
61.44533404323825 136.99979217496207 4
104.45509368353132 123.0078429639492 6
67.27433338816574 148.95991389338056 3
101.77958452965626 97.25700687476396 2
138.98582333420134 137.7362921953631 5
79.22459091709422 152.40206297283783 1
67.54646261491598 46.754789272201904 5
53.34878974644757 103.44805102947144 4
137.18459961583582 103.00730094725458 7
103.47112856802943 110.44150347300263 8
74.25011100550364 145.683198501612 3
71.27714752647351 153.05895558566914 5
44.185120758672596 41.25503318590326 5
44.19429626559728 41.90662215454331 5
100.19638200321668 103.55908575680776 7
118.91932623984736 66.01416886175488 1
88.3764272188958 54.564238981531375 8
52.20060722112216 116.30480202480973 4
142.53860694556724 100.33291112621176 2
34.863785173278124 132.8363973756435 8
123.73604098040333 47.01873868181158 7
38.215358655071185 38.975921431005666 3
144.8068195935062 39.19356948999888 7
90.99322013121633 47.738158732096046 7
131.37323663183025 100.32022725570928 2
64.00612577208841 77.09958724626242 2
131.18427233977172 128.10238359526542 7
124.20391901167005 60.52276602554076 1
142.3946298867888 122.1278165817487 5
122.66315569002711 50.29264761651511 3
48.380148828021284 119.1297957825179 2
58.000251767240506 39.611833321549994 2
141.71024926209276 106.52810258397709 1
123.81185414970949 54.64683594195528 5
99.18368147786062 120.12289351471279 1
101.92038862904181 64.45940258653316 1
54.72856788022665 40.60989181895225 4
86.20875792378028 131.32644294920104 6
85.75743060489543 40.97617213498021 4
103.69461083526363 71.31283638686374 8
41.774687184882055 29.971097168414996 2
66.73651792444852 65.70845059991497 3
96.32117533035894 97.33801765675199 2
103.80553981772407 113.47870065178921 8
95.72322119111912 95.17113583492862 7
71.51758882505806 82.66295594021433 5
101.17549517753157 118.07348279752398 3
64.74529371693912 149.3592784659732 8
63.88062178185153 137.33869759200815 3
103.15440790288912 92.24008275673857 3
96.05630212017633 110.48495458146215 4
100.13868227600167 101.8563628680216 6
99.98894892427465 100.41652086085179 3
52.97174236502399 131.50492819778816 1
97.24767934966357 54.98349735149015 4
94.98162093981969 141.90774399815123 5
50.75170044446509 137.35625527347526 1
58.73315560228965 146.4883145579677 2
95.18583616040407 104.19552063949241 1
45.32919793380564 113.23744742334978 8
110.08562788679352 79.17782168268037 2
58.14657751612043 43.966851406966434 3
152.49311190208786 96.12141562275616 5
67.12985064220783 143.27904327883365 4
67.49949997103347 149.3767386184807 4
61.38261880956563 153.03163989411726 2
56.934879923626134 143.7248350517062 8
113.40539016136927 73.46453856823143 1
127.61363426630737 78.33475601440387 8
104.605123820872 121.93546660598574 2
136.89595089337072 106.09415555244229 3
104.92387826428461 72.57646618678359 6
102.60967303228618 96.44759595252506 8
101.93480257260318 102.78255632791245 8
100.11180805957648 106.50706046840817 7
122.34365449255841 46.685136995276835 1
50.97885206061953 41.870289232332944 8
97.72629824529743 113.73540721787295 7
84.3949964021667 57.37763249887433 5
67.00514180335058 143.21005568396362 7
144.95404901360064 43.03749430494094 6
129.838035379846 18.552758581467792 7
136.77799139786242 57.70720381394804 4
145.73572168525672 103.00879322342037 8
144.3827919612583 96.61911969728762 7
113.12771892691465 68.73495699703365 6
62.64583978329965 47.28824564430168 7
63.57174209307058 35.76620593846242 6
90.27937687656524 65.92814144286946 2
113.18184677603499 71.06777151301506 8
121.49259892962594 118.14915571586995 5
137.87512120638357 108.15832936943245 3
94.320092824661 139.57661319238338 6
143.9479076835116 108.18273034066239 8
133.91740305637381 110.70234116235447 7
50.00194065299797 34.888439346041594 5
77.93970314456209 35.027135815791375 2
138.82337166792826 112.37813963874426 5
94.82366238065553 90.02239669535923 2
102.11923228296054 65.75609860068415 7
134.37832040391194 112.34771426807484 6
102.92603751348403 58.02288686515348 5
125.8212848223192 51.82814825467197 6
133.51087256422633 97.68461088512285 2
103.8719064054074 74.57307661027316 7
52.554204186523506 87.39738223591092 1
107.43988158416343 101.83190994754081 5
81.5230237400085 133.48860397079133 7
132.41108323834186 52.46195448207767 8
52.66768074343229 78.03212283925966 8
43.22233244843245 34.06955472305764 4
92.93556826382553 72.83847788907651 3
65.78160760415089 48.62563499612745 2
140.12481070326592 135.93191034901895 2
76.78209117440744 96.00012644610335 7
100.82890111099402 104.00896236890077 3
131.142332018899 118.39098078449156 2
128.46630749775204 62.6617966676959 3
37.447252486064635 36.296493345157316 5
117.70835204118347 64.74121304349907 2
134.4187420262706 49.50018153492766 3
107.98741759097089 68.72924085748468 1
96.3036772148159 109.85129608215009 4
47.039512592074935 42.69943192734016 5
132.1453304333713 58.47395919693292 1
105.00803661962537 68.0738627959602 6
49.63264528263002 128.2487359239867 2
79.59256776719492 150.92597658417023 3
54.158040662012745 129.38810171682354 3
69.84549650892832 69.4967526802528 1
57.095798748656385 81.35024681392746 5
137.31249759801918 108.50374487319749 4
78.05876766877019 73.84946307779721 8
56.47535867930177 116.43014304359798 4
126.33542206081205 107.6197638374582 5
37.67450924944632 94.82553692015337 2
109.48088220651708 107.44060831105502 8
139.54017358047977 134.4457550398116 8
139.35254974546038 105.0713742572509 8
65.4513902675356 147.44930892345158 3
125.03390416624501 70.18256000415592 6
102.65660820501193 87.71249181114624 1
127.35119610215969 59.00031698520492 5
130.60232034248733 59.23087795708675 3
104.46779687543645 64.65529265776986 2
131.22486487033424 105.68023317513668 7
102.21315049334126 95.3265658462597 2
145.71124004559093 110.34015287644156 8
63.423803009438195 142.72394006892532 6
59.04133605264849 143.23086266344097 1
141.83882534152312 95.55161288540933 1
83.1624519322941 48.799124263370665 8
80.44359946527021 52.60053959510551 2
119.64095831771766 66.75292317153104 8
71.67235052148176 48.083463075055114 7
127.3519824974647 42.97917758926117 4
150.24628015111372 32.56609988004773 5
108.1709089514973 61.454539243841424 1
126.90952518458829 65.722367093986 7
65.11993924340833 146.4596073288003 6
148.57569293732794 99.55877401005087 7
99.13352648487823 102.97710573244863 5
73.37893312717304 106.18937346526279 6
125.626289881995 108.68680915542464 5
104.40197251240427 101.49294324686377 2
64.13487358007056 41.42550759688091 8
96.2768020071229 150.56031159925334 2
100.87081251998089 89.25795624357738 4
146.11452441586647 24.0733458005768 1
141.5803000600482 109.49339965252334 1
65.23418335866236 149.71841451040356 4
82.38637343032426 45.901744319972266 1
89.79618159316608 114.56526948013992 6
105.59214643198492 63.23136426105089 4
154.79487417275658 98.63555278572062 1
52.1959503941228 127.1964308885767 3
116.69711250409911 73.91225738339273 2
70.92472705791894 149.21394765842516 7
63.6187187284559 129.42127231230748 6
64.11940533343345 149.0642921798182 6
66.51340561169916 77.92816927883648 4
111.08592673389381 70.98619745210715 3
41.742521073295116 31.693074661038537 8
51.5571284064062 76.16649388026951 4
81.63508484553563 43.16931731893809 3
142.12937931022705 47.01800481017672 3
73.02549220514099 54.3530771049207 3
83.20516086272202 148.37634527755623 8
55.77229557809556 40.23135131054899 8
79.66754849030482 59.32814043689151 3
133.32488529805823 101.78791090422685 6
123.68376559907857 48.097883384899795 2
120.19807440224153 63.68222372915093 3
78.57422335896814 141.69958341658628 1
96.50870107358152 59.88786902934768 2
76.7415873138187 66.58149663212927 2
81.09338834974082 45.28033998780393 2
132.53405616090973 130.83652371133454 8
67.64088803932214 51.30890696402656 7
127.61960946978145 52.750161649915135 4
154.29137243501108 95.75894711144724 1
116.6809548711211 71.08799883324379 4
151.01292108415151 26.421772910401256 7
89.24051450239288 41.93665427577137 7
133.671687976458 118.29714796250941 5
116.40687594314721 118.8169542840206 7
49.04802590424775 38.627663912693514 5
93.70287829049028 117.9836386472252 8
82.69316733425842 56.15266172678972 8
111.84745952919286 65.9119242924315 7
73.27899275369663 142.56233383358622 8
118.96294149959292 33.1269687703547 8
67.89052572163523 148.84664024171215 3
70.95438502028628 81.63875166597698 6
113.60717572505428 75.11741630166745 2
75.13094928785108 48.753977378778295 4
60.64882264984032 124.75172170687247 6
135.50292039949852 102.51338367234955 5
60.46900624431477 137.04657366868545 4
128.65923732971527 63.1263010842277 7
50.22465257851203 43.63673280456231 4
71.34729865347221 44.28367231185745 5
65.6766979174925 40.69520352669852 7
75.31895726473181 151.64189609988347 3
125.35124556068641 108.4547217272368 3
126.62631573789733 53.80791758971314 6
92.07577790849435 130.50270099877892 2
91.30121497875184 55.238252810434886 8
134.01371155721753 118.2403686379229 5
86.92024290817955 56.73169020606134 7
101.15978993358236 116.7501610673344 4
52.86011152721862 109.65673040592155 1
128.54682110018646 49.61031059897116 5
89.92351038962754 71.52884161644894 8
69.0268366231645 140.47008014666142 3
98.09841657353675 73.74971840068248 3
82.2854462266974 56.17007194304564 2
97.81138792611429 96.9379065554022 1
112.46312198979369 93.21344869361162 6
89.34818804880184 59.32385106276373 6
100.74915495684624 108.7744711198796 3
72.56059227775036 42.97147392513473 7
63.893482955057486 88.7031183281473 5
116.51003416616331 115.80493651696999 2
109.07463710661045 117.54662993053753 7
56.06725329995664 134.5886668479667 5
136.43889487001812 33.603481320601006 4
57.25735040484215 45.50897072620625 8
94.5107025187864 111.43425165846548 7
76.6557710027596 149.92704285929113 8
99.59828755827567 103.64669752940345 8
127.9078961720145 45.857808581501466 1
99.21012661950027 107.1320037979299 6
131.46036359665555 60.18511925917096 6
114.37983956811796 65.87825282564222 7
142.45308540142148 122.24418749414056 1
35.72650754373653 43.23287619985621 3
101.05253323924535 73.45189869268418 8
129.19095005331758 42.26107773883042 8
113.23923994915515 74.05054462783973 1
58.53937665276781 110.49672107021307 1
130.10829308548244 56.96312877710776 3
42.771593569323024 120.0600868375476 4
136.73667181701674 133.65577172998158 1
142.31152366776973 133.60460193503891 1
151.32022113815486 93.4032808682766 5
78.35108836241886 86.37939854296508 2
90.87238660007824 60.656924636985885 7
153.8515488844748 95.0847030103347 5
52.630413224576905 139.61956322561733 8
136.0800298838321 111.73139344518796 5
80.84494429291881 150.16920914719555 1
81.8162952070082 133.76552909792582 4
78.653391238278 143.75406784906576 6
82.58068465164754 76.05224020364754 3
128.9287753709565 43.34034602300147 5
124.6811599287471 43.24848491064124 8
139.60991930518028 108.35514532739089 2
102.85215533412314 99.83875309155995 6
81.67438752554902 41.0498332788462 7
73.28684106396608 154.41676441414245 4
122.06574288361833 44.58920973781857 7
40.555328606929024 128.61529219333195 1
63.492704718601246 48.33203256007192 3
68.81050348039625 82.52280348122693 4
140.71284670981618 110.19337238933392 4
72.84830013586328 147.80780031411044 5
57.12546815573264 130.30939277887634 2
138.23762797884152 103.92352794228603 7
51.5954789290738 125.79369947181209 7
66.11405746456705 53.542056776913626 6
73.75959415969511 88.45551126499325 7
103.56436146640506 112.80205416191887 1
77.64121587111353 72.87403843449043 4
76.22761821927062 143.33416540244045 5
106.26316715169112 80.17886578191894 8
70.9919814130504 65.92832702787287 7
137.55526366961453 30.800372262951207 1
136.47587513435576 139.26783357585208 6
93.73081572898978 120.20128437932013 1
81.51693159704153 127.66646987429559 7
53.37669348723172 107.20517724911485 7
98.1503077853873 105.9300504898664 7
91.13100610328058 60.69251961537824 4
76.61631424023246 44.29201059512412 6
53.267684576810304 95.75799200691748 5
109.42511341027996 85.58953137290457 1
133.72145127744054 138.85627176545705 2
130.6933402997389 60.46635110313032 5
84.8686104327335 40.81884787925328 6
126.9214058856159 61.28954614210169 4
131.70200497879605 113.94031636200933 3
106.06848647281711 76.1398362520583 7
66.45347070032902 52.888782588346366 3
73.10529039522613 146.301064296299 4
95.45828493611593 113.18880267043887 6
42.95004095896182 108.40646111553131 2
107.58403502876847 64.76192792279467 1
122.58136303421153 36.678837464078065 2
98.6337758772158 114.50178593855286 7
124.75160783319507 50.46467666554156 8
44.605586043447715 129.88865347980305 1
100.52249353237501 97.52326992289592 6
55.73950641530328 39.57250730801012 6
124.48267460492029 63.216202955456005 8
118.04431753675713 46.48400563972809 7
124.68213957171302 53.329511342741995 3
48.04959315113582 31.221555071841934 7
113.97366538515996 111.61074918127174 2
74.94330622616963 149.69438424897035 1
128.7424359359899 46.84155161090937 6
100.04225927704007 72.03105600194053 5
73.95340674577454 91.46418996277023 8
43.07635874739033 125.13089265536814 8
54.05856490785943 40.08279298038651 6
102.18401773435794 94.38145516952527 4
82.20157194525618 149.1567394996762 2
52.87098323343965 123.1411914623245 1
54.641693379372605 37.96920446900036 8
65.81159218276281 76.55279086384444 1
85.90995904693288 137.61145314530106 1
134.17856201957576 51.26242059672779 5
73.77214055192398 156.04911029318848 8
54.624542237105864 38.84596774786029 7
136.303911383428 31.05029137388782 8
129.40092890585083 57.856738298993726 5
67.6662899686426 147.95706533042932 3
124.23431805428628 39.349522825629315 5
98.34393890592264 98.52394084333568 6
69.3716707652066 147.0420701163462 5
46.11589419476449 30.680215458739916 3
78.77246679314311 118.9765875795142 4
70.86778743677895 53.74729791502128 3
79.95342944416875 52.77899617367617 8
43.01691794824172 119.05328868675863 4
100.45436481421646 119.90413808547933 8
135.12205232737728 128.20366203295436 3
130.85270507681497 109.70015716506397 6
44.06769587839421 36.975479073067504 1
129.11280525547366 57.4669532274075 5
96.40148585134226 89.73906659119623 3
58.561917936849085 130.30052179488953 6
81.20782171151981 48.11120374663047 4
113.06467398018731 119.73086094197421 5
72.13702009290873 53.124413878030154 6
56.37890837721616 40.61754503255234 2
119.51767152661536 39.45996569158831 1
123.8219144064059 111.08247612779276 2
80.23235184357783 54.72640440605822 3
81.14112164913053 87.09166969139824 4
128.20525404171212 50.8798287590044 3
136.02920305974504 103.81389971511437 8
83.14390281423563 37.933662728953834 1
121.77190849094316 43.85727525399959 1
44.39638179019512 28.712676155431666 2
96.81952623064682 110.58053266284297 7
57.38384934602663 81.85635329318472 7
51.103895713880625 42.87997005693785 2
115.87887622122054 65.45037072710952 3
120.22440583972728 52.18909726373774 3
80.4516298661287 45.22722147546488 3
112.70658413278859 75.45224774774063 8
125.65839778483307 47.743874442697035 6
87.41145673037872 114.4398208628514 3
135.23630822875222 59.66760363000321 6
79.26564191182624 90.82258917305408 8
54.02600530017914 36.277946295844835 4
95.36669710482924 38.8819402012367 5
48.792541624912076 127.52328266207132 4
137.99110244339656 113.01221193270072 8
80.68541996442531 148.75830368059252 2
68.26670084950747 137.0246245280866 8
147.3838146443013 37.097977268113986 6
128.55890863162824 110.87633117927815 1
45.98074952758522 45.68747004050243 7
110.43293238041453 79.61068189692438 1
106.47741787888006 74.15857462201421 7
79.02706429975288 56.85473903659105 2
137.08832738599003 104.47736766951385 3
50.29721306558661 35.76270389887294 8
131.3526928912394 52.52387545308764 7
70.78921851921464 146.01265184374162 5
130.69804079414502 121.82563467079939 1
105.2900157091063 105.7464616488121 8
47.85541339460496 35.200362966067686 1
121.80626485050901 117.82517068135186 5
85.20347054687701 58.81762623405851 8
46.916307668349475 33.58670473464964 6
99.89449010450996 64.29500106052771 8
61.66205715494023 132.30710928510248 7
91.02967737173907 105.27362784628501 8
60.96587188165565 74.84844076356555 3
84.41898938250333 143.8976736557649 4
100.18619251562293 103.88319705119572 4
60.92002984527689 94.36404673075361 3
126.06983400691169 47.50670685310216 6
152.97264436872484 101.58225167547145 5
51.23881479866476 34.68124423952781 3
51.52350977895342 133.44563592217025 1
119.10322909493105 60.3345177664407 3
44.840626059230786 73.47934263840494 5
98.7333812867483 99.18289093855913 5
98.32281877122841 120.71577634427716 8
57.664983135264976 29.453678131083493 6
95.90779360910071 94.2514683370444 4
146.99747179106905 92.7142986048451 2
94.15009484514239 64.08749057362722 2
140.87675108535902 25.874104124827213 1
133.68690956119752 40.63585150339267 5
83.91677590904862 152.62750391509041 2
155.927659276253 34.331802446369245 1
128.23254569828953 71.87406478350871 1
56.74393482103251 44.63078219893051 3
59.39891715169553 120.98313831441602 5
79.22428912817648 146.25854592161423 8
153.02370384848035 25.169514940980264 1
99.13291724985285 95.0787597197444 2
120.14452591987698 111.17135717349944 5
140.30993713206348 113.9836476635742 3
99.14888017318695 75.18088857476546 5
128.58403587844637 42.75827237383625 7
129.22343846923087 43.660389164884975 4
101.71518768495783 102.05525674541477 1
70.5075510418358 64.88304397269474 6
70.10076167432581 40.38833775117508 1
70.97857050810538 65.28889303486027 4
69.81094018897511 74.89888224900085 6
128.19680139833116 50.14139994136176 7
49.606357914702635 126.25090827868726 8
63.55518355235418 145.1947632520159 5
103.26597377395859 97.50540737499821 8
100.43877372800911 106.52819515891609 3
55.46176116406624 48.15690846303373 8
149.5004605031367 131.7011690220873 4
102.4915563247532 95.11985760321917 3
146.9976558488447 107.06121790376804 5
73.25134598719497 43.57631211917157 4
104.01222250315234 108.60657239464668 6
64.69236887991447 148.50377906129285 3
74.45947864664679 44.16132228476848 3
122.16190386689729 49.224063739912054 7
118.94095289741615 70.41046568109627 1
42.6318147586923 38.074719966148116 2
74.36694565587115 44.840875515071794 5
102.70597930817586 71.21822237579872 5
85.62356720930777 131.56159319510945 7
84.33687614820872 61.17470730776532 8
52.75494613586389 137.86258212091147 7
73.0528769574858 149.86430096832996 7
122.17934339926727 68.80814596019297 6
49.92065806852387 116.33030889075451 3
55.81954952885867 45.51768829333184 8
134.9578116723181 139.48730979351748 1
71.6694989131095 63.298908105011854 7
63.650570531005954 102.37627702644433 2
110.53751984329186 103.60436412206417 6
142.70100846029865 42.98864391221713 8
73.50974373024982 75.26262673852595 7
63.56343372845284 53.37582810976784 7
99.90746563286423 53.15438700614499 8
142.58766839101574 110.85977935436563 1
133.84554679266918 65.52732875768599 5
44.919320282391254 130.76439394257582 5
134.94086827182002 50.37588218958351 1
71.12366423182819 101.20304944728927 5
77.31783728548176 43.74204848425631 4
45.12458805732544 80.21380514596747 7
81.5277344318544 149.1181980468389 5
82.36096693721488 53.32972225393011 1
82.97057990030112 147.9134634650934 8
61.17970102737153 92.41264590983846 8
83.63585205796448 148.24981973892514 6
96.88125308605946 97.19568689423826 4
131.1140277362367 63.927462139771876 7
47.119043117718576 32.45156117342144 8
64.30165163570528 147.10103929712898 3
53.197127141027146 45.681850262508775 5
101.05796969256386 71.29954571758518 1
124.17598263506245 120.64559285002773 8
153.82478881822954 98.50729767832384 6
126.77098791096219 52.597632933122746 3
139.41623105562945 106.02390934008811 3
112.38510444616328 80.63901840412707 7
70.23830767089785 146.1844142917076 3
128.7943978889791 65.60813721322866 7
101.31713725787311 98.18849652167113 2
82.9200208914007 49.254397692691164 2
101.57288681847822 94.15083331145976 7
75.95993031065626 46.35658286253036 1
67.97762706195121 149.39421357493615 8
152.01869023743336 94.67569615136317 2
113.2149899919751 121.93277300022952 2
49.28903860822605 41.52289527897571 1
75.71468058354857 62.09589968587743 6
64.81422815440122 42.673836369434945 8
80.93543229890916 52.09373304632801 3
144.5116423120977 102.34284343244634 2
146.03834056080268 103.94668437325787 6
62.205758109778614 138.21618924647635 3
97.90203092396855 69.62862751999994 1
131.87553022955063 108.06550311328036 2
47.31177863464877 38.442655932988764 3
101.94460592078192 87.57932970877069 8
52.794915462710776 48.349991318926065 3
78.74952297497539 89.42705514212476 2
102.22302870757115 72.13640179048188 3
95.413404432811 76.4255171370768 4
143.33684815948635 126.68170578822485 8
49.784043018417506 34.40259505524096 2
64.01995470450592 146.43424412854802 7
128.16611051569564 62.2747503459511 3
42.1004212184557 40.21542303936574 4
96.21211451067205 91.12823839401412 4
140.11546013380308 102.48407100541189 3
133.43229456362965 129.47767926896293 2
75.70462269405346 150.94466221108178 3
100.67552711345303 109.45075616223662 7
94.37554469546313 83.65096238727189 3
127.03129305177791 111.61174692953888 8
66.08109593141634 152.0500702778388 1
145.33086981492968 93.5296816356421 5
62.07235714145185 96.65136880374254 5
83.32768352788315 46.25331939130855 5
106.47772953161251 72.82723142870839 5
146.3872040643826 99.23642894730408 1
72.29568397340226 81.39045172192488 7
97.89894754370836 108.70768931417506 8
84.77373818712913 148.46790195529533 3
112.602447119887 66.72514117195779 1
100.78153444079591 108.53660003008359 7
41.89703804880633 120.72348091383799 5
57.140241626790676 38.41358649255487 2
111.53942782459055 110.1036412117207 5
109.91295642263556 101.48763917517138 4
141.18832399508327 134.03437545216423 5
125.88678815146511 48.87116450040817 7
100.16210961069946 110.6352137672298 2
66.35069667098936 85.03201235307881 3
78.74403434616167 68.22960597870284 3
146.73337555398007 100.15399122340095 7
64.78422868166781 150.11665850197156 2
144.5990190454702 28.061313982178966 3
76.62031746707568 146.23536036785063 1
85.56492525030278 146.0602392447085 2
62.58443265795202 150.81203640826942 4
130.37804816004598 63.352603067802036 5
62.75090377317433 133.19138514120354 8
138.48620896064935 106.22174379542372 1
66.62201986310461 78.27942526957366 1
77.51184536113121 52.861092088352486 4
97.86838942226147 128.93258823721163 7
128.9946576502765 44.902065811669225 3
80.1468648604682 145.18927724534524 5
46.58400993259976 36.298437083233466 8
120.22188339026894 43.41758961520436 3
85.82444906001956 69.0322024026259 5
105.63515822276416 70.19035169954532 8
155.5660721751767 100.52712157887063 1
108.05277651626896 102.81258609120647 8
118.9195185223339 102.80279012521302 3
147.47513276124147 24.001072278606394 8
58.46901732782931 96.97023367605951 2
138.7407051782771 135.141575176674 3
88.93985212786089 147.37220807295432 4
105.15522700069931 92.91871075609686 6
74.18709271055899 65.29016497936533 3
83.44388626826061 45.98226381577389 3
68.0404175523571 83.21865357750913 5
100.7593761899172 75.02628078632712 8
66.25089406382942 90.31259741887246 5
100.10111990469244 94.56094893869813 1
117.03260020014595 66.17817342709576 2
119.04047157875186 77.65171368298638 2
120.54560409986465 50.97138875383961 3
112.8058108430748 59.238414548362236 7
150.93645374636364 94.82541589104137 6
74.28832259974975 54.98619462317106 1
150.27291560546615 89.91886717270789 3
101.05257175131239 98.33578465928758 2
128.93823546539195 56.80048391560965 8
79.1506712016255 145.23218342112378 4
98.23866783724814 105.62494204800882 8
135.00413741680757 109.70316032386384 2
90.91348116053074 142.49275671543012 8
101.53880078139265 100.66203063896377 4
79.5389069074792 49.059054342034564 6
100.05741794527147 112.13539074192819 5
98.93701743266932 101.92725769055313 5
85.98005414206531 151.7283964254947 8
98.89478522264727 109.27444299916895 1
109.70456852514937 76.89811470302499 6
56.73696025936203 41.002098501288465 1
80.23331581489376 70.261713933939 8
89.97603187995756 153.40481500389194 4
39.102008732144576 33.17938504110128 5
70.89525915824642 143.5975257417854 4
99.00126248906348 95.93740303905679 8
138.52667482560014 32.6953895927278 1
88.49467320867126 113.49020817895719 2
100.54931098706788 48.59568964363212 5
41.038952893691174 37.21327777457524 2
56.908598497649585 84.37776871017557 4
137.12610964853582 50.50222825806246 3
79.13910463205987 34.72869433008225 5
126.05127118111412 76.09247072341189 5
121.86535745245325 58.85736583935887 2
131.66860310652206 67.4420301817442 6
146.91986702048615 99.47411580321138 8
112.95696563914301 78.63638123149826 6
126.19416219298459 24.658986257509156 5
127.99424779440103 105.1161405486826 4
134.58642197420468 35.66471459101164 8
106.75474957622838 66.555418716121 4
99.11988201215162 101.51588802420953 6
52.20566042396588 130.2942431173135 3
81.41172094544721 41.53799009568797 5
81.00045186958741 46.98062229584536 4
52.92061271214072 151.4477068754912 4
128.14625419967035 115.78743148566812 3
57.0540348318034 81.8011988077035 1
143.66326765461494 90.60952766141291 3
79.69647410717987 70.8263362286532 6
146.20753917864639 94.22268997411581 3
85.25708983377649 49.61214632893556 2
148.66640468249406 101.29610413909968 5
45.267576722025325 40.83592650399916 6
47.78012340903993 130.7583648450195 7
137.335393030397 136.37072066226457 1
77.93232785076509 56.330106153930075 7
100.54330304097677 73.02678817622309 4
101.5831545399906 116.6392971715901 3
62.15119657067496 41.80503108624998 8
40.16199710853401 36.89555078669215 1
59.197937930703965 38.019438897631304 8
71.90345204548862 146.48201750972493 7
75.47371919810678 93.49456572482421 1
152.6219164150506 102.33078007140554 7
65.90820048124304 52.52909682364926 8
107.83034790227146 80.52441267219268 7
101.32230274585721 113.38170322998626 8
110.02094483322276 60.94584653575415 3
144.04526271940617 37.077505065597215 5
132.56523745063228 62.32546728545983 5
141.46303741147852 33.56799458847579 1
58.7935410888272 73.38066620941892 4
98.58128718086685 120.88012564780821 5
54.344280675544454 45.41783180546882 1
110.09831619527833 60.080959389900755 2
121.08160471703938 46.314936805427976 5
39.588960840070825 31.60217461525514 4
140.11529145042618 109.94756931265371 8
139.09393887464228 99.12769720299052 2
46.61385890392704 42.53931268488322 5
140.65181600498192 119.32005868262742 6
125.2677199452071 66.12099816182368 2
154.31275971219586 95.28420222701607 6
45.320272797346036 126.63894193159138 6
52.05469785016192 37.530686633719505 5
75.19659679221729 52.81593223961898 8
94.80707041320396 52.4847498181231 2
102.71883355645362 97.18101760597963 5
103.42382019794765 104.02705964511554 2
68.97904743532422 151.86478362412154 1
107.4677481413236 72.98100191588192 6
52.637702680167266 33.87365603830246 8
68.65011539940886 135.58159914320535 5
134.91513103805357 113.95752687647457 2
102.55675488459309 95.72379137074168 8
54.66739237492791 48.894082184067315 2
48.23005203958973 34.369843088820936 1
141.18481666686245 88.53582400370784 1
64.11734348062569 44.585803262424676 4
65.25187877570607 54.967148942448745 5
110.04005268163762 113.90110973614728 7
107.37812677504766 117.08335325932484 5
93.1155334454197 148.56508498181137 2
126.331637659429 113.82735847948011 2
85.77725487674513 148.971032102278 4
92.68966260228909 49.22879425882217 5
69.76150761700879 147.3131122365237 4
77.95437181411243 148.34629810665274 7
148.51696401213906 27.400645108112105 4
63.915433446225784 78.89694734301 1
135.2209696026864 46.839935671192734 6
63.988835368409234 79.42016437256778 6
118.1453310460674 102.59450572336925 7
43.552867831182674 111.68796517316382 4
67.03554856267569 44.68623971240061 3
85.95772944735967 60.67275525732868 3
95.20583350199698 95.72721965596553 4
94.76528897232727 60.527214712606636 6
104.37057773929234 108.80179603801639 8
128.71760097645475 66.41438476877677 1
101.06134628460066 100.37817976068824 6
83.74428254739601 149.7400679864546 8
122.58054583882368 100.83215422065655 1
128.95047287033486 63.09664926881322 6
128.8207848358128 39.6283509343947 3
72.05654348636352 73.24716063141103 3
78.3898980129956 55.637658015709604 4
59.38873981072153 46.84788327490361 4
92.86198079540742 32.8003426814878 4
120.83741057311065 62.63559688203895 1
98.71209873182836 70.03394058631305 7
65.81460607182922 147.13361123809142 4
131.7727379434522 53.26569621282856 8
126.28483290512868 39.31499465190919 7
66.71890180171954 143.68436005021013 7
43.42461769754973 106.24023082138682 3
69.52812327469431 145.99195819574152 3
71.62427854901367 67.9654595150814 4
132.74624523981214 63.713141837761 1
128.93874063987082 64.22899642144303 2
96.71337131460103 85.93150177168837 7
72.06523157276031 65.92944245483261 7
47.73437206850074 120.36873916993066 8
51.563688397235765 42.3552203736901 8
49.580517163095344 42.794356137004726 6
145.0668278706076 130.45251934835943 8
54.94361223067335 110.81654620891764 3
139.77583323450142 140.61576465077732 7
65.83380975532967 109.49713117501261 3
87.63324100900937 40.89946931195857 2
140.84856469183435 103.74106076875368 5
136.76653001636782 108.19474110704373 7
89.11216470412568 51.01238234814112 4
54.1731237860488 95.9159043736211 7
129.4260089398778 63.12101728222841 3
108.69271899080258 87.56374475494157 3
101.83845758497607 107.97036571635074 2
147.37149920431855 26.605407151537115 5
40.29643895026878 30.604668198355782 8
126.67839763675926 49.17606298404539 7
58.81288946076524 43.202863367309476 1
130.2367948622114 60.67144874307292 2
135.4474816104296 62.14074217779796 8
135.02841633558035 50.37646859551631 5
67.25703757766563 69.15202549008526 1
98.35617379410834 63.545838765990574 5
134.16049592799638 119.37403230089183 6
51.835734961880114 37.66798316839974 4
38.1397069431594 137.36773712848571 7
76.8102103867399 146.6873542050537 2
133.32597868892793 116.2582368102992 7
74.00541995907071 148.77031983694746 3
150.12031088592073 92.42207869686229 3
61.39458433472798 60.12852526477606 8
64.87135717664262 146.5713707407481 8
52.283433167821485 127.83061748530152 5
105.30356161513285 75.59624937195261 7
80.98328761029579 43.61904286306107 1
78.58505675635124 142.3866013464499 7
93.3990847456185 61.74792452863011 6
141.0102957347868 103.59110914737846 2
148.1388717880119 97.23260419851756 8
61.27125052355967 36.55762459530938 1
107.9013825236608 62.12786413555134 5
109.12527412035372 77.58378612015879 1
140.24436639072252 122.03600940826865 1
127.35349819824759 111.77562422570135 1
103.39899241714046 66.42662784669241 8
82.48975390247288 51.29853221485195 2
60.73971121253509 99.4624775942415 1
131.0653043113375 64.56468612910432 4
50.31710095026523 107.2677565402135 5
124.14344095480502 70.13934158951137 3
84.79683509530564 51.66410369255382 3
59.803651213708676 38.74366184810733 3
128.88238086584136 117.6031825899401 5
116.98470873308594 39.30679281491755 2
86.57477070577596 71.98527201182537 5
72.44090528392304 60.928718767923684 1
97.5895308041531 85.51276449242854 4
57.90519848102868 125.2637592296891 1
149.17962297829837 103.08831857054611 5
69.79432939324738 80.74489895381902 3
101.0032949756926 87.98350548204684 7
54.60395193713741 118.85125011967382 2
119.35309821236838 65.71877486244803 4
141.3482872534655 24.91051646689305 2
134.56908894966773 112.35786176653392 5
134.27960422532954 111.53357156624293 5
74.8418985022339 142.49087175887198 2
147.5899863392699 107.91440958720956 7
84.33812071283508 63.35539579160007 3
59.993409265389865 69.86221619520212 4
122.57653153734097 64.25461680388358 3
105.70813152205245 74.81030162850524 8
125.79695552570732 52.77732011869619 3
41.63966551336365 113.21719286806167 5
130.67970950214647 53.227765881074276 7
147.63746338936792 36.91699171229893 5
71.36707446003766 144.65401106440086 8
135.26143939641244 132.07600465176358 4
80.74272172633506 48.1063595937553 7
61.088201763538315 68.53112696573392 5
76.16583194404005 148.76891182298502 7
103.50641526979368 59.09760096434779 8
77.29313452880002 78.46561984967674 8
93.14235303636016 137.63346302958197 1
78.73116742891709 48.46890290483477 8
49.173950783716684 123.59613428285502 5
77.84031193619856 44.122519453823166 6
77.93426200028708 149.83746448920107 3
105.14268793533904 80.30431633791473 3
48.88130347846621 92.4286885298179 1
74.34680601003546 115.42264164445702 6
140.5165597071224 115.83964034203228 1
72.13607330587791 68.14688681313817 1
111.3483111974005 68.65924132712568 6
59.55507803065905 131.52722383132843 8
123.0970369300864 126.9645249810816 8
132.50787965437027 105.26688031450055 4
59.59571931464892 127.3812254409216 5
63.49599194278739 152.53192147999283 1
129.034478329551 58.77800748501831 3
76.78473450849752 54.9661724056745 2
130.83459424156254 61.91061959295755 2
127.01196914656157 54.41108690610511 2
104.58152712110038 60.89946727151059 8
140.09631306586044 101.15776933074729 5
133.67348274610336 38.37933240164598 1
99.95639711036127 108.40458979470183 2
68.41823911730135 77.95983562984644 1
74.75809053060381 68.47850205888757 2
109.25680346269716 102.11084984002122 3
133.01634495342316 123.85034806882106 5
85.08774378166841 46.68984407299315 2
42.44808941257971 32.46039169767644 2
101.72018641573905 97.19459046990316 3
100.41420806231716 89.97567432193912 5
135.9584969791139 53.792594633381825 8
55.95340372841565 38.33918837287034 5
77.58711752720887 152.07538646431334 5
50.770507937133274 135.2487403983796 1
94.67784102811 68.83863816428241 8
80.64546828642526 57.26890599821896 2
130.45242925145536 52.632356323814086 6
138.66654224901174 115.37203802237677 6
111.68705068797573 100.46796037688921 8
46.93294801871031 110.65328138246507 3
96.89535810352868 76.7541465017218 7
101.17706491848877 95.7394401544668 6
59.648414840955844 129.1155573489823 5
127.0483853895122 35.91706144676491 5
102.14631676641528 104.47447506457695 2
97.13979888279634 103.58034720723568 4
52.65488594382942 40.06386668345711 4
70.9756432806217 93.85424325748015 8
103.91195464677452 81.52754435848858 5
133.26638552613667 63.777661367003645 3
138.71095636632083 101.7960041600084 5
69.55021071447288 51.60648236824919 7
59.2049967921017 46.98787161843925 2
88.05173609822084 150.27321152950233 4
145.24912112191242 108.25162805462168 6
134.6394581429663 108.60371694142843 1
49.85005576809873 125.49441110394511 7
79.27755121682713 44.87934459623439 3
131.17078200891066 116.95370767419932 8
129.6698469378009 107.22294067131728 5
102.39140002713643 70.27986566288462 6
101.93666497860266 120.5371981299452 2
140.91151566177442 104.78260311801118 4
80.4028288573251 53.02881027786496 4
