850
0 163 0 163
1000
94.54018129846 92.73953976327444 5
80.84697236183617 106.33100933389076 4
89.20832180778572 106.67386174687677 3
65.22827297350317 46.915415839908924 1
63.609984838557985 55.42578214039636 5
50.88180037721155 95.08147290875647 8
23.563551607611267 88.76654012042998 6
52.05811914822101 54.66502739738361 5
103.66793700574901 59.121356631041266 4
61.479546176846114 112.77674949370312 7
31.990205653810424 123.36234215225633 8
37.115846417101544 77.46694603258373 6
129.71421269861605 43.39035762885768 7
109.28747500474908 109.108243769138 3
36.86331782070347 116.95057945470454 6
91.97748985753239 102.58197907808217 1
55.53532269810433 55.62819228773836 3
90.70895928722018 55.75315718790598 2
23.232494617958395 135.5441225036377 7
102.50846574410106 67.35750844768785 6
42.96009201997415 82.43017847675789 5
105.70627886866605 51.64177733915399 2
78.70652743923387 69.42926817255866 2
39.72091927297976 116.98569376059686 4
140.23206815969434 51.633529637685186 2
81.95559391675046 64.73084842468847 3
20.895233647406272 135.93785434609256 5
19.207023326327246 123.44349759086298 8
89.38229959225059 49.894665309373444 6
57.301216790985485 59.714745842003424 7
76.8281488355194 58.193214575269465 7
36.15179647058761 99.46713111562711 7
63.822118494599586 50.16063692166206 4
93.61632331835281 49.93364616429472 8
66.01448421364077 56.12977899072117 3
37.36004711285431 109.80385978205773 8
107.5920824240304 109.74306773980071 4
103.54620386322425 53.430827114805375 4
28.745779076679863 91.16298108305006 4
21.42936481349563 126.53023411001527 5
109.61563470586667 107.36775738696494 1
36.715610249655604 110.06994504218737 7
50.24264637815693 121.53057537997206 3
30.24786184334124 133.23078102659227 7
68.74835287693884 56.05518249969938 7
90.42798473932103 48.277025383507116 7
56.96285498463233 54.45246095492056 3
20.260502285575598 129.33898231166205 3
107.30249288236688 52.05697222055685 4
53.89698578474386 52.99785918048767 8
99.92811169345671 49.72302615742566 3
136.5206801296909 95.48540576295403 3
20.269347717682713 137.8071472135738 1
77.05015994478224 120.46451904104576 5
122.5623075184879 97.4830541930335 1
63.10040476051101 123.07684581624929 3
39.91362943221977 120.63992935849473 8
56.977993574633146 61.19591227535117 4
37.609190388648045 107.49963052802146 8
111.28126782877203 90.24418276954353 3
109.15229073082516 101.6855019463086 1
60.72660469459544 54.28597485508837 1
135.7772854422442 45.18119053483737 2
104.57154405514292 50.778389154010924 5
104.50258204972927 53.0458305574518 7
138.2697704422822 82.3067883252572 4
44.920783078123655 121.5108427929209 5
29.776967227464027 96.3178539377822 6
71.22035660237208 105.83948293990682 8
60.04088869426491 55.94515768299697 1
68.96367755000378 50.42775441099431 2
45.0378884564871 77.32208176092321 7
117.29842112235502 51.92607800116308 7
72.27569914424292 45.66408098223983 7
29.430227595278645 125.2957959744664 3
37.602017666065755 116.54870690734207 7
137.70925579243016 68.99484364115693 3
28.736687175570857 71.07849547527891 2
130.57869843993683 77.48707438781295 5
86.81212897767553 99.13370996414919 3
102.21070273566524 66.30160577345902 6
136.4969230774848 43.34160551299841 6
79.44630500372855 57.033213257536204 4
83.13722055318523 48.36868528056981 1
65.07115507675968 52.566440077271174 5
67.22429855279165 98.40170029626988 5
141.95544434802122 44.63693235865408 1
95.5450926031097 101.38912420307626 3
93.99047407909019 109.07394591104486 4
157.46541602984286 70.56949703766757 7
79.92093678990665 54.19879626651075 2
73.4945492572229 64.00660914976478 1
135.38340800803837 92.77087418114421 2
91.13118399067231 48.91362864682957 1
52.19167637334103 53.77426516407184 4
85.34488946654291 55.08703836638538 4
35.96743348728384 122.70701135146614 4
147.14250309546824 38.41707942729775 4
135.74197317776034 97.60217138246968 8
74.79048304834177 58.30452747039692 7
104.77444252059466 51.796400815854696 7
110.72595384200201 94.46618635301598 7
62.626512337417694 54.073489512136405 3
106.50368255280424 101.37376245375377 8
85.26641182517585 54.429762643011685 7
92.52653077385094 49.93957305908297 5
25.055458063417205 131.76519565203864 3
62.066703408346925 47.69938303322562 7
35.82528318789238 121.60441137891954 8
98.3012499205098 104.3338336339367 7
92.02083589795404 99.76260074700893 3
129.25506730390882 98.71957828224207 2
102.60815264383987 100.00889283734627 1
65.83784893765993 54.4067873597138 1
98.0427379766129 49.98081560977188 2
67.42291545205053 41.4555056053447 3
28.384463121856314 97.78206826553384 7
92.15228902325198 91.75679754976916 8
83.42562059688856 107.98232493396073 4
38.83093525703712 102.15069504685134 6
63.14168939310544 51.249533300667956 7
97.99279247637412 53.11106498235614 6
115.4097669587608 113.83917524550353 2
100.92612909411459 76.27715237142529 3
106.6945633167259 101.30589543887267 6
86.82126302589131 70.71619725759521 4
65.86414205959306 42.49237454154734 6
86.9735843867654 104.7234973154399 6
32.82023725573414 121.21303220074604 6
59.39704258967934 57.16644047454664 7
103.28094918708639 72.15637228201531 7
96.12760466099064 51.11547240547858 2
37.857982597106556 113.91586276279025 7
101.42556271461952 94.8670121039873 2
96.87029739299294 103.26239615457973 7
120.73608428534372 95.39579413996671 4
47.259036262153344 120.75829923286553 6
40.884936264686644 117.11570174837655 3
38.70486171774085 108.3136259608788 7
68.98725462494747 61.40806438267755 7
67.13320384296603 55.012730148917285 8
91.2134110981636 100.28080186582163 8
138.61709135548716 54.59984335842586 2
108.60451745147826 92.93770428717511 5
79.45865829656674 58.09838522305344 4
128.76470648023226 41.65690279198008 5
39.31747598804806 124.88668758949512 6
45.15791701497184 98.0425147944552 6
107.31118089369394 55.84908109637732 3
154.47757031727136 91.0976783459112 3
114.88512154982115 54.01181273347425 5
98.87407731886938 65.37602908804827 3
107.28272195715734 59.335548099363514 2
94.41329694715245 48.68454303611299 3
51.43661570638814 57.37909435212304 5
21.607234176468115 136.07460148567634 6
102.38892720484093 72.85811022886571 4
102.05098350934132 78.14321718100888 4
41.56408775558433 117.78076811419619 3
34.98134941899384 109.34245872971663 4
79.32418331903675 66.64556365977799 2
117.09769500100698 44.29219057627528 5
57.42430612689663 53.70263529680961 5
67.25452632461668 52.83004927712433 1
115.22652750537677 49.87120641962977 1
58.81533361437861 52.2100353199634 3
60.73513622262483 53.587335220283656 2
38.51104516261605 119.80056847799948 1
92.58666859227148 101.03328129147428 1
46.91757787656036 95.30471077697953 5
73.23201505485815 53.934003787757135 7
64.81582515050246 49.7820034591355 2
44.55252874991165 107.26944695517126 5
87.9318135410946 59.889996526534524 8
105.45140233776411 103.60000015238744 1
96.95160572456733 109.2458898984456 6
54.40695026817218 53.85823381724251 8
38.95012273639844 117.44520483767728 3
103.25277949544183 80.31289344556116 2
51.189960261896026 54.22146277078653 5
76.37165631486008 106.14201606691537 3
46.00458159183247 52.8991508430117 5
91.03238721555634 94.93325127870393 3
59.46738656410289 50.8504808241746 4
87.23734597573878 61.90020822124463 8
69.64562387814196 57.73049924668784 4
70.48370137700641 112.99533940437871 6
64.05444276392882 43.3943701464317 1
49.29176571007602 90.75385296940979 6
33.56648982649836 109.69556457092835 8
81.27424737121065 59.985531651655336 3
98.19462536038097 78.96431741591815 1
131.8976205631472 95.74321915919252 6
40.522145335083934 85.74919852229246 3
68.16133629736291 119.75683026881046 8
39.09904082850683 127.11729926519001 1
82.13094494132369 111.42425188755114 1
80.9163837957797 58.15054301370532 2
53.09951558621719 53.91821646407264 8
126.25298473195235 113.78458136043844 1
155.9434719421743 88.22543896943327 1
105.15440493028044 60.927387235493754 7
101.56114498980116 103.19043730262563 2
93.05682367086243 98.4429953928343 8
52.37817240667557 52.95248626436445 3
91.79918283421429 101.33972568104086 5
94.73212852791832 53.08284785440508 1
116.73282081300886 110.67546906611504 7
92.68298025858849 58.159977812065925 3
34.12292829157366 119.39476723665452 4
62.86064695735132 52.07364584024937 6
98.75380386334734 49.86060922789545 3
51.59234001644213 111.75496239742091 1
105.73154019503102 52.856423920525614 6
128.21842908858397 94.98028413357414 7
93.6677145746413 108.01910509828767 1
31.48789581598355 85.77967549825198 5
150.6984860741151 69.43685236760693 7
114.36896215509918 101.94973073183786 2
44.2208589600236 70.21963757902276 1
67.9099511746825 108.01663803308118 6
119.01646170634359 89.66216283165141 7
63.61444639186513 54.46147471052491 8
40.08822979928314 122.44905641369566 4
134.4425944943791 95.44086762349782 6
145.92957840693555 100.12751723843252 3
122.75329597606536 89.18856931837385 7
103.74628401530998 52.16547530418392 3
98.34290561084947 73.2729395315482 2
90.36517693973302 90.70110397587376 7
76.40156320428193 57.85407366692256 8
45.59449397319502 60.001933118454346 8
144.33309313851015 98.49529623231867 7
154.52972832837423 46.777260304415805 2
106.53816663965063 64.04037560771394 3
124.08851547197546 89.57982623555714 8
92.35539566519803 95.96454568673548 8
20.81970058923521 130.42791800383526 3
120.25201236552812 109.06788826210139 8
104.62719303440502 52.38073602550991 1
100.2162732865282 99.5037698805437 3
46.819519195647096 65.86991462160739 3
44.1902001485809 56.142960445540716 3
61.345876820925625 50.28614781425065 5
53.22845747352133 53.635002859987665 3
92.91728249184553 50.084721537667406 4
82.63773458466994 101.63387394473455 1
136.8525802110945 102.28496060712936 5
71.89821869288807 58.36017365077709 8
58.72398647396169 55.690382636665476 2
33.034050542829576 74.80283238102396 5
96.78415901525571 47.98868858879513 5
104.41540967845174 108.71978158787387 6
27.92824714949184 138.33094679270758 5
59.304548437983456 51.09071926776054 5
93.14331888089517 51.21735578476911 5
156.19713377577636 41.072840006949484 2
70.9539847346718 63.14459381661907 7
130.3661429307019 38.152218495670525 5
35.295473677451184 110.91647021868116 7
39.171197456612205 66.80608112092172 6
84.06112939925296 60.575464238633344 4
90.28287417005883 52.411005251119995 7
69.14859724119148 96.13822710819858 1
124.86644382547972 43.80731048486926 5
86.34530507533768 99.87286890933335 7
65.25506529255233 47.88873043198889 2
107.49618554632198 78.9609056537799 4
22.029633809130875 123.30940493421748 3
91.61826801507495 98.95963799544127 2
91.8709936813802 59.27134256224478 5
61.79816994329079 119.32951263095939 2
139.68241188117696 101.66669682958042 2
98.7868062838739 100.42386328037604 8
97.36859993956979 71.21345171328966 2
140.85204155634008 100.09783835813066 4
66.61605069733886 41.10069042385865 1
61.59919479154226 53.668304187379746 5
54.82112844260503 58.183203416700124 1
86.97727090170967 113.04510220827365 3
38.086426750839934 115.45676647270548 3
36.73830935773801 124.83316191624579 6
34.42283038100154 64.05110263631511 2
66.37041077622585 44.82890303060685 8
99.84413097292554 107.29613801886258 5
127.30710934207107 106.44256725366154 8
79.23849518588925 111.89046353766948 7
52.66408728424458 53.693413469980584 8
54.506280471873744 51.64639720111595 7
73.59919373511683 113.51657021258518 5
138.6434695662324 51.391266208778795 5
59.928270917554705 46.94653578206507 1
53.5821707895574 57.742185255703845 8
30.424104967398648 59.372143839460556 4
91.64821015490821 98.1893513269893 1
113.51250513342477 40.27844927067693 7
92.27661902888175 56.42325780642517 7
37.67424447415549 115.96624899401304 4
39.02812587599753 109.22371524015222 7
108.36073184473942 65.12959122020872 3
66.24854158274982 111.6815189161522 1
69.24913534499308 57.4280720183994 7
80.39068007933032 66.47000586825982 4
50.767986558217004 59.13389394823466 3
77.22350803208117 57.58287952861275 1
94.11005029244149 103.20250686027332 3
90.99121068385182 86.26664549643534 3
69.96993667976359 60.46234039237639 1
63.06278526198265 37.24459039342922 4
76.26791542145486 60.16536851090841 4
119.44320077489492 39.89574174400995 2
35.95711207626666 115.24079325863391 4
83.74954468154633 56.761921581996766 6
76.30892348721103 59.03816849098831 4
38.160043397138544 117.67148685918055 4
77.6270584144731 57.474247817473135 4
33.92587126278087 116.48587325365985 3
74.52419100849943 100.67394531275752 3
79.57946445595076 63.619294426214616 1
120.9772073192067 98.11466385436597 8
133.64760376753114 103.9709413562676 7
33.69714908431201 70.75521427235662 5
36.761218114470786 108.86471526981747 3
92.6297664081997 99.42583794608967 1
73.2081056531926 58.254168270903214 7
136.67868255543326 97.73432148231919 2
105.35918854423424 80.38681216202231 5
92.6105491659099 107.66476253588266 1
58.76835093768629 52.139636094307015 2
69.05258718922539 54.5637343362579 5
105.82785762719705 79.65484457686178 4
71.65551318808038 59.31872608616939 8
42.46269205548864 92.25840990679515 5
62.90276371890877 58.30269757138685 2
127.0463316898518 107.41445511468821 5
62.96210610121074 46.4719281229306 5
58.64884739049375 53.547483026827905 8
84.0409413180387 57.02197227845517 1
89.85027332788314 99.64327242329644 5
43.92989626468324 54.119390147991 1
65.22245255807216 54.20131666423528 7
83.31347182064889 78.27540212005025 7
96.53297731790546 105.6483388216636 2
68.28251777950301 41.612826269763445 6
146.7600994048781 60.62933609062947 4
42.0739404072373 106.22584265830116 1
45.45304483321441 127.43300216192456 5
105.05594190222277 52.121360702653604 1
57.12673524475733 51.16704542342632 2
107.45113004956131 67.47825385085952 5
118.37752499433591 55.6267113054631 2
104.61158245519823 53.18942223181709 3
147.48539933948638 92.55238041716596 4
83.1675080392071 62.43242232822808 5
64.17761152278108 48.34754890728539 4
86.53906991184914 114.96416686779396 6
84.77656331740343 101.66963385167068 7
109.00166014960028 65.83174579017337 2
52.395061532727496 112.7968211914038 6
62.520639530969156 45.814380624953564 1
117.00150202906083 106.10246294880218 4
103.80155385802374 103.97087550447316 7
86.67772634209 97.61396817041519 5
109.22021709048575 100.15801481142731 8
131.24636335574473 37.174076780251056 3
39.50730580804397 71.46851138645121 5
37.31223257520218 116.84957198577762 6
131.7853961323623 24.79242167549276 7
75.73999784636662 60.81935522348873 3
134.28270760453086 40.47723773000187 1
64.7556109505184 117.07262917625438 3
85.01110809877487 52.6449645424298 1
80.77628538172816 112.16768792842528 3
39.654134600007225 114.80395884295733 2
44.59196881628674 53.083762359080374 2
113.23201325508543 60.882493820517055 2
54.34382764551192 50.09441182498696 5
113.88937511161214 99.5139057346984 1
50.87781839064206 125.33056513136344 2
87.1539654546105 101.18139231413339 2
70.58614048146833 125.69558688752078 6
50.28295606681579 77.50438883377707 3
53.43987969814507 118.86236801564313 2
62.376218242671385 57.06672922969397 2
113.45366901231604 105.74414822052643 8
41.94662830753983 128.12857862151282 4
151.0045701837674 36.743654098097004 4
100.27222788184115 61.64826856790862 7
60.88682920370371 61.654512025345284 1
62.26503053973075 54.31133443401005 7
51.81289748782279 53.5610094445865 8
44.96756765169016 54.14294186050385 2
92.24108577436353 51.2241279881403 3
72.95700113306034 118.253004740964 8
68.92104726146955 59.508203974320686 3
103.00882001044673 82.43282293424383 6
37.48174121388944 112.19997432314936 6
72.67355412483107 58.15214603654357 7
63.15193766316854 56.98006683226343 7
111.98322980534252 58.018210931200244 1
116.2159351297392 41.864940577047804 8
90.25005480352134 100.99672832408672 8
61.00743131679679 41.04650793865311 3
38.83410644698435 70.49725260312553 2
22.99816022569688 131.35763590418443 1
82.50802384683806 111.79628717712153 4
107.52263235614316 109.80033100731794 5
70.36147749849928 81.87818704558727 3
49.114980883755386 123.01682479098817 5
34.745698365776875 111.0697676783353 2
58.380315934763225 51.90998959299955 1
110.46454721024718 81.86016605398734 6
123.44722253594445 62.59424442324671 3
55.94080832538522 50.87570962826688 3
59.04760937257378 49.521051582683604 3
14.585828501812099 128.89650551018423 4
87.59440242261724 56.83729241148275 6
119.22593503453123 101.79908862732806 8
57.65008502265066 52.790833559924884 5
54.37156686646462 53.128274831015 1
60.87877071728877 48.37934972557897 5
106.12394610759677 66.20755279937251 3
41.38191419033613 61.62529346827021 8
75.58938634840109 61.725382823174414 5
83.91984677918883 61.551082353005135 7
47.22895815928742 93.12748171938595 2
63.90506536885144 51.49013486614312 6
99.58309837084467 48.01884981899005 2
115.75040003725209 45.82673218778835 4
100.66945007988471 103.42045822388886 1
105.0692279809079 75.62821362979348 5
99.3828816782892 47.61238715306282 1
33.75377403797869 135.51622854464028 8
69.6516414845772 44.66653085238394 6
128.74066088841906 49.789965295940995 8
81.26584883780312 53.89078200699115 2
91.76136742461756 109.55648649640744 6
39.67905451977196 128.49362014432518 1
105.03275663327034 53.55525738703939 3
46.8428069384028 109.86798515450126 2
134.2090494643331 94.43267251223546 4
110.85046402902353 103.47606238508406 6
36.85950403549447 115.27107998119668 4
94.96863698063805 80.84167510605175 6
79.95867222720683 109.43701247678773 6
64.90881123306495 49.9156869670076 4
107.13225720350448 53.874718884313445 8
67.95403440324392 116.12575999550232 7
70.22372591472858 41.5971236101079 4
38.48685967119883 115.52234226824757 3
76.81185802998371 58.18784662478729 1
132.99044217398324 102.3438145135823 8
52.9296610029379 58.90233088655489 5
65.01453992836824 55.812813500570904 7
82.33018422215302 55.22420494259899 7
40.8351894175758 116.6832590073648 6
135.75298418500134 92.91684700802882 6
127.93826889740691 89.17700517243648 4
36.86162969108143 107.47626493419547 1
136.361893082964 36.31852603589749 7
25.968668706438926 132.3921792097128 8
60.65541146897948 124.76916899508267 5
58.650789208879644 53.570318855152244 5
26.893331256545974 122.97477834287693 4
62.38243519021707 52.680453453034744 8
40.227539169507196 119.12173887212197 6
37.92396035365424 105.69146940003237 4
59.26073017080404 51.01553216808866 8
35.17486903562271 88.21082314001981 3
141.73691548890505 42.915838885978125 4
99.41588391323184 45.183468754698886 5
61.07933808034167 47.824014549801795 3
96.61473205178048 108.34485892231692 4
80.38559960731638 56.28932283541811 5
72.83230266533678 59.45466558179733 3
94.42427131655911 51.567458660785604 8
78.92844719203138 106.768323674319 4
92.15219040770816 52.7753564726625 6
95.99018129685214 51.15348138473768 5
45.169830322046685 107.09492482925837 6
35.19103271290504 110.86923836743497 4
19.166147379658312 138.04629505437612 6
86.03978632211434 101.09716994430413 8
74.5405081996732 61.385510332068016 2
144.12330257179252 93.38208436090102 4
135.781225994032 33.40831775901868 5
116.30503594649616 70.59715399369381 7
79.56886218243045 102.12980245571535 1
24.255783281529915 137.52986018083473 1
37.38247011174157 128.09454559289756 1
49.392258665425935 104.36331530771429 5
58.60973040597678 52.65262438580342 5
42.073760725053276 105.26357452177697 6
107.26235400874472 57.3478448683767 2
62.55403798114049 53.82923473827236 5
58.53144407069262 52.920197175500334 5
58.00991652257548 110.25192775709417 5
82.66753186916458 92.96078509992437 3
68.35398289557706 53.27285493478785 8
32.03135389343803 129.12936566335605 8
34.97425102463031 78.47779596950473 7
100.31449983428593 105.65467741428783 5
72.13158941780765 60.44934218659647 3
93.06073431647866 101.52675857239525 2
104.2826220020925 98.03560923059588 5
76.162017017101 126.17551355521891 4
108.57271564752014 43.56754098096619 6
61.233442599949775 51.0748319163636 6
141.1940040540622 61.44405839258122 6
93.50259553660077 105.93204293994462 4
120.08659100300203 79.67698888462034 8
108.20516545862264 56.914962762685626 1
67.5229941720841 50.14986821349585 7
102.33990029085629 55.7632533956064 8
137.63899810561895 102.10382003897698 6
91.63867050477158 50.685114388952194 7
47.33670973902824 79.73012010699041 5
85.23682046309311 95.67265129126491 1
63.39535805277178 46.90838543445645 4
103.48741162799743 108.63843934390471 4
111.28027379824125 43.59341405803207 6
59.8475613804068 52.64695735934766 4
93.57573334596397 92.97656852763613 1
34.07320622183049 120.26869292275462 1
52.480681647514395 51.555084540947135 5
36.90266701078384 62.87491724376659 7
38.78349126690978 127.3484583462868 7
101.90956969265233 98.81616446879673 7
108.7149482877065 103.1823030458642 3
74.15866491528863 55.09154722117057 3
76.77078633443706 74.74956612273624 1
146.81360995508828 43.00821205769253 5
31.092665235662164 75.49064157618992 7
97.66629795033934 103.63042982614762 2
97.57523105427582 51.36523659283616 2
76.22626502800435 58.7955568053273 7
97.64095541429408 55.72253221708646 6
68.72704298716963 44.869013123316556 7
94.06836230545649 104.55877805178288 6
115.2399099213003 91.51778786627595 5
77.32562264705098 58.034268457013916 8
89.04426707214678 102.02660232043861 2
32.62416287280874 101.87667641778354 7
71.74544420681474 55.73208304534959 1
123.3766551525758 43.89066415957591 4
100.73011589822613 66.69008316610729 2
61.690520053695636 55.28226482690755 1
131.54402001139437 38.53581665887706 4
98.51391604829857 56.18262569223798 4
89.06696071270503 45.86443599865767 2
58.98390612521375 57.54367799483617 3
19.147517868697786 133.72399578288412 1
89.05487338937573 106.18331620687674 3
52.099736648552344 52.258465138494984 7
72.87481645390605 58.52281929986732 2
129.31125186621205 89.41102755386449 5
112.36899098081194 98.70830925795461 3
61.33364756161763 54.38542982687366 4
60.542931789497956 53.94139383994541 4
105.97988664891847 106.3730063384803 1
123.50170122569145 47.477128015573626 7
59.179003297412855 47.72488326147456 7
68.35202548279527 111.27265426435142 2
66.95832572867397 39.52399857608393 1
136.52182501657217 91.74857670908803 7
58.36737413263753 44.69873827465441 4
38.04771571454405 69.16372943194334 3
66.59093625511441 48.16484696168107 2
100.33447624295695 52.562270708137774 1
98.96486765624923 48.016825068305145 7
98.17492114272817 108.56136473130915 2
55.86461612238215 56.128401144822966 1
27.275190343026413 130.0575542518822 5
38.35254845431298 117.73828914996265 7
137.1540567749051 98.0869387385122 4
69.187064200008 57.91828301422621 8
58.58095304124396 74.94056274407663 1
56.947320810503406 54.40965976446796 5
111.90498244662146 64.13896021499471 6
52.618409978119864 57.114527764702025 7
43.21226825706234 75.72446882528851 2
91.07793280924362 91.72364892734109 2
50.626137753043366 54.397871427788715 5
98.96088686271474 80.45813958481922 1
26.614580602865708 117.98299034770176 3
75.25900115777725 56.45837625386014 1
107.0677456758223 52.74957534185701 4
17.364805038273737 111.33496008966257 2
59.61872500999769 49.896621242021034 8
101.09475366242695 57.24320693543836 5
89.95882358062826 102.42443260923548 4
38.283656919709614 114.0641776017759 5
66.17373863397714 46.58103738582346 4
44.82316868448518 110.18331774253525 8
92.78268907862537 66.00709478163843 6
51.63765434905809 59.08399525793118 1
97.51910884463712 51.673291057491795 8
32.43684851801488 127.67079334986397 8
69.27233343433906 50.8077996029346 2
139.00565922179223 68.37704409348638 7
133.40803406807984 72.76965504112081 1
40.05613199396205 105.79668258151996 7
61.58543981215991 49.1702162158436 3
89.42764582650199 91.78703060450626 7
96.98604237405945 61.71959500977259 4
117.7469839864786 40.68633638275203 8
61.01643684967803 51.165899077647076 1
88.86168345081525 104.04581839500581 1
128.01606565638474 97.65885936349518 1
25.80511514074091 62.986693572894076 2
100.81839956876064 89.70808380049132 8
55.18691507654168 78.28704702981015 4
97.10168511158528 52.438267201827834 6
151.8669913456148 84.35634253830258 6
137.34684600117285 32.222325022029544 3
106.65073848225163 108.46835507901159 6
68.07839868368421 48.89661576559708 4
119.51880074924115 57.02380386738325 3
99.38398151326683 49.27873613805815 7
86.38320089723952 109.08751732143143 7
52.35211654404816 113.46322183822542 4
99.33252609615634 50.60469395903677 2
57.79077818637193 54.891957870404916 2
107.50836880938999 80.0993708568354 5
107.11058953178373 57.60758204351894 1
94.42082487102084 37.69456282934696 8
51.24493618137701 56.1532863384419 7
60.31149052433168 118.1821631096715 2
88.23967254288316 107.81335151324018 2
133.94474698563394 24.393888585034734 6
124.17344561526215 110.66334003442277 8
131.96058213973583 100.14152064365017 2
110.39226126700423 103.17698998754031 7
95.88820106541375 80.92753935352417 3
23.8774537183373 93.03196539547109 4
107.82046486185915 54.55710325752428 8
21.641904073760614 120.83156115781578 2
103.15584098084577 108.20046205761456 7
76.69893021584657 84.16626150516842 8
121.50157971861991 104.26066069488995 8
112.51934775073238 103.68791045583241 1
86.95480923961645 51.69192467904513 3
72.68443192069964 55.893379673247416 1
135.22992429470617 105.37647699362088 5
61.5443677679321 53.479204694794134 4
59.49843168364289 48.954174407343785 1
77.20329467375906 52.35748211428859 3
104.51312939085885 104.73240109733796 8
90.06659513155557 49.072603024983614 7
30.46813741502683 73.22736517974467 7
105.78771712136358 109.02934144162094 6
68.42467772623041 51.277609209865815 6
99.43561004229096 94.12909639843852 3
106.50076152904397 61.696461424345316 4
81.50081258892673 54.63543815695846 2
126.51844111068587 95.5652067909003 5
87.15358887849777 98.05385330441322 5
102.11371371755206 108.98980187183997 3
51.21742880329964 126.11803329962203 1
124.68972886962553 82.32729081268333 2
94.54323472645595 54.94870257175681 1
101.41718369096152 69.22673699003731 7
93.1322772332299 52.8473336561234 5
37.31878161721775 112.93013439122043 1
38.51659229066155 62.97404074238309 3
81.80183874826972 100.27802152600087 1
59.651560923929885 112.22946688274915 6
82.59852856165755 116.16034911919827 3
96.59206881377224 108.47374207076737 6
63.43248701830416 51.234660232890214 7
71.37937412672316 112.00710042099249 3
38.46987877238159 109.65908207835119 2
73.54575329091902 55.76237962213855 2
66.48885850147784 45.804205221999 7
66.64702874029145 58.38454163217853 4
36.43869645892549 113.37555958090742 6
85.63819115017246 95.76682387846914 7
140.45965064060292 36.796304631727374 2
54.718637281430794 53.69988476532594 8
120.06273259692303 43.93949634696322 4
84.68748179881337 45.98670967997687 3
17.90099328165136 130.307434809447 1
68.6389967443893 44.14882770952134 7
102.44418915372341 94.68103224812661 3
28.940652099867407 129.3369733029979 1
98.03720190267005 46.41534407454896 8
19.56067169327805 130.778758799963 5
103.60957842634456 51.592996658619626 8
71.191836623452 113.35856160743218 6
76.5917260664827 61.86047098322699 6
80.0940717826261 99.55616835925184 1
40.99673428335146 119.82088250951996 7
75.39268735320672 89.7253532696332 3
96.08565507210251 99.45547142514832 2
69.37391450089547 46.91366534303695 1
100.44458216062648 78.5520121658333 8
63.439924108494814 53.77679432556592 5
75.48655060425588 55.98764780715263 8
53.869292572268115 52.305115447655275 3
130.69183443324073 32.2683345479344 8
128.04840867688577 45.89206584266799 7
113.1144762513122 53.052146327206295 4
116.49865461614101 45.06222085243298 8
111.18749895773426 82.78443384358471 8
107.58890195537725 107.2256824402707 8
117.91918510547197 41.83873529678579 8
40.439529764165606 109.85031805726246 2
51.34035616639713 94.66548373141288 2
143.90293778229983 62.39439933269573 3
123.45419448878161 89.89289220964888 6
53.313421214781734 48.24011864359371 4
46.45437035501784 65.04974827065332 1
85.27505646330383 104.64034043124391 7
131.7164853436149 83.47638680413475 8
89.06827697804398 75.91615816111418 3
135.7093613076815 87.51579439640345 1
99.1890192799168 82.87672778330014 5
50.11848734374056 90.47493223570685 3
54.82605263231586 52.47373051532264 1
80.28425183774887 104.36446468442243 2
128.48169229542873 40.63476392622934 7
73.09635151948399 120.65310791468197 4
104.13128765608839 53.98615593824055 8
132.71987839260262 67.47349185908747 6
102.2342569300724 57.13427787765337 5
94.2405227512646 81.77121625431414 6
52.671378524462654 50.387373960495964 4
77.1955484874986 56.56737680731208 8
78.57529161358087 103.9980430417716 4
53.74775976152335 64.8414324400547 2
49.68025820201263 62.00735294910581 4
38.58966542821038 121.75353021957162 6
64.64410375374808 80.44084451817416 7
63.546890210588984 54.75227954499533 7
62.09839677707953 55.35039574281545 4
82.46903672505906 58.377566934010744 7
59.68775388478942 47.7061299662381 5
67.47195114713251 54.811631439032304 4
79.24677878855456 112.74881319204661 4
66.32608266857544 106.83836037181632 7
91.37784250528759 102.33621553102601 1
39.431442829342124 112.08679792959587 6
134.00845235257285 82.82720944856196 4
66.29581702329422 55.1263370872917 1
104.43742227126883 54.35201116245693 1
64.94890331655513 54.73334587192938 6
106.46616130088813 65.95940140430733 3
83.45112096333261 64.52221490042399 3
28.50957087497843 80.66265617309034 8
66.1328601032926 45.989413161711454 7
48.924323625031704 64.01189267962755 4
54.796502379823174 50.99417525809704 5
75.41064154639817 113.91594686797882 5
73.23072126330733 84.01687489319096 4
104.13115621902564 55.97119594180665 8
73.59108025413919 60.146821871827306 4
95.64147007564428 101.69309441703791 5
62.47711020655666 48.76759828564293 1
82.12768398080671 83.53845333890474 6
114.52095187382892 107.52779030726215 2
111.32666182364613 67.47194498569434 7
96.35718582347344 48.81104719843643 2
39.63038679244697 119.19656571657414 1
64.83344822923506 44.3219541913546 5
102.61899417274262 68.73440871699805 2
79.59544643104022 103.35670162700251 1
124.45683517895452 90.4383135879954 2
129.16782535724448 94.89659961573209 5
37.57736227393815 122.48963277581922 6
60.44832902217564 52.50958574869569 2
70.6748549523336 56.04681423361436 6
39.457427607316966 90.52873521275517 7
36.820467895293994 64.57453707002492 7
97.7055395260623 52.93223917154537 1
129.9285110119031 43.30163372975461 1
123.52963063974761 39.88637361253261 8
79.87988097939746 76.11644923757241 4
108.29543939690929 29.738447709004035 1
71.23599463144218 115.46718593566577 4
102.7393930897707 87.18114670232093 7
44.20113014541194 80.77854019771115 5
96.12397169889071 53.06053523307329 1
79.99910762202731 102.69557007553131 1
128.86592261714037 36.68909762195254 5
50.16677176626882 60.84478645113802 5
38.70545869407076 116.54809516971221 6
118.61893139834874 30.367203456669564 3
20.375612277459304 139.2285563505644 1
87.90630537819106 80.09275487766023 1
54.97574937987202 52.570629697722985 1
84.640093924632 102.60561332683447 8
51.624181717593395 113.7458221081975 6
96.82888678003144 48.412661241444965 7
91.37811557574604 104.01677285662974 8
81.86599717791576 51.39064604287367 8
61.38587289215165 50.76912901822435 6
32.05768459138876 103.9148869157417 4
78.49533462542662 73.09588228580752 3
36.70166988772369 111.21630082227426 4
66.43888231367517 44.35675103758975 7
42.155589975955564 88.2767337478018 5
103.54651469381959 52.08622974918803 7
102.448078110726 37.33528510421061 4
37.287938687282384 141.68945130636627 1
43.14727654411606 121.8610753804362 2
121.9336305252474 66.7849415599622 5
104.9690541475396 52.36649850493565 7
86.7048887835626 58.15400604941993 8
35.73222753684397 99.27534557813642 4
78.66415421073914 107.16819260801724 2
140.0213622616938 91.46620520865343 5
56.30501227486603 55.868448428810176 4
73.13031332092052 79.86620129927576 3
110.28075357607544 102.79251302625703 7
88.18428846506116 49.97928166059659 5
148.94784938754748 40.41621171108059 5
96.86464087045186 51.61723777884574 1
86.59252253799012 74.43260363469173 7
95.98305369545594 100.72152792058083 5
82.05434868909794 56.48370865556825 8
98.00619040109275 99.42249749900495 3
102.51708144783981 49.64606874873566 4
90.33845476510601 55.78030985737794 4
52.81125691578944 53.79079776898229 6
128.73738096850528 98.71574558040801 8
50.456000924620696 63.26259548651581 8
90.76456078147682 107.15131047417323 8
88.63188520051202 107.16871536744036 2
102.25082535922786 55.48650850852116 3
114.99916208266345 63.15695323064959 6
32.03324120082389 127.73136449972058 3
80.00114319913153 104.97000777755723 3
99.82320895380741 60.49729454036519 6
67.48158053609572 43.42741696194305 3
55.02822156478183 53.266615856256756 3
40.30939344585269 114.14037982135358 8
79.66376056167498 56.37083231321051 4
62.558047215163775 48.092152592182074 3
86.92026975225099 56.325247683512494 7
32.35294780383521 111.86295210698104 4
144.38429708488277 46.95926132873869 2
100.80879218395731 57.82221693582433 5
38.77159387739342 116.76854955422235 6
40.506995777768246 64.29227969358742 7
50.63577752275796 67.52916450417537 4
39.22228053717758 62.37684698152513 4
56.27150630474527 54.57080866200235 7
77.65229362974215 55.46363064683259 5
41.18007256576687 120.0046386840377 5
65.18943881226453 55.01057869798689 4
101.99850311632137 101.99977842018225 6
105.44312466908328 52.99252370074628 6
64.62450102575689 59.76050751466041 2
34.48060330706478 125.59536321638245 8
66.10239986357907 38.21421290206408 4
76.39238012017245 59.91513275541528 5
99.37688575620358 80.47136789896992 2
87.36343945126843 56.18242890200328 7
143.85217399816784 64.13979935292205 4
50.34348220060454 66.2582258173011 4
73.65374422279373 57.99646177098519 2
61.02922967438166 52.25590309196602 4
64.08060756376588 50.535799626431206 7
100.343360132908 79.01814358936747 7
103.91554763940842 49.19513744678246 8
65.56031382033494 52.41385578135992 1
52.89019649129288 56.18544405678113 8
88.53712379923354 74.84611891182503 5
45.94750658556567 64.12163343550003 2
134.9194171274393 35.84575360245048 8
70.98832575446318 108.77689072461857 5
125.34069871148698 30.434797891497475 6
76.4990891155018 56.77765930708256 1
100.30042759282722 46.55870841623396 2
68.2353454924874 61.51646480828289 2
22.701427143734186 128.2135421750489 1
151.44745330012162 30.262016293320244 6
120.00508789667235 29.172343741836936 8
57.36248043316941 110.81873753040287 7
38.93873544087455 107.13534776811441 8
30.89892653467521 131.01465718163212 2
93.93159310859963 100.9524269002147 6
71.95310639512977 58.72758003893095 2
131.70991300360214 81.90315335437953 5
81.4422967299841 106.39553221424963 7
64.55333387677231 50.0821014977939 5
129.44049754203732 110.05302195529558 5
137.4695757024887 51.65906104594333 7
37.660314331672794 129.38779112121952 3
45.18393670717598 106.76928928713298 1
75.01939224170354 56.52752383445762 8
87.72874744869388 98.47897492628891 2
94.75773631739509 51.63529724891921 1
110.16478951767937 98.59834286487482 5
47.115886404595884 120.42137514779692 4
107.34481133432061 53.22258539443254 2
52.72692056322171 66.98574454549801 3
108.04880532137592 73.35917693423781 3
108.60170694625339 100.25445411878911 7
33.31587090831396 129.16371232020697 8
50.654020414633614 113.16117237866835 8
39.16640361091591 113.65321511008881 8
143.97255718100325 96.16331992517556 1
99.38183843582081 59.83413911418245 4
112.42626702833394 62.54561598179679 2
81.89612562669583 114.76111128419551 3
49.34475627907605 84.39280151213097 4
110.83389060843399 55.33289631025201 8
117.11599726984517 33.68564655853431 8
73.9302516363831 63.72123869586612 2
137.466556657176 41.24499074875682 8
75.99158804716717 64.18849803756758 3
99.05544795167877 100.54007198004453 8
63.8386641937093 45.899925516229764 3
73.93835987081488 117.35855821151415 8
62.29081656490837 39.84601556359969 7
118.55884868204726 54.332391013715046 1
63.564091675531465 106.64709503201415 5
99.03363038286223 80.40813854694905 5
62.55067476192176 55.70485606549299 5
66.8083672249227 94.90865267337591 1
121.68307712826048 55.39373285336661 7
64.98077643283884 54.08243185615345 7
83.45501314306124 57.52709022636906 3
31.02645212382715 111.05461241763396 8
76.7759511123994 107.76795284925697 3
37.395264180636225 122.01853082750306 4
55.5793581497412 53.09464342625144 1
69.69085476999342 40.982958833694305 4
61.69590788035971 50.43266427355255 2
45.91489861236893 116.1336785892179 5
117.8478962777084 105.43579047258619 6
96.60482917850916 51.89627084164378 2
104.47375791648581 51.38853719395661 2
100.14576744948906 79.2220600133005 6
38.17960820417089 120.4142008582603 2
131.13622475512094 20.03039557260125 3
158.34872662825796 74.88297162134778 2
52.46816550274866 56.71268244612174 4
36.9022785930693 112.24739221657069 1
98.41385740284838 63.181382216858744 4
92.46345064624118 108.6250901984368 5
40.71543687513451 90.05556461479573 5
20.935720712398094 129.27154296539953 7
40.06723386805148 130.64238111733877 2
105.53610143417303 62.30791878487667 7
37.92592313557314 79.25236640399939 8
103.63015975458312 47.845583982919955 5
107.55623723977229 78.26632184163977 6
41.11394729363022 89.45216908644785 4
83.13449191101624 49.9749810480175 2
40.69191299673064 125.40189725153554 5
21.681450892738454 107.84736362986658 2
58.264924912561135 47.60165527909034 4
131.53997305344848 100.85130682185645 1
99.91901264467539 49.49032410608299 1
21.837204238569274 136.2496416469143 1
105.10641151358001 46.67293589967172 4
44.49703143995153 75.30470063481026 8
106.86168537242709 77.20875220212773 2
101.28437496157021 52.600749020431316 3
101.9954335355956 104.98645027695252 7
103.13041257244494 70.17014264204775 3
43.145207199261804 74.41572043092037 7
61.33101396574721 50.025614691695154 1
103.19269292629312 54.57989812409581 8
35.68422319038011 111.86816039685245 8
61.24217706267881 54.44607691453192 8
62.333677662797626 50.31196172854658 3
61.044915822269125 54.081645273819234 3
99.09305024202708 76.6105250271005 6
100.40753845973136 106.78197068395177 1
21.825321069659548 131.75718299485007 6
129.76863749712635 95.21969539068161 1
136.6429093797462 100.19618109124904 7
61.52342877394362 49.44913983439561 3
97.56737058600397 92.38529911410255 7
36.673376011747266 120.63852035691968 2
75.54312815794452 57.53648098159007 5
108.25423029583341 106.85155020212912 8
75.49649108152838 84.17517486341863 1
109.81640172915282 103.51393823706542 7
39.37105737203103 104.90386705820512 4
39.24417024959378 70.37532591945956 4
113.91685370047904 62.15372699194386 6
73.18594709930653 109.36897507428036 8
80.60250260064235 112.7792866935282 5
93.25934373126918 106.87764441273865 5
132.08623779640092 99.97783387992044 8
36.303890258634716 112.39368154566381 2
138.07586763476624 92.83963185807634 8
110.29941284526689 105.06941913790783 2
97.3946246723728 105.7216415232526 8
65.01025611046434 47.10307419093284 7
64.52156974556698 52.28112607961481 1
68.82854211592165 59.91051146385955 4
90.94477467639963 57.31941453997454 3
69.68567774330324 55.80641460749472 1
38.08979131287507 88.34403264340078 2
96.90491200521869 82.65218687486657 4
